<?xml version="1.0" standalone="no"?>
<!DOCTYPE svg PUBLIC "-//W3C//DTD SVG 1.1//EN" "http://www.w3.org/Graphics/SVG/1.1/DTD/svg11.dtd" >
<svg xmlns="http://www.w3.org/2000/svg">
<metadata></metadata>
<defs>
<font id="helvetica_neueregular" horiz-adv-x="872" >
<font-face units-per-em="2048" ascent="1638" descent="-410" />
<missing-glyph horiz-adv-x="491" />
<glyph horiz-adv-x="0" />
<glyph horiz-adv-x="682" />
<glyph unicode=" "  horiz-adv-x="491" />
<glyph unicode="&#x09;" horiz-adv-x="491" />
<glyph unicode="&#xa0;" horiz-adv-x="491" />
<glyph unicode="!" horiz-adv-x="454" d="M184 0v197h86v-197h-86zM184 991v471h86v-471l-12 -610h-61z" />
<glyph unicode="&#x22;" horiz-adv-x="606" d="M154 995v467h69v-467h-69zM383 995v467h70v-467h-70z" />
<glyph unicode="#" horiz-adv-x="983" d="M27 461v69h229l51 365h-223v70h231l64 460h70l-64 -460h281l63 460h70l-64 -460h221v-70h-229l-51 -365h223v-69h-231l-64 -461h-69l63 461h-281l-63 -461h-70l64 461h-221zM326 530h280l51 365h-280z" />
<glyph unicode="$" horiz-adv-x="983" d="M70 381v45h86v-49q0 -313 305 -332v668l-72 24q-141 48 -216 128t-75 214q0 166 100 266t263 105v143h61v-143q359 -20 359 -383h-86q0 296 -273 313v-602l86 -28q78 -26 131.5 -56t94 -73.5t60 -104t19.5 -141.5q0 -181 -109 -286.5t-282 -113.5v-172h-61v172 q-90 2 -160.5 27.5t-113 65t-70 94t-37.5 107.5t-10 112zM184 1087q0 -119 59.5 -182t188.5 -98l29 -8v581q-122 -7 -199.5 -79t-77.5 -214zM522 45q134 11 219.5 99.5t85.5 224.5q0 71 -17.5 122.5t-53.5 86.5t-79.5 57.5t-107.5 42.5l-47 14v-647z" />
<glyph unicode="%" horiz-adv-x="1402" d="M113 1087q0 363 249 363q140 0 195 -89t55 -274q0 -182 -61.5 -272t-188.5 -90q-142 0 -195.5 88t-53.5 274zM182 1087q0 -116 23 -184t60.5 -92.5t96.5 -24.5q87 0 132.5 65.5t48.5 235.5q0 116 -23 184.5t-61 93t-97 24.5q-180 0 -180 -302zM352 -25l621 1475h69 l-620 -1475h-70zM791 338q0 362 249 362q140 0 195 -88.5t55 -273.5q0 -363 -250 -363q-142 0 -195.5 88t-53.5 275zM860 338q0 -116 23 -184t60.5 -92.5t96.5 -24.5q87 0 132.5 65.5t48.5 235.5q0 116 -23 184t-61 92.5t-97 24.5q-180 0 -180 -301z" />
<glyph unicode="&#x26;" horiz-adv-x="1099" d="M41 348q0 72 17.5 130.5t56.5 109t79.5 87.5t108.5 89l86 65l-67 93q-59 80 -87 145t-28 137q0 113 78.5 185.5t195.5 72.5q131 0 201 -76.5t70 -177.5q0 -103 -55.5 -186.5t-151.5 -161.5l-58 -47l338 -471q56 121 56 270h77q0 -185 -84 -338l197 -274h-86l-147 205 q-158 -230 -410 -230q-99 0 -176 34t-121.5 90t-67 119.5t-22.5 129.5zM127 360q0 -138 88 -226.5t223 -88.5q114 0 204.5 64t150.5 157l-363 506l-90 -72q-105 -82 -159 -162t-54 -178zM285 1192q0 -47 30 -114.5t70 -121.5l61 -82l70 52q82 72 120 133t38 147 q0 85 -54 136t-137 51q-95 0 -146.5 -55.5t-51.5 -145.5z" />
<glyph unicode="'" horiz-adv-x="376" d="M154 995v467h69v-467h-69z" />
<glyph unicode="(" horiz-adv-x="454" d="M135 543q0 496 254 919h62q-109 -179 -177.5 -421t-68.5 -498q0 -257 69 -499t177 -421h-62q-254 423 -254 920z" />
<glyph unicode=")" horiz-adv-x="454" d="M4 -377q108 179 177 421t69 499q0 256 -68.5 498t-177.5 421h62q253 -422 253 -919q0 -498 -253 -920h-62z" />
<glyph unicode="*" horiz-adv-x="606" d="M61 1264l25 61l188 -90v227h62v-227l184 90l25 -57l-178 -86l120 -164l-53 -39l-129 180l-135 -180l-53 39l127 164z" />
<glyph unicode="+" horiz-adv-x="1228" d="M96 483v70h484v483h69v-483h484v-70h-484v-483h-69v483h-484z" />
<glyph unicode="," horiz-adv-x="491" d="M170 -193q35 26 46 70.5t11 122.5h-24v209h86v-205q0 -79 -12.5 -130t-37.5 -81t-69 -55v69z" />
<glyph unicode="-" horiz-adv-x="645" d="M129 522v70h387v-70h-387z" />
<glyph unicode="." horiz-adv-x="491" d="M203 0v209h86v-209h-86z" />
<glyph unicode="/" horiz-adv-x="569" d="M-18 -25l524 1512h82l-525 -1512h-81z" />
<glyph unicode="0" horiz-adv-x="983" d="M86 713q0 380 98.5 558.5t307.5 178.5q222 0 313.5 -172.5t91.5 -564.5q0 -266 -45 -429.5t-132.5 -236t-227.5 -72.5q-218 0 -312 175t-94 563zM172 713q0 -163 14.5 -281t40 -192.5t66.5 -118t88 -60t111 -16.5q80 0 135.5 28.5t98.5 101t64 205.5t21 333q0 80 -1 124 t-7 125t-17 129.5t-34.5 110t-56.5 95.5t-85 58.5t-118 24.5t-118 -27t-85 -65t-56.5 -102t-35 -115.5t-17.5 -129.5t-7 -119.5t-1 -108.5z" />
<glyph unicode="1" horiz-adv-x="983" d="M154 1130v70q111 11 216 83.5t138 166.5h70v-1450h-78v1303q-54 -62 -154.5 -113t-191.5 -60z" />
<glyph unicode="2" horiz-adv-x="983" d="M94 0q0 305 252 506l207 164q56 46 93.5 82.5t73.5 85t53.5 104.5t17.5 121q0 143 -77.5 230t-217.5 87q-80 0 -140.5 -31.5t-95.5 -85t-52.5 -117.5t-17.5 -136h-86q0 193 105 316.5t295 123.5q49 0 97 -10.5t99 -38t89.5 -69.5t63 -112t24.5 -159q0 -78 -18 -141 t-58 -117.5t-81 -94t-110 -94.5l-192 -153q-101 -81 -169.5 -186.5t-68.5 -196.5h709v-78h-795z" />
<glyph unicode="3" horiz-adv-x="983" d="M86 377h86q0 -91 32 -164.5t103 -120.5t170 -47q68 0 126 20.5t105.5 62.5t75 113.5t27.5 164.5q0 145 -86 231t-254 86h-63v70h63q141 0 217 73t76 221q0 138 -72.5 215.5t-206.5 77.5q-76 0 -132.5 -27t-88.5 -74t-47.5 -101.5t-17.5 -118.5h-86q0 174 101 282.5 t275 108.5q162 0 261.5 -95t99.5 -265q0 -126 -63 -218t-183 -114v-4q134 -12 213.5 -109t79.5 -237q0 -193 -112 -313t-312 -120q-181 0 -280 110t-107 292z" />
<glyph unicode="4" horiz-adv-x="983" d="M68 391v78l583 981h86v-989h178v-70h-178v-391h-78v391h-591zM145 461h514v856h-4z" />
<glyph unicode="5" horiz-adv-x="983" d="M90 348v14h86v-24q11 -131 88.5 -212t204.5 -81q88 0 154.5 34t105.5 94t58.5 135.5t19.5 164.5q0 175 -82.5 286t-232.5 111q-63 0 -116 -19.5t-87.5 -52t-55 -61t-34.5 -59.5h-86l86 747h624v-77h-559l-69 -576h4q43 77 124.5 122.5t176.5 45.5q98 0 174 -36 t123.5 -99.5t71.5 -146t24 -179.5q0 -81 -15 -154t-47.5 -137.5t-80 -111.5t-118 -74t-155.5 -27q-81 0 -147.5 22t-110.5 58t-73.5 85t-42.5 101t-13 107z" />
<glyph unicode="6" horiz-adv-x="983" d="M86 653q0 115 6.5 208t23.5 187.5t48.5 164t78 125t116.5 84t159 28.5q78 0 140.5 -25.5t98.5 -63t60 -84.5t32.5 -85.5t8.5 -71.5h-86q0 45 -15 89.5t-45 83.5t-82.5 63t-119.5 24q-346 0 -346 -704v-27h4q11 40 28 76t45.5 74t64.5 65t89.5 44.5t116.5 17.5 q177 0 281 -121t104 -338q0 -146 -43 -254.5t-136 -173t-229 -64.5q-73 0 -132.5 20.5t-100.5 55t-72 87t-49.5 108.5t-29.5 127.5t-15 137t-4 142.5zM188 444q0 -57 10 -111.5t33 -107.5t57.5 -92.5t87.5 -63.5t118 -24q150 0 233.5 107.5t83.5 314.5q0 112 -32 197.5 t-103 138.5t-174 53q-79 0 -140 -31.5t-98.5 -88t-56.5 -130.5t-19 -162z" />
<glyph unicode="7" horiz-adv-x="983" d="M88 1348v77h807v-77q-108 -123 -201.5 -281t-155.5 -308.5t-106.5 -300t-65 -265t-20.5 -193.5h-94q0 110 41.5 279t112.5 356t180 380.5t231 332.5h-729z" />
<glyph unicode="8" horiz-adv-x="983" d="M86 391q0 160 79 262t206 121v4q-115 23 -177.5 110.5t-62.5 207.5q0 161 97 257.5t264 96.5q168 0 264 -96t96 -258q0 -118 -59.5 -204.5t-174.5 -113.5v-4q130 -19 204.5 -119.5t74.5 -263.5q0 -191 -110 -303.5t-298 -112.5q-187 0 -295 112.5t-108 303.5zM172 391 q0 -161 85.5 -253.5t234.5 -92.5q144 0 231.5 93t87.5 253q0 177 -83.5 264.5t-235.5 87.5q-142 0 -231 -89.5t-89 -262.5zM217 1096q0 -133 75.5 -208t199.5 -75q127 0 200.5 74.5t73.5 208.5q0 128 -72.5 206t-201.5 78t-202 -78.5t-73 -205.5z" />
<glyph unicode="9" horiz-adv-x="983" d="M86 958q0 146 43 254.5t136 173t229 64.5q73 0 132.5 -20.5t100.5 -55t72 -87t49.5 -108.5t29.5 -127.5t15 -137t4 -142.5q0 -98 -4.5 -179.5t-17 -165.5t-33 -149t-53.5 -123.5t-77.5 -97t-107 -60.5t-139.5 -22q-78 0 -140.5 25.5t-98.5 63t-60 84.5t-32.5 85.5 t-8.5 71.5h86q0 -45 15 -89.5t45 -83.5t82.5 -63t119.5 -24q346 0 346 705v28h-4q-15 -52 -39 -97t-63.5 -88t-101.5 -68t-140 -25q-177 0 -281 120.5t-104 337.5zM172 958q0 -112 32 -197.5t103 -138.5t174 -53q79 0 140 31.5t98.5 88t56.5 130.5t19 162q0 57 -10 111.5 t-33 107.5t-57.5 92.5t-87.5 63.5t-118 24q-150 0 -233.5 -107.5t-83.5 -314.5z" />
<glyph unicode=":" horiz-adv-x="491" d="M203 0v209h86v-209h-86zM203 809v209h86v-209h-86z" />
<glyph unicode=";" horiz-adv-x="491" d="M170 -193q35 26 46 70.5t11 122.5h-24v209h86v-205q0 -79 -12.5 -130t-37.5 -81t-69 -55v69zM203 809v209h86v-209h-86z" />
<glyph unicode="&#x3c;" horiz-adv-x="1228" d="M96 483v70l1037 496v-62l-975 -469l975 -469v-61z" />
<glyph unicode="=" horiz-adv-x="1228" d="M96 283v69h1037v-69h-1037zM96 684v70h1037v-70h-1037z" />
<glyph unicode="&#x3e;" horiz-adv-x="1228" d="M96 -12v61l975 469l-975 469v62l1037 -496v-70z" />
<glyph unicode="?" d="M72 1042v33q0 57 11.5 112t39 110.5t69 96.5t106.5 67t146 26q78 0 140.5 -20.5t102 -54t66 -78.5t37.5 -90.5t11 -92.5q0 -74 -19 -135.5t-48.5 -103.5t-66 -79t-73 -72t-66 -73t-48.5 -90.5t-19 -116.5v-106h-86v102q0 70 19 128.5t48.5 100t66 79t73 74t66 76 t48.5 93.5t19 119q0 126 -73 198t-196 72q-64 0 -114.5 -20.5t-82.5 -53.5t-53 -79t-29.5 -94t-8.5 -101v-27h-86zM375 0v197h86v-197h-86z" />
<glyph unicode="@" horiz-adv-x="1638" d="M63 737q0 156 63 296t169 239t251 157t304 58q152 0 285.5 -45.5t230.5 -126t153 -198t56 -255.5q0 -111 -45 -219t-115.5 -186.5t-159 -127t-172.5 -48.5q-60 0 -99.5 37t-39.5 106h-4q-109 -143 -285 -143q-121 0 -197.5 88t-76.5 215q0 83 23.5 168t68.5 162 t105.5 137t139.5 95.5t165 35.5q96 0 159 -54.5t76 -130.5h4l49 144h86l-194 -598q-33 -101 -33 -121q0 -30 24.5 -51t57.5 -21q94 0 182 74.5t141.5 194t53.5 245.5q0 101 -35.5 190.5t-96.5 155t-141.5 113t-173 71t-188.5 23.5q-143 0 -273.5 -56t-224.5 -149.5 t-150 -221.5t-56 -267q0 -116 39 -222.5t108 -188t158 -142.5t193 -93t210 -32q174 0 330 81.5t256 221.5h86q-96 -170 -281 -271.5t-391 -101.5q-225 0 -407 98.5t-285 273t-103 390.5zM467 590q0 -114 58.5 -177t156.5 -63q78 0 152 56.5t123 139t78.5 172t29.5 159.5 q0 34 -3 61t-14.5 61.5t-31.5 57.5t-57.5 39t-88.5 16q-89 0 -167 -50.5t-128 -128.5t-79 -168.5t-29 -174.5z" />
<glyph unicode="A" horiz-adv-x="985" d="M-8 0l454 1462h109l438 -1462h-86l-139 455h-551l-139 -455h-86zM238 524h514l-252 852h-4z" />
<glyph unicode="B" horiz-adv-x="1024" d="M125 0v1462h393q205 0 294 -95t89 -269q0 -144 -72.5 -228.5t-197.5 -99.5v-4q153 -10 235 -111.5t82 -257.5q0 -184 -112 -290.5t-306 -106.5h-405zM211 70h289q184 0 273 76t89 253q0 95 -27 161.5t-78.5 102.5t-114.5 52t-146 16h-285v-661zM211 801h281 q148 0 235.5 74t87.5 223q0 295 -287 295h-317v-592z" />
<glyph unicode="C" horiz-adv-x="1024" d="M78 729q0 758 469 758q97 0 173 -33t119 -82t71 -112.5t37 -116t9 -101.5h-86q0 102 -34 185t-108 136.5t-177 53.5q-107 0 -183 -48t-120 -140.5t-64 -214t-20 -281.5q0 -124 10.5 -223t36.5 -188t68 -148.5t108 -94t152 -34.5q80 0 144.5 36t101.5 88t62 116.5 t33.5 115.5t8.5 91h86q0 -58 -11.5 -120.5t-43 -135.5t-79.5 -129t-130.5 -94t-186.5 -38q-446 0 -446 754z" />
<glyph unicode="D" horiz-adv-x="1062" d="M125 0v1462h334q70 0 127 -9t112 -31t98 -58.5t79 -93t60 -132t37 -178t13 -229.5q0 -174 -29 -305.5t-76 -211.5t-117 -129t-142.5 -67t-161.5 -18h-334zM211 70h248q231 0 335.5 160.5t104.5 500.5q0 174 -21.5 294t-72.5 204.5t-136 124t-210 39.5h-248v-1323z" />
<glyph unicode="E" d="M125 0v1462h698v-78h-612v-583h571v-78h-571v-645h631v-78h-717z" />
<glyph unicode="F" horiz-adv-x="833" d="M125 0v1462h700v-78h-614v-583h571v-78h-571v-723h-86z" />
<glyph unicode="G" horiz-adv-x="1062" d="M78 729q0 758 469 758q97 0 173 -33t119 -82t71 -112.5t37 -116t9 -101.5h-86q0 102 -34 185t-108 136.5t-177 53.5q-107 0 -183 -48t-120 -140.5t-64 -214t-20 -281.5q0 -124 10.5 -223t36.5 -188t68 -148.5t108 -94t152 -34.5q80 0 143 30.5t103 80t66.5 119t37 142.5 t10.5 154v91h-401v69h487v-731h-70v295h-4q-36 -152 -134 -236t-251 -84q-448 0 -448 754z" />
<glyph unicode="H" horiz-adv-x="1062" d="M125 0v1462h86v-641h641v641h86v-1462h-86v743h-641v-743h-86z" />
<glyph unicode="I" horiz-adv-x="335" d="M125 0v1462h86v-1462h-86z" />
<glyph unicode="J" horiz-adv-x="833" d="M49 395v33h86v-45q0 -338 238 -338q51 0 93 14t79 45.5t57.5 90t20.5 139.5v1128h86v-1128q0 -177 -89 -268t-241 -91q-95 0 -161 30.5t-102 89t-51.5 131t-15.5 169.5z" />
<glyph unicode="K" horiz-adv-x="948" d="M125 0v1462h86v-813h4l604 813h94l-458 -616l503 -846h-98l-461 774l-188 -250v-524h-86z" />
<glyph unicode="L" d="M125 0v1462h86v-1384h612v-78h-698z" />
<glyph unicode="M" horiz-adv-x="1327" d="M111 0v1462h139l416 -1315h4l405 1315h142v-1462h-87v1352h-4l-419 -1352h-86l-420 1352h-4v-1352h-86z" />
<glyph unicode="N" horiz-adv-x="1062" d="M111 0v1462h114l637 -1327h4v1327h86v-1462h-112l-639 1327h-4v-1327h-86z" />
<glyph unicode="O" horiz-adv-x="1099" d="M78 731q0 166 23.5 296t65.5 215.5t102 141t129.5 79.5t152.5 24q113 0 197 -39t147 -125.5t95 -234.5t32 -357q0 -133 -15.5 -243t-41.5 -187t-63.5 -136t-78 -94.5t-89 -57.5t-92 -30t-91.5 -8q-109 0 -193 39t-148.5 125.5t-98 235t-33.5 356.5zM164 731 q0 -126 11 -226t38 -188t70 -146.5t110.5 -92t157.5 -33.5q200 0 292.5 167.5t92.5 518.5q0 123 -11.5 223.5t-39 188.5t-70.5 147t-110 93t-154 34q-387 0 -387 -686z" />
<glyph unicode="P" horiz-adv-x="948" d="M125 0v1462h379q98 -2 172 -30t116 -69t67.5 -97.5t33.5 -105.5t8 -103q0 -187 -110.5 -296.5t-305.5 -109.5h-274v-651h-86zM211 721h283q142 0 231.5 82.5t89.5 253.5q0 158 -80.5 247t-228.5 89h-295v-672z" />
<glyph unicode="Q" horiz-adv-x="1099" d="M78 731q0 166 23.5 296t65.5 215.5t102 141t129.5 79.5t152.5 24q113 0 197 -39t147 -125.5t95 -234.5t32 -357q0 -411 -141 -596l155 -160l-51 -51l-154 156q-111 -105 -280 -105q-109 0 -193 39t-148.5 125.5t-98 235t-33.5 356.5zM164 731q0 -126 11 -226t38 -188 t70 -146.5t110.5 -92t157.5 -33.5q135 0 231 84l-180 182l51 51l174 -174q109 169 109 543q0 123 -11.5 223.5t-39 188.5t-70.5 147t-110 93t-154 34q-387 0 -387 -686z" />
<glyph unicode="R" horiz-adv-x="1024" d="M125 0v1462h428q78 0 142.5 -23t114.5 -68.5t77.5 -120t27.5 -171.5q0 -149 -76.5 -248t-215.5 -114v-4q70 -4 121 -24.5t82 -51t49 -77.5t24 -96t6 -114v-153q0 -119 49 -197h-98q-37 69 -37 199v149q0 83 -13 140.5t-45 102t-90 66t-145 21.5h-315v-678h-86zM211 748 h274q344 0 344 331q0 147 -77 230.5t-211 83.5h-330v-645z" />
<glyph unicode="S" horiz-adv-x="985" d="M72 354v97h86v-76q0 -144 88.5 -237t242.5 -93q150 0 244 95t94 237q0 69 -17.5 120t-55 87t-82 59.5t-111.5 46.5l-166 58q-152 52 -224.5 133.5t-72.5 224.5q0 175 108.5 278t282.5 103q197 0 294.5 -104t97.5 -293h-86q0 154 -73.5 240.5t-223.5 86.5q-65 0 -119 -16 t-99 -50t-70.5 -94.5t-25.5 -142.5q0 -115 56 -181.5t159 -101.5l217 -75q100 -35 162 -78.5t98.5 -116.5t36.5 -178q0 -126 -58.5 -220t-153.5 -141t-212 -47q-97 0 -173 26.5t-120.5 66t-73.5 92.5t-39.5 100t-10.5 94z" />
<glyph unicode="T" d="M4 1384v78h864v-78h-389v-1384h-86v1384h-389z" />
<glyph unicode="U" horiz-adv-x="1024" d="M106 403v1059h87v-1075q0 -161 77.5 -251.5t241.5 -90.5q155 0 237 92t82 250v1075h87v-1059q0 -96 -23 -171t-61 -122.5t-91.5 -78.5t-110 -43.5t-120.5 -12.5q-406 0 -406 428z" />
<glyph unicode="V" horiz-adv-x="909" d="M2 1462h86l365 -1364h4l364 1364h86l-399 -1462h-107z" />
<glyph unicode="W" horiz-adv-x="1441" d="M23 1462h86l280 -1339h4l275 1339h104l277 -1339h4l280 1339h86l-319 -1462h-107l-270 1339h-4l-277 -1339h-102z" />
<glyph unicode="X" horiz-adv-x="948" d="M16 0l414 743l-379 719h86l340 -633l344 633h86l-385 -719l410 -743h-94l-365 664l-364 -664h-93z" />
<glyph unicode="Y" horiz-adv-x="909" d="M12 1462h94l349 -770l356 770h86l-399 -860v-602h-86v602z" />
<glyph unicode="Z" horiz-adv-x="907" d="M35 0v86l743 1298h-700v78h786v-86l-743 -1298h751v-78h-837z" />
<glyph unicode="[" horiz-adv-x="454" d="M168 -377v1839h274v-61h-204v-1716h204v-62h-274z" />
<glyph unicode="\" horiz-adv-x="569" d="M-18 1487h81l525 -1512h-82z" />
<glyph unicode="]" horiz-adv-x="454" d="M12 -315h205v1716h-205v61h275v-1839h-275v62z" />
<glyph unicode="^" horiz-adv-x="1228" d="M96 498l484 927h69l484 -927h-62l-457 874l-456 -874h-62z" />
<glyph unicode="_" horiz-adv-x="1024" d="M0 -154h1024v-102h-1024v102z" />
<glyph unicode="`" horiz-adv-x="303" d="M-20 1507h98l160 -286h-68z" />
<glyph unicode="a" horiz-adv-x="796" d="M49 274q0 122 52 193t165 102l232 64q65 18 84.5 51.5t19.5 106.5q0 71 -15.5 118.5t-45 72.5t-64 34.5t-82.5 9.5q-233 0 -233 -260h-78q0 48 7 90.5t28 88t53.5 77.5t87.5 53t127 21q85 0 144.5 -22t91 -62.5t44.5 -88.5t13 -110v-684q0 -72 47 -72q30 0 49 11v-62 q-24 -18 -82 -18q-31 0 -61.5 29.5t-30.5 86.5v68h-4q-24 -86 -100 -141.5t-181 -55.5q-133 0 -200.5 83.5t-67.5 215.5zM135 274q0 -108 49.5 -168.5t147.5 -60.5q133 0 201.5 96t68.5 262v222h-4q-13 -21 -32 -33.5t-35.5 -18t-67.5 -20.5l-158 -43q-92 -26 -131 -82 t-39 -154z" />
<glyph unicode="b" d="M109 0v1462h77v-579h4q34 99 97 156t178 57q78 0 137 -28.5t95 -76.5t58.5 -121t31 -152t8.5 -179q0 -564 -334 -564q-111 0 -180.5 61t-90.5 171h-4v-207h-77zM186 539q0 -243 62.5 -368.5t200.5 -125.5q62 0 108 26t74.5 69t46.5 108t24.5 134.5t6.5 156.5 q0 255 -56.5 371t-189.5 116q-146 0 -211.5 -118t-65.5 -369z" />
<glyph unicode="c" horiz-adv-x="796" d="M78 541q0 555 360 555q74 0 132 -27.5t90.5 -66.5t54 -87.5t28.5 -85.5t7 -65h-86q0 23 -5.5 53t-22 67.5t-40.5 68.5t-66 52t-94 21q-144 0 -208 -124.5t-64 -364.5q0 -256 62.5 -374t209.5 -118q56 0 99.5 24.5t68 59.5t40.5 79.5t21 78.5t5 63h86q0 -35 -7.5 -77.5 t-30.5 -97t-57.5 -97.5t-96.5 -73t-140 -30q-81 0 -142 28.5t-99.5 77.5t-62 122.5t-33 154.5t-9.5 183z" />
<glyph unicode="d" d="M78 539q0 130 16 226.5t53.5 173.5t105 117t163.5 40q103 0 168.5 -58.5t97.5 -154.5h4v579h78v-1462h-78v207h-4q-21 -110 -90 -171t-180 -61q-334 0 -334 564zM164 539q0 -87 6.5 -156.5t24.5 -134.5t46.5 -108t74.5 -69t108 -26q138 0 200 125t62 369v11 q0 476 -266 476q-136 0 -196 -119t-60 -368z" />
<glyph unicode="e" horiz-adv-x="833" d="M78 565q0 252 90 391.5t268 139.5q181 0 257.5 -140.5t76.5 -414.5h-606v-83t5.5 -89.5t14.5 -96t28 -85.5t45 -75t66.5 -47.5t92.5 -19.5q64 0 113.5 24.5t76.5 59.5t44 79.5t22.5 78.5t5.5 63h78q0 -51 -11 -102t-36.5 -101t-63 -87.5t-94.5 -61t-127 -23.5 q-81 0 -141.5 27t-99.5 75t-62.5 123.5t-33 162.5t-9.5 202zM164 610h520q0 66 -5 119t-20.5 111t-42 96.5t-73.5 64t-111 25.5q-57 0 -102 -20.5t-73.5 -57t-47.5 -78t-28.5 -91.5t-13 -89.5t-3.5 -79.5z" />
<glyph unicode="f" horiz-adv-x="417" d="M16 1001v70h146v178q0 213 188 213q53 0 80 -6v-70q-31 7 -68 7q-122 0 -122 -140v-182h178v-70h-178v-1001h-78v1001h-146z" />
<glyph unicode="g" d="M78 541q0 95 7.5 171t30 150t59 123.5t98 80t143.5 30.5q199 0 266 -203h4v178h78v-1012q0 -82 -10 -147t-34.5 -120.5t-63.5 -91.5t-98.5 -56.5t-137.5 -20.5q-56 0 -101.5 12t-75 31t-52 45t-34 50t-18.5 51.5t-8.5 44.5t-1.5 32h78q0 -88 56 -142t165 -54 q135 0 196.5 79t61.5 248v197h-6q-14 -42 -31.5 -74.5t-49 -68t-82.5 -55t-118 -19.5q-321 0 -321 541zM164 541q0 -108 12.5 -190t41 -147.5t80.5 -99.5t126 -34q262 0 262 487q0 469 -252 469q-89 0 -147 -44t-90.5 -153t-32.5 -288z" />
<glyph unicode="h" horiz-adv-x="833" d="M104 0v1462h78v-553h4q31 79 101.5 133t171.5 54q121 0 195.5 -72t74.5 -217v-807h-78v770q0 137 -54 196.5t-159 59.5q-119 0 -187.5 -97.5t-68.5 -242.5v-686h-78z" />
<glyph unicode="i" horiz-adv-x="303" d="M113 0v1071h77v-1071h-77zM113 1253v209h77v-209h-77z" />
<glyph unicode="j" horiz-adv-x="303" d="M-78 -291q36 -4 58 -4q28 0 48.5 5t41 20t32 47t11.5 80v1214h77v-1206q0 -230 -194 -230q-12 0 -74 5v69zM113 1253v209h77v-209h-77z" />
<glyph unicode="k" horiz-adv-x="796" d="M104 0v1462h78v-960h4l463 569h99l-332 -397l391 -674h-98l-349 604l-178 -211v-393h-78z" />
<glyph unicode="l" horiz-adv-x="303" d="M113 0v1462h77v-1462h-77z" />
<glyph unicode="m" horiz-adv-x="1327" d="M117 0v1071h78v-160h4q24 85 92 135t166 50q202 0 231 -201h4q6 32 24 65t48.5 64.5t80 51.5t109.5 20q126 0 191 -71.5t65 -201.5v-823h-77v805q0 105 -50 163t-135 58q-117 0 -181.5 -86.5t-64.5 -228.5v-711h-77v768q0 258 -189 258q-119 0 -180 -89.5t-61 -225.5 v-711h-78z" />
<glyph unicode="n" horiz-adv-x="833" d="M104 0v1071h78v-162h4q31 79 101.5 133t171.5 54q121 0 195.5 -72t74.5 -217v-807h-78v770q0 137 -54 196.5t-159 59.5q-119 0 -187.5 -97.5t-68.5 -242.5v-686h-78z" />
<glyph unicode="o" d="M78 537q0 98 9.5 176.5t34 152t64.5 122.5t105 78.5t151 29.5q102 0 173.5 -43t109.5 -123t54 -175t16 -218q0 -99 -9.5 -178t-34.5 -152.5t-65 -123t-105 -79t-151 -29.5q-83 0 -145.5 29.5t-101 79t-63 123t-33.5 153t-9 177.5zM164 535q0 -243 62.5 -366.5 t209.5 -123.5q148 0 210.5 124t62.5 366q0 120 -14 208t-45.5 153t-84.5 97.5t-129 32.5t-129 -32.5t-84 -97.5t-45 -153t-14 -208z" />
<glyph unicode="p" d="M109 -360v1431h77v-188h4q34 99 97 156t178 57q330 0 330 -557q0 -564 -334 -564q-111 0 -180.5 61t-90.5 171h-4v-567h-77zM186 539q0 -243 62.5 -368.5t200.5 -125.5q62 0 108 26t74.5 69t46.5 108t24.5 134.5t6.5 156.5q0 248 -66 367.5t-180 119.5 q-146 0 -211.5 -118t-65.5 -369z" />
<glyph unicode="q" d="M78 539q0 125 16 220.5t53 174t104.5 120.5t164.5 42q109 0 171 -57t95 -156h4v188h78v-1431h-78v567h-4q-21 -110 -90 -171t-180 -61q-334 0 -334 564zM164 539q0 -87 6.5 -156.5t24.5 -134.5t46.5 -108t74.5 -69t108 -26q138 0 200 125t62 369q0 487 -266 487 q-256 0 -256 -487z" />
<glyph unicode="r" horiz-adv-x="493" d="M104 0v1071h78v-186h4q31 97 99 154t170 57h45v-70h-45q-129 0 -201 -102t-72 -244v-680h-78z" />
<glyph unicode="s" horiz-adv-x="720" d="M47 313v29h78v-35q0 -262 240 -262q112 0 167.5 63t55.5 160q0 79 -36.5 132t-123.5 87l-158 64q-102 41 -151 104t-49 164q0 131 80.5 204t211.5 73q279 0 279 -293v-33h-78v31q0 225 -201 225q-91 0 -148.5 -49.5t-57.5 -149.5q0 -82 38.5 -130.5t120.5 -80.5l164 -61 q195 -74 195 -285q0 -132 -89 -213.5t-220 -81.5q-61 0 -110.5 12.5t-82.5 32t-57 49.5t-36.5 58t-20 64.5t-9.5 63t-2 58.5z" />
<glyph unicode="t" horiz-adv-x="417" d="M16 1001v70h146v318h78v-318h178v-70h-178v-825q0 -69 26 -94t68 -25q50 0 96 13v-70q-58 -12 -111 -12q-82 0 -119.5 45t-37.5 135v833h-146z" />
<glyph unicode="u" horiz-adv-x="833" d="M104 264v807h78v-770q0 -137 54 -196.5t159 -59.5q119 0 187.5 97.5t68.5 242.5v686h78v-1071h-78v162h-4q-31 -79 -101 -133t-171 -54q-121 0 -196 72t-75 217z" />
<glyph unicode="v" horiz-adv-x="720" d="M18 1071h86l261 -973h4l247 973h86l-290 -1071h-93z" />
<glyph unicode="w" horiz-adv-x="1099" d="M12 1071h86l191 -960h4l211 960h98l203 -960h4l192 960h86l-231 -1071h-98l-203 961h-4l-211 -961h-98z" />
<glyph unicode="x" horiz-adv-x="720" d="M27 0l288 551l-274 520h96l225 -455l232 455h86l-272 -520l286 -551h-96l-240 483l-245 -483h-86z" />
<glyph unicode="y" horiz-adv-x="720" d="M18 1071h86l271 -960h4l237 960h86l-331 -1231q-30 -108 -86 -154t-152 -46q-26 0 -80 4v69q58 -4 68 -4q77 0 114 33t66 135l33 113z" />
<glyph unicode="z" horiz-adv-x="684" d="M31 0v70l530 931h-502v70h588v-70l-530 -931h536v-70h-622z" />
<glyph unicode="{" horiz-adv-x="454" d="M59 512v61q41 0 71 26.5t45.5 72t22.5 96t7 109.5v344q0 134 43.5 187.5t134.5 53.5h100v-61h-104q-58 0 -81.5 -43.5t-23.5 -136.5v-340q0 -81 -11.5 -143.5t-27.5 -96t-38.5 -56.5t-37 -30t-30.5 -10v-4q16 -3 30.5 -10t37 -29.5t38.5 -56t27.5 -95.5t11.5 -143v-342 q0 -93 23.5 -136.5t81.5 -43.5h104v-62h-100q-91 0 -134.5 54t-43.5 188v344q0 59 -7 109.5t-22.5 96t-45.5 71.5t-71 26z" />
<glyph unicode="|" horiz-adv-x="454" d="M188 -25v1512h78v-1512h-78z" />
<glyph unicode="}" horiz-adv-x="454" d="M-29 -315h105q58 0 81 43.5t23 136.5v340q0 81 12 143.5t28 96t38 56.5t37 30t31 10v4q-16 3 -30.5 10t-37 29.5t-38.5 56t-28 95.5t-12 143v342q0 93 -23 136.5t-81 43.5h-105v61h101q91 0 134.5 -53.5t43.5 -187.5v-344q0 -59 7 -109.5t22 -96t45 -72t71 -26.5v-61 q-41 0 -70.5 -26t-45 -71.5t-22.5 -96t-7 -109.5v-344q0 -134 -43.5 -188t-134.5 -54h-101v62z" />
<glyph unicode="~" horiz-adv-x="1228" d="M147 453q27 42 46 66.5t49 51.5t68 39.5t87 12.5q86 0 226 -70q53 -26 74.5 -35.5t65 -22t81.5 -12.5q33 0 61.5 12t52.5 37t37 42t33 46l6 9l47 -45q-27 -42 -46 -66.5t-49 -51.5t-68 -39.5t-87 -12.5q-87 0 -225 69q-53 26 -74.5 35.5t-65 22t-81.5 12.5 q-43 0 -83 -26.5t-56 -46.5t-45 -64q-4 -5 -6 -8z" />
<glyph unicode="&#xa1;" horiz-adv-x="454" d="M184 127l13 610h61l12 -610v-479h-86v479zM184 913v197h86v-197h-86z" />
<glyph unicode="&#xa2;" horiz-adv-x="983" d="M154 541q0 526 327 555v159h49v-159q70 -3 125 -32t85.5 -68t51 -86.5t27 -83t6.5 -62.5h-86q0 22 -5.5 50.5t-20 65t-37 67t-60.5 53.5t-86 26v-981q51 4 91 30t62 60.5t36.5 77.5t19 76t4.5 61h86q0 -34 -6.5 -74.5t-27 -93t-52 -95t-87 -74.5t-126.5 -38v-186h-49v186 q-77 4 -134.5 34t-94 79.5t-59 122t-31 152t-8.5 178.5zM240 537q0 -240 56 -359.5t185 -132.5v981q-128 -17 -184.5 -140t-56.5 -349z" />
<glyph unicode="&#xa3;" horiz-adv-x="983" d="M49 51q54 51 94.5 96t79.5 102.5t59.5 121t20.5 129.5q0 98 -39 184h-207v70h179q-2 4 -29.5 48t-34 56.5t-26.5 51.5t-26.5 61.5t-14 56.5t-7.5 66q0 154 112 255t279 101q105 0 185.5 -34t128.5 -94t72 -134.5t24 -161.5h-86q0 162 -79.5 258t-248.5 96 q-124 0 -212.5 -76t-88.5 -202q0 -29 7 -61.5t15.5 -58t26.5 -63t28 -56t32.5 -59t28.5 -50.5h286v-70h-258q39 -93 39 -184q0 -119 -69 -232.5t-181 -206.5l4 -4q95 64 170 64q58 0 156 -37q107 -39 156 -39q121 0 270 121l39 -57q-152 -134 -305 -134q-61 0 -168 39 q-102 37 -178 37q-96 0 -187 -69z" />
<glyph unicode="&#xa4;" horiz-adv-x="983" d="M55 713q0 163 105 284l-101 101l47 47l103 -101q117 105 283 105q167 0 282 -105l103 101l47 -47l-101 -101q105 -120 105 -284q0 -168 -105 -283l101 -102l-47 -47l-103 100q-117 -105 -282 -105q-166 0 -283 105l-103 -100l-47 47l101 102q-105 115 -105 283zM133 713 q0 -153 105.5 -260t253.5 -107t253 107t105 260t-105 259.5t-253 106.5t-253.5 -106.5t-105.5 -259.5z" />
<glyph unicode="&#xa5;" horiz-adv-x="983" d="M49 1425h94l349 -751l356 751h86l-365 -768h258v-69h-292v-168h292v-70h-292v-350h-86v350h-277v70h277v168h-277v69h242z" />
<glyph unicode="&#xa6;" horiz-adv-x="454" d="M188 -25v545h78v-545h-78zM188 942v545h78v-545h-78z" />
<glyph unicode="&#xa7;" horiz-adv-x="985" d="M78 694q0 93 56 169.5t161 127.5q-39 34 -60.5 57.5t-40 65.5t-18.5 92q0 131 96 206t236 75q81 0 144.5 -26.5t99.5 -69.5t54.5 -92t18.5 -99v-12h-86v12q0 86 -59 151.5t-172 65.5q-122 0 -184 -60.5t-62 -150.5q0 -65 41 -111t137 -112l314 -211q82 -55 117.5 -120 t35.5 -148q0 -90 -52 -159.5t-159 -125.5q70 -58 101.5 -115.5t31.5 -130.5q0 -113 -86 -197.5t-245 -84.5q-84 0 -150.5 26t-106.5 70t-60.5 97t-20.5 112v45h86v-31q0 -111 65.5 -180.5t182.5 -69.5q116 0 182.5 57.5t66.5 153.5q0 45 -17.5 84.5t-54 76t-67 60 t-82.5 58.5l-291 194q-79 52 -116 111t-37 139zM164 696q0 -37 15.5 -70.5t45 -63t57.5 -51.5t68 -50q8 -5 12 -8l279 -193q37 20 64.5 39.5t56 48.5t44 67.5t15.5 84.5q0 73 -33 126t-98 97l-340 227q-186 -91 -186 -254z" />
<glyph unicode="&#xa8;" horiz-adv-x="303" d="M-29 1266v209h86v-209h-86zM246 1266v209h86v-209h-86z" />
<glyph unicode="&#xa9;" horiz-adv-x="1638" d="M63 731q0 154 60 294t161 241t241 161t294 60t294 -60t241 -161t161 -241t60 -294t-60 -294t-161 -241t-241 -161t-294 -60t-294 60t-241 161t-161 241t-60 294zM141 731q0 -138 53.5 -263.5t144.5 -216.5t216.5 -144.5t263.5 -53.5t263.5 53.5t216.5 144.5t144.5 216.5 t53.5 263.5t-53.5 263.5t-144.5 216.5t-216.5 144.5t-263.5 53.5t-263.5 -53.5t-216.5 -144.5t-144.5 -216.5t-53.5 -263.5zM379 733q0 145 60.5 255.5t159.5 167t220 56.5q173 0 281.5 -79.5t132.5 -237.5h-86q-22 119 -107.5 183.5t-220.5 64.5q-69 0 -127.5 -23.5 t-99.5 -64t-70 -93t-43 -111t-14 -118.5q0 -177 97 -296.5t257 -119.5q134 0 215.5 69t112.5 192h86q-22 -150 -133 -240t-281 -90q-195 0 -317.5 128t-122.5 357z" />
<glyph unicode="&#xaa;" horiz-adv-x="565" d="M37 950q0 145 143 189l129 39q47 14 66.5 31t19.5 57q0 69 -33.5 96t-97.5 27q-137 0 -137 -138h-70q0 36 8.5 68t30 63t65 49.5t105.5 18.5q115 0 157 -46t42 -130v-406q0 -51 31 -51q17 0 32 6v-39q-18 -12 -49 -12q-84 0 -84 72v30h-4q-57 -102 -188 -102 q-82 0 -124 50t-42 128zM106 956q0 -53 30 -87.5t85 -34.5q81 0 127.5 53.5t46.5 130.5v143h-4q-21 -15 -84 -35l-104 -32q-97 -30 -97 -138z" />
<glyph unicode="&#xab;" horiz-adv-x="681" d="M106 514v78l234 285v-103l-172 -221l172 -213v-102zM342 514v78l233 285v-103l-172 -221l172 -213v-102z" />
<glyph unicode="&#xac;" horiz-adv-x="1228" d="M96 684v70h1037v-533h-70v463h-967z" />
<glyph unicode="&#xad;" horiz-adv-x="645" d="M129 522v70h387v-70h-387z" />
<glyph unicode="&#xae;" horiz-adv-x="1638" d="M63 731q0 154 60 294t161 241t241 161t294 60t294 -60t241 -161t161 -241t60 -294t-60 -294t-161 -241t-241 -161t-294 -60t-294 60t-241 161t-161 241t-60 294zM141 731q0 -138 53.5 -263.5t144.5 -216.5t216.5 -144.5t263.5 -53.5t263.5 53.5t216.5 144.5t144.5 216.5 t53.5 263.5t-53.5 263.5t-144.5 216.5t-216.5 144.5t-263.5 53.5t-263.5 -53.5t-216.5 -144.5t-144.5 -216.5t-53.5 -263.5zM537 285v897h344q297 0 297 -250q0 -107 -65 -166t-167 -76l266 -405h-92l-266 407h-231v-407h-86zM623 762h227q242 0 242 172q0 93 -60 135.5 t-162 42.5h-247v-350z" />
<glyph unicode="&#xaf;" horiz-adv-x="303" d="M-70 1333v62h443v-62h-443z" />
<glyph unicode="&#xb0;" horiz-adv-x="819" d="M117 1157q0 121 85.5 207t207.5 86q121 0 206.5 -85.5t85.5 -207.5t-85.5 -207.5t-206.5 -85.5q-122 0 -207.5 86t-85.5 207zM186 1157q0 -92 66 -157.5t158 -65.5t157.5 65.5t65.5 157.5t-65.5 157.5t-157.5 65.5t-158 -65.5t-66 -157.5z" />
<glyph unicode="&#xb1;" horiz-adv-x="1228" d="M96 0v70h1037v-70h-1037zM96 573v70h484v393h69v-393h484v-70h-484v-393h-69v393h-484z" />
<glyph unicode="&#xb2;" horiz-adv-x="641" d="M61 573v31q0 170 154 281l139 100q79 58 117.5 109t38.5 116q0 83 -48 131t-130 48q-107 0 -154 -59t-47 -146h-70q0 118 69 192t200 74q45 0 86 -10.5t79.5 -34.5t61.5 -69.5t23 -108.5q0 -97 -42 -156.5t-137 -128.5l-153 -113q-117 -87 -117 -194h449v-62h-519z" />
<glyph unicode="&#xb3;" horiz-adv-x="641" d="M51 803h70q0 -71 49.5 -126.5t142.5 -55.5q84 0 145.5 51.5t61.5 146.5q0 85 -54.5 131.5t-162.5 46.5h-35v62h35q87 0 136.5 45.5t49.5 124.5q0 74 -45.5 117t-124.5 43q-90 0 -134 -52t-46 -123h-69q0 106 68.5 171t191.5 65q103 0 166 -57t63 -160q0 -76 -41 -132 t-119 -67v-6q94 -12 142.5 -66.5t48.5 -140.5q0 -117 -71.5 -189.5t-199.5 -72.5q-137 0 -202.5 69t-65.5 175z" />
<glyph unicode="&#xb4;" horiz-adv-x="303" d="M70 1221l159 286h99l-191 -286h-67z" />
<glyph unicode="&#xb5;" horiz-adv-x="833" d="M104 -360v1431h78v-770q0 -137 54 -196.5t159 -59.5q119 0 187.5 97.5t68.5 242.5v686h78v-1071h-78v162h-4q-31 -79 -101 -133t-171 -54q-113 0 -189 99h-4v-434h-78z" />
<glyph unicode="&#xb6;" horiz-adv-x="1228" d="M135 1061q0 192 124 296.5t333 104.5h383v-1747h-78v1678h-264v-1678h-78v944q-184 0 -302 106t-118 296zM221 1061q0 -155 94.5 -243.5t239.5 -88.5v664q-145 0 -239.5 -88.5t-94.5 -243.5z" />
<glyph unicode="&#xb7;" horiz-adv-x="491" d="M141 676q0 43 31 73.5t74 30.5t73.5 -30.5t30.5 -73.5t-30.5 -74t-73.5 -31t-74 31t-31 74z" />
<glyph unicode="&#xb8;" horiz-adv-x="303" d="M-27 -360l19 45q72 -33 158 -33q129 0 129 100q0 44 -30.5 66t-80.5 22q-51 0 -109 -28l-20 24l111 164h61l-86 -117l4 -4q27 10 78 10q58 0 99.5 -37.5t41.5 -97.5q0 -57 -52 -104t-151 -47q-96 0 -172 37z" />
<glyph unicode="&#xb9;" horiz-adv-x="641" d="M94 1249v62q72 6 142.5 48.5t91.5 90.5h61v-877h-70v779q-32 -37 -97.5 -68t-127.5 -35z" />
<glyph unicode="&#xba;" horiz-adv-x="641" d="M82 1112q0 78 10.5 135.5t36 105t74 72.5t119.5 25q70 0 118 -25t73 -73t35.5 -105t10.5 -135q0 -79 -10.5 -136.5t-35.5 -105.5t-73 -73t-118 -25q-71 0 -119.5 25t-74 73t-36 106t-10.5 136zM152 1112q0 -134 39 -206t128 -72q170 0 170 278q0 277 -170 277 q-89 0 -128 -71.5t-39 -205.5z" />
<glyph unicode="&#xbb;" horiz-adv-x="681" d="M106 238v102l173 221l-173 213v103l234 -277v-78zM342 238v102l172 221l-172 213v103l233 -277v-78z" />
<glyph unicode="&#xbc;" horiz-adv-x="1476" d="M59 1249v62q72 6 142.5 48.5t91.5 90.5h61v-877h-69v779q-32 -37 -98 -68t-128 -35zM197 -66l940 1557h69l-940 -1557h-69zM831 221v72l379 584h86v-594h121v-62h-121v-221h-69v221h-396zM901 283h326v495h-4z" />
<glyph unicode="&#xbd;" horiz-adv-x="1476" d="M59 1249v62q72 6 142.5 48.5t91.5 90.5h61v-877h-69v779q-32 -37 -98 -68t-128 -35zM174 -66l940 1557h70l-940 -1557h-70zM899 0v31q0 169 154 280l139 101q79 58 117.5 109t38.5 116q0 83 -48.5 130.5t-130.5 47.5q-107 0 -153.5 -59t-46.5 -146h-70q0 118 68.5 192.5 t199.5 74.5q35 0 68 -6t67 -22t59 -40.5t40.5 -64.5t15.5 -91t-11.5 -91.5t-37.5 -74.5t-54 -59t-75 -59l-154 -113q-116 -86 -116 -195h448v-61h-518z" />
<glyph unicode="&#xbe;" horiz-adv-x="1476" d="M51 803h70q0 -71 49.5 -126.5t142.5 -55.5q84 0 145.5 51.5t61.5 146.5q0 85 -54.5 131.5t-162.5 46.5h-35v62h35q87 0 136.5 45.5t49.5 124.5q0 74 -45.5 117t-124.5 43q-90 0 -134 -52t-46 -123h-69q0 106 68.5 171t191.5 65q103 0 166 -57t63 -160q0 -76 -41 -132 t-119 -67v-6q94 -12 142.5 -66.5t48.5 -140.5q0 -117 -71.5 -189.5t-199.5 -72.5q-137 0 -202.5 69t-65.5 175zM268 -66l940 1557h70l-940 -1557h-70zM831 221v72l379 584h86v-594h121v-62h-121v-221h-69v221h-396zM901 283h326v495h-4z" />
<glyph unicode="&#xbf;" d="M72 -41q0 74 19 135.5t48.5 103.5t66 79t73 72t66 73t48.5 90.5t19 116.5v106h86v-102q0 -70 -19 -128.5t-48.5 -100t-66 -79t-73 -74t-66 -76t-48.5 -93.5t-19 -119q0 -126 72.5 -198t195.5 -72q79 0 137.5 30t90.5 81.5t46.5 110.5t14.5 126v27h86v-33 q0 -57 -11.5 -112t-39.5 -110.5t-69 -96.5t-106.5 -67t-146.5 -26q-78 0 -140.5 20.5t-102 54t-65.5 78.5t-37 90.5t-11 92.5zM412 913v197h86v-197h-86z" />
<glyph unicode="&#xc0;" horiz-adv-x="985" d="M-8 0l454 1462h109l438 -1462h-86l-139 455h-551l-139 -455h-86zM238 524h514l-252 852h-4zM322 1825h98l160 -287h-68z" />
<glyph unicode="&#xc1;" horiz-adv-x="985" d="M-8 0l454 1462h109l438 -1462h-86l-139 455h-551l-139 -455h-86zM238 524h514l-252 852h-4zM412 1538l159 287h99l-191 -287h-67z" />
<glyph unicode="&#xc2;" horiz-adv-x="985" d="M-8 0l454 1462h109l438 -1462h-86l-139 455h-551l-139 -455h-86zM238 524h514l-252 852h-4zM258 1538l193 287h86l192 -287h-86l-149 225l-150 -225h-86z" />
<glyph unicode="&#xc3;" horiz-adv-x="985" d="M-8 0l454 1462h109l438 -1462h-86l-139 455h-551l-139 -455h-86zM238 524h514l-252 852h-4zM244 1595q0 35 11.5 72t45 69.5t82.5 32.5q56 2 121 -51q3 -2 11.5 -9t11.5 -9t10.5 -7.5t11 -7.5t10.5 -6.5t11.5 -6l10.5 -3.5t11.5 -3t11.5 -1q31 0 50 22t23.5 45t4.5 48h61 q0 -36 -11.5 -73.5t-45 -70t-82.5 -32.5q-52 -2 -121 51q-3 2 -11.5 9t-11.5 9t-10.5 7.5t-11 7.5t-10.5 6.5t-11.5 6l-10.5 3.5t-11.5 3t-11.5 1q-31 0 -50 -21.5t-23.5 -44t-4.5 -47.5h-61z" />
<glyph unicode="&#xc4;" horiz-adv-x="985" d="M-8 0l454 1462h109l438 -1462h-86l-139 455h-551l-139 -455h-86zM238 524h514l-252 852h-4zM313 1583v209h86v-209h-86zM588 1583v209h86v-209h-86z" />
<glyph unicode="&#xc5;" horiz-adv-x="985" d="M-8 0l454 1462h109l438 -1462h-86l-139 455h-551l-139 -455h-86zM238 524h514l-252 852h-4zM311 1688q0 75 54 128.5t129 53.5t128.5 -53.5t53.5 -128.5t-53.5 -129t-128.5 -54t-129 54t-54 129zM373 1688q0 -51 35 -86t86 -35t85.5 35t34.5 86t-34.5 85.5t-85.5 34.5 t-86 -34.5t-35 -85.5z" />
<glyph unicode="&#xc6;" horiz-adv-x="1441" d="M-8 0l629 1462h765v-78h-612v-583h572v-78h-572v-645h633v-78h-719v455h-414l-190 -455h-92zM303 524h385v860h-14z" />
<glyph unicode="&#xc7;" horiz-adv-x="1024" d="M78 729q0 758 469 758q97 0 173 -33t119 -82t71 -112.5t37 -116t9 -101.5h-86q0 102 -34 185t-108 136.5t-177 53.5q-107 0 -183 -48t-120 -140.5t-64 -214t-20 -281.5q0 -124 10.5 -223t36.5 -188t68 -148.5t108 -94t152 -34.5q80 0 144.5 36t101.5 88t62 116.5 t33.5 115.5t8.5 91h86q0 -37 -5 -77.5t-17.5 -88.5t-31.5 -92t-49.5 -87.5t-69 -77t-92.5 -57.5t-118 -32l-72 -97l4 -4q27 10 78 10q58 0 99.5 -37.5t41.5 -97.5q0 -57 -52 -104t-150 -47q-96 0 -172 37l18 45q71 -33 158 -33q129 0 129 100q0 44 -30.5 66t-80.5 22 t-108 -28l-21 24l94 139h-4q-446 0 -446 754z" />
<glyph unicode="&#xc8;" d="M125 0v1462h698v-78h-612v-583h571v-78h-571v-645h631v-78h-717zM299 1825h98l160 -287h-68z" />
<glyph unicode="&#xc9;" d="M125 0v1462h698v-78h-612v-583h571v-78h-571v-645h631v-78h-717zM389 1538l160 287h98l-190 -287h-68z" />
<glyph unicode="&#xca;" d="M125 0v1462h698v-78h-612v-583h571v-78h-571v-645h631v-78h-717zM236 1538l192 287h86l193 -287h-86l-150 225l-149 -225h-86z" />
<glyph unicode="&#xcb;" d="M125 0v1462h698v-78h-612v-583h571v-78h-571v-645h631v-78h-717zM291 1583v209h86v-209h-86zM565 1583v209h86v-209h-86z" />
<glyph unicode="&#xcc;" horiz-adv-x="335" d="M-4 1825h98l160 -287h-68zM125 0v1462h86v-1462h-86z" />
<glyph unicode="&#xcd;" horiz-adv-x="335" d="M86 1538l160 287h98l-190 -287h-68zM125 0v1462h86v-1462h-86z" />
<glyph unicode="&#xce;" horiz-adv-x="335" d="M-68 1538l193 287h86l192 -287h-86l-149 225l-150 -225h-86zM125 0v1462h86v-1462h-86z" />
<glyph unicode="&#xcf;" horiz-adv-x="335" d="M-12 1583v209h86v-209h-86zM125 0v1462h86v-1462h-86zM262 1583v209h86v-209h-86z" />
<glyph unicode="&#xd0;" horiz-adv-x="1062" d="M2 727v74h123v661h334q70 0 127 -9t112 -31t98 -58.5t79 -93t60 -132t37 -178t13 -229.5q0 -174 -29 -305.5t-76 -211.5t-117 -129t-142.5 -67t-161.5 -18h-334v727h-123zM211 70h248q231 0 335.5 160.5t104.5 500.5q0 174 -21.5 294t-72.5 204.5t-136 124t-210 39.5 h-248v-592h369v-74h-369v-657z" />
<glyph unicode="&#xd1;" horiz-adv-x="1062" d="M111 0v1462h114l637 -1327h4v1327h86v-1462h-112l-639 1327h-4v-1327h-86zM283 1595q0 35 11.5 72t45 69.5t82.5 32.5q56 2 121 -51q3 -2 11.5 -9t11.5 -9t10.5 -7.5t11 -7.5t10.5 -6.5t11.5 -6l10.5 -3.5t11.5 -3t11.5 -1q31 0 50 22t23.5 45t4.5 48h61 q0 -36 -11.5 -73.5t-45 -70t-82.5 -32.5q-52 -2 -121 51q-3 2 -11.5 9t-11.5 9t-10.5 7.5t-11 7.5t-10.5 6.5t-11.5 6l-10.5 3.5t-11.5 3t-11.5 1q-31 0 -50 -21.5t-23.5 -44t-4.5 -47.5h-61z" />
<glyph unicode="&#xd2;" horiz-adv-x="1099" d="M78 731q0 166 23.5 296t65.5 215.5t102 141t129.5 79.5t152.5 24q113 0 197 -39t147 -125.5t95 -234.5t32 -357q0 -133 -15.5 -243t-41.5 -187t-63.5 -136t-78 -94.5t-89 -57.5t-92 -30t-91.5 -8q-109 0 -193 39t-148.5 125.5t-98 235t-33.5 356.5zM164 731 q0 -126 11 -226t38 -188t70 -146.5t110.5 -92t157.5 -33.5q200 0 292.5 167.5t92.5 518.5q0 123 -11.5 223.5t-39 188.5t-70.5 147t-110 93t-154 34q-387 0 -387 -686zM379 1825h98l160 -287h-68z" />
<glyph unicode="&#xd3;" horiz-adv-x="1099" d="M78 731q0 166 23.5 296t65.5 215.5t102 141t129.5 79.5t152.5 24q113 0 197 -39t147 -125.5t95 -234.5t32 -357q0 -133 -15.5 -243t-41.5 -187t-63.5 -136t-78 -94.5t-89 -57.5t-92 -30t-91.5 -8q-109 0 -193 39t-148.5 125.5t-98 235t-33.5 356.5zM164 731 q0 -126 11 -226t38 -188t70 -146.5t110.5 -92t157.5 -33.5q200 0 292.5 167.5t92.5 518.5q0 123 -11.5 223.5t-39 188.5t-70.5 147t-110 93t-154 34q-387 0 -387 -686zM469 1538l160 287h98l-190 -287h-68z" />
<glyph unicode="&#xd4;" horiz-adv-x="1099" d="M78 731q0 166 23.5 296t65.5 215.5t102 141t129.5 79.5t152.5 24q113 0 197 -39t147 -125.5t95 -234.5t32 -357q0 -133 -15.5 -243t-41.5 -187t-63.5 -136t-78 -94.5t-89 -57.5t-92 -30t-91.5 -8q-109 0 -193 39t-148.5 125.5t-98 235t-33.5 356.5zM164 731 q0 -126 11 -226t38 -188t70 -146.5t110.5 -92t157.5 -33.5q200 0 292.5 167.5t92.5 518.5q0 123 -11.5 223.5t-39 188.5t-70.5 147t-110 93t-154 34q-387 0 -387 -686zM315 1538l193 287h86l192 -287h-86l-149 225l-150 -225h-86z" />
<glyph unicode="&#xd5;" horiz-adv-x="1099" d="M78 731q0 166 23.5 296t65.5 215.5t102 141t129.5 79.5t152.5 24q113 0 197 -39t147 -125.5t95 -234.5t32 -357q0 -133 -15.5 -243t-41.5 -187t-63.5 -136t-78 -94.5t-89 -57.5t-92 -30t-91.5 -8q-109 0 -193 39t-148.5 125.5t-98 235t-33.5 356.5zM164 731 q0 -126 11 -226t38 -188t70 -146.5t110.5 -92t157.5 -33.5q200 0 292.5 167.5t92.5 518.5q0 123 -11.5 223.5t-39 188.5t-70.5 147t-110 93t-154 34q-387 0 -387 -686zM301 1595q0 35 11.5 72t45 69.5t82.5 32.5q56 2 121 -51q55 -42 79 -50q11 -3 22 -3q24 0 40.5 12 t24 31.5t10 36.5t2.5 35h62q0 -36 -11.5 -73.5t-45 -70t-82.5 -32.5q-52 -2 -121 51q-55 42 -79 50q-11 3 -22 3q-31 0 -50 -21.5t-23.5 -44t-4.5 -47.5h-61z" />
<glyph unicode="&#xd6;" horiz-adv-x="1099" d="M78 731q0 166 23.5 296t65.5 215.5t102 141t129.5 79.5t152.5 24q113 0 197 -39t147 -125.5t95 -234.5t32 -357q0 -133 -15.5 -243t-41.5 -187t-63.5 -136t-78 -94.5t-89 -57.5t-92 -30t-91.5 -8q-109 0 -193 39t-148.5 125.5t-98 235t-33.5 356.5zM164 731 q0 -126 11 -226t38 -188t70 -146.5t110.5 -92t157.5 -33.5q200 0 292.5 167.5t92.5 518.5q0 123 -11.5 223.5t-39 188.5t-70.5 147t-110 93t-154 34q-387 0 -387 -686zM371 1583v209h86v-209h-86zM645 1583v209h86v-209h-86z" />
<glyph unicode="&#xd7;" horiz-adv-x="1228" d="M168 117l403 401l-403 404l43 43l403 -404l404 404l43 -43l-404 -404l404 -401l-43 -45l-404 403l-403 -403z" />
<glyph unicode="&#xd8;" horiz-adv-x="1099" d="M78 731q0 166 23.5 296t65.5 215.5t102 141t129.5 79.5t152.5 24q146 0 240 -64l57 140l67 -25l-65 -162q172 -172 172 -645q0 -133 -15.5 -243t-41.5 -187t-63.5 -136t-78 -94.5t-89 -57.5t-92 -30t-91.5 -8q-144 0 -242 68l-61 -152l-68 25l72 176q-174 174 -174 639z M164 731q0 -402 121 -561l475 1178q-84 69 -209 69q-387 0 -387 -686zM338 115q82 -70 213 -70q200 0 292.5 167.5t92.5 518.5q0 396 -121 557z" />
<glyph unicode="&#xd9;" horiz-adv-x="1024" d="M106 403v1059h87v-1075q0 -161 77.5 -251.5t241.5 -90.5q155 0 237 92t82 250v1075h87v-1059q0 -96 -23 -171t-61 -122.5t-91.5 -78.5t-110 -43.5t-120.5 -12.5q-406 0 -406 428zM340 1825h98l160 -287h-68z" />
<glyph unicode="&#xda;" horiz-adv-x="1024" d="M106 403v1059h87v-1075q0 -161 77.5 -251.5t241.5 -90.5q155 0 237 92t82 250v1075h87v-1059q0 -96 -23 -171t-61 -122.5t-91.5 -78.5t-110 -43.5t-120.5 -12.5q-406 0 -406 428zM430 1538l160 287h98l-190 -287h-68z" />
<glyph unicode="&#xdb;" horiz-adv-x="1024" d="M106 403v1059h87v-1075q0 -161 77.5 -251.5t241.5 -90.5q155 0 237 92t82 250v1075h87v-1059q0 -96 -23 -171t-61 -122.5t-91.5 -78.5t-110 -43.5t-120.5 -12.5q-406 0 -406 428zM276 1538l193 287h86l193 -287h-86l-150 225l-150 -225h-86z" />
<glyph unicode="&#xdc;" horiz-adv-x="1024" d="M106 403v1059h87v-1075q0 -161 77.5 -251.5t241.5 -90.5q155 0 237 92t82 250v1075h87v-1059q0 -96 -23 -171t-61 -122.5t-91.5 -78.5t-110 -43.5t-120.5 -12.5q-406 0 -406 428zM332 1583v209h86v-209h-86zM606 1583v209h86v-209h-86z" />
<glyph unicode="&#xdd;" horiz-adv-x="909" d="M12 1462h94l349 -770l356 770h86l-399 -860v-602h-86v602zM373 1538l159 287h99l-191 -287h-67z" />
<glyph unicode="&#xde;" horiz-adv-x="948" d="M125 0v1462h86v-286h293q71 -1 129.5 -16t99 -39t71.5 -58t49 -69t29 -76t15 -76t4 -72q0 -187 -110.5 -296t-305.5 -109h-274v-365h-86zM211 434h283q142 0 231.5 82.5t89.5 253.5q0 158 -80.5 247t-228.5 89h-295v-672z" />
<glyph unicode="&#xdf;" d="M104 0v1106q0 170 87.5 263t244.5 93q145 0 226 -88.5t81 -236.5q0 -109 -50.5 -186t-155.5 -107v-4q128 -18 203 -117t75 -274q0 -456 -428 -461h-45v69h45q174 0 258 93t84 296q0 180 -79.5 266.5t-246.5 86.5h-51v69h54q51 0 94 13.5t79.5 43.5t57 85t20.5 131 q0 112 -58.5 182t-170.5 70q-246 0 -246 -289v-1104h-78z" />
<glyph unicode="&#xe0;" horiz-adv-x="796" d="M49 274q0 122 52 193t165 102l232 64q65 18 84.5 51.5t19.5 106.5q0 71 -15.5 118.5t-45 72.5t-64 34.5t-82.5 9.5q-233 0 -233 -260h-78q0 48 7 90.5t28 88t53.5 77.5t87.5 53t127 21q85 0 144.5 -22t91 -62.5t44.5 -88.5t13 -110v-684q0 -72 47 -72q30 0 49 11v-62 q-24 -18 -82 -18q-31 0 -61.5 29.5t-30.5 86.5v68h-4q-24 -86 -100 -141.5t-181 -55.5q-133 0 -200.5 83.5t-67.5 215.5zM135 274q0 -108 49.5 -168.5t147.5 -60.5q133 0 201.5 96t68.5 262v222h-4q-13 -21 -32 -33.5t-35.5 -18t-67.5 -20.5l-158 -43q-92 -26 -131 -82 t-39 -154zM227 1507h99l159 -286h-67z" />
<glyph unicode="&#xe1;" horiz-adv-x="796" d="M49 274q0 122 52 193t165 102l232 64q65 18 84.5 51.5t19.5 106.5q0 71 -15.5 118.5t-45 72.5t-64 34.5t-82.5 9.5q-233 0 -233 -260h-78q0 48 7 90.5t28 88t53.5 77.5t87.5 53t127 21q85 0 144.5 -22t91 -62.5t44.5 -88.5t13 -110v-684q0 -72 47 -72q30 0 49 11v-62 q-24 -18 -82 -18q-31 0 -61.5 29.5t-30.5 86.5v68h-4q-24 -86 -100 -141.5t-181 -55.5q-133 0 -200.5 83.5t-67.5 215.5zM135 274q0 -108 49.5 -168.5t147.5 -60.5q133 0 201.5 96t68.5 262v222h-4q-13 -21 -32 -33.5t-35.5 -18t-67.5 -20.5l-158 -43q-92 -26 -131 -82 t-39 -154zM317 1221l160 286h98l-190 -286h-68z" />
<glyph unicode="&#xe2;" horiz-adv-x="796" d="M49 274q0 122 52 193t165 102l232 64q65 18 84.5 51.5t19.5 106.5q0 71 -15.5 118.5t-45 72.5t-64 34.5t-82.5 9.5q-233 0 -233 -260h-78q0 48 7 90.5t28 88t53.5 77.5t87.5 53t127 21q85 0 144.5 -22t91 -62.5t44.5 -88.5t13 -110v-684q0 -72 47 -72q30 0 49 11v-62 q-24 -18 -82 -18q-31 0 -61.5 29.5t-30.5 86.5v68h-4q-24 -86 -100 -141.5t-181 -55.5q-133 0 -200.5 83.5t-67.5 215.5zM135 274q0 -108 49.5 -168.5t147.5 -60.5q133 0 201.5 96t68.5 262v222h-4q-13 -21 -32 -33.5t-35.5 -18t-67.5 -20.5l-158 -43q-92 -26 -131 -82 t-39 -154zM164 1221l192 286h86l193 -286h-86l-150 225l-149 -225h-86z" />
<glyph unicode="&#xe3;" horiz-adv-x="796" d="M49 274q0 122 52 193t165 102l232 64q65 18 84.5 51.5t19.5 106.5q0 71 -15.5 118.5t-45 72.5t-64 34.5t-82.5 9.5q-233 0 -233 -260h-78q0 48 7 90.5t28 88t53.5 77.5t87.5 53t127 21q85 0 144.5 -22t91 -62.5t44.5 -88.5t13 -110v-684q0 -72 47 -72q30 0 49 11v-62 q-24 -18 -82 -18q-31 0 -61.5 29.5t-30.5 86.5v68h-4q-24 -86 -100 -141.5t-181 -55.5q-133 0 -200.5 83.5t-67.5 215.5zM135 274q0 -108 49.5 -168.5t147.5 -60.5q133 0 201.5 96t68.5 262v222h-4q-13 -21 -32 -33.5t-35.5 -18t-67.5 -20.5l-158 -43q-92 -26 -131 -82 t-39 -154zM150 1278q0 35 11.5 72t45 69.5t82.5 32.5q56 2 121 -51q3 -2 11.5 -9t11.5 -9t10.5 -7.5t11 -7.5t10.5 -6.5t11.5 -6l10.5 -3.5t11.5 -3t11.5 -1q24 0 40.5 12t24 31t10.5 36t3 35h61q0 -36 -11.5 -73.5t-45 -70t-82.5 -32.5q-52 -2 -121 51q-3 2 -14.5 11 t-15 12t-13 9.5t-15 9t-13.5 6t-15 5t-14 1.5q-31 0 -50 -21.5t-23.5 -44t-4.5 -47.5h-61z" />
<glyph unicode="&#xe4;" horiz-adv-x="796" d="M49 274q0 122 52 193t165 102l232 64q65 18 84.5 51.5t19.5 106.5q0 71 -15.5 118.5t-45 72.5t-64 34.5t-82.5 9.5q-233 0 -233 -260h-78q0 48 7 90.5t28 88t53.5 77.5t87.5 53t127 21q85 0 144.5 -22t91 -62.5t44.5 -88.5t13 -110v-684q0 -72 47 -72q30 0 49 11v-62 q-24 -18 -82 -18q-31 0 -61.5 29.5t-30.5 86.5v68h-4q-24 -86 -100 -141.5t-181 -55.5q-133 0 -200.5 83.5t-67.5 215.5zM135 274q0 -108 49.5 -168.5t147.5 -60.5q133 0 201.5 96t68.5 262v222h-4q-13 -21 -32 -33.5t-35.5 -18t-67.5 -20.5l-158 -43q-92 -26 -131 -82 t-39 -154zM219 1266v209h86v-209h-86zM494 1266v209h86v-209h-86z" />
<glyph unicode="&#xe5;" horiz-adv-x="796" d="M49 274q0 122 52 193t165 102l232 64q65 18 84.5 51.5t19.5 106.5q0 71 -15.5 118.5t-45 72.5t-64 34.5t-82.5 9.5q-233 0 -233 -260h-78q0 48 7 90.5t28 88t53.5 77.5t87.5 53t127 21q85 0 144.5 -22t91 -62.5t44.5 -88.5t13 -110v-684q0 -72 47 -72q30 0 49 11v-62 q-24 -18 -82 -18q-31 0 -61.5 29.5t-30.5 86.5v68h-4q-24 -86 -100 -141.5t-181 -55.5q-133 0 -200.5 83.5t-67.5 215.5zM135 274q0 -108 49.5 -168.5t147.5 -60.5q133 0 201.5 96t68.5 262v222h-4q-13 -21 -32 -33.5t-35.5 -18t-67.5 -20.5l-158 -43q-92 -26 -131 -82 t-39 -154zM217 1370q0 75 53.5 128.5t128.5 53.5t129 -53.5t54 -128.5t-54 -128.5t-129 -53.5t-128.5 53.5t-53.5 128.5zM279 1370q0 -51 34.5 -86t85.5 -35t86 35t35 86t-35 86t-86 35t-85.5 -35t-34.5 -86z" />
<glyph unicode="&#xe6;" horiz-adv-x="1253" d="M49 274q0 117 51 189t160 102l191 49q75 19 96.5 45t21.5 105v53q0 119 -50 164t-138 45q-212 0 -219 -260h-78q0 47 7 89.5t27.5 88t52.5 78t86.5 53.5t125.5 21q61 0 108.5 -17.5t76 -46.5t44 -58t23.5 -61h4q11 29 26.5 55.5t42.5 58t69 50.5t93 19 q181 0 257.5 -140.5t76.5 -414.5h-557v-60q0 -436 232 -436q56 0 99.5 24.5t68 59.5t40 79.5t20.5 78.5t5 63h78q0 -51 -11 -102t-35.5 -100.5t-60 -87.5t-89 -61.5t-117.5 -23.5q-58 0 -107.5 23t-82 60t-53 80t-28.5 87h-4q-11 -48 -31.5 -89.5t-53 -79.5t-84.5 -60 t-116 -21q-133 0 -200.5 83.5t-67.5 215.5zM135 268q0 -104 49.5 -163.5t147.5 -59.5q111 0 174 89t63 239v219h-4q-38 -26 -125 -47l-135 -35q-90 -24 -130 -84t-40 -158zM647 610h471q0 192 -56.5 304t-176.5 112q-83 0 -137.5 -55t-77.5 -145.5t-23 -215.5z" />
<glyph unicode="&#xe7;" horiz-adv-x="796" d="M78 541q0 99 9.5 178t33 151t62 120.5t99.5 77t142 28.5q78 0 139 -27t95 -66t56 -87.5t29 -85t7 -66.5h-86q0 23 -5.5 53t-22 67.5t-40.5 68.5t-66 52t-94 21q-144 0 -208 -124.5t-64 -364.5q0 -242 64 -367t208 -125q56 0 100 26t68 63t40 82t21 77.5t5 56.5h86 q0 -34 -7 -74t-27.5 -92.5t-52 -95t-87 -74.5t-125.5 -39l-70 -92l4 -4q27 10 78 10q58 0 99.5 -37.5t41.5 -97.5q0 -57 -52 -104t-150 -47q-96 0 -172 37l18 45q72 -33 158 -33q129 0 129 100q0 44 -30.5 66t-80.5 22t-108 -28l-21 24l94 139q-92 7 -155.5 51.5t-98 123.5 t-49 173.5t-14.5 217.5z" />
<glyph unicode="&#xe8;" horiz-adv-x="833" d="M78 565q0 252 90 391.5t268 139.5q181 0 257.5 -140.5t76.5 -414.5h-606q0 -51 0.5 -83t5.5 -89.5t14 -96t28 -85.5t45 -75t66.5 -47.5t92.5 -19.5q64 0 113.5 24.5t76.5 59.5t44 79.5t22.5 78.5t5.5 63h78q0 -51 -11 -102t-36.5 -101t-63 -87.5t-94.5 -61t-127 -23.5 q-81 0 -141.5 27t-99.5 75t-62.5 123.5t-33 162.5t-9.5 202zM164 610h520q0 66 -5 119t-20.5 111t-42 96.5t-73.5 64t-111 25.5q-57 0 -102 -20.5t-73.5 -57t-47.5 -78t-28.5 -91.5t-13 -89.5t-3.5 -79.5zM260 1507h98l160 -286h-67z" />
<glyph unicode="&#xe9;" horiz-adv-x="833" d="M78 565q0 252 90 391.5t268 139.5q181 0 257.5 -140.5t76.5 -414.5h-606q0 -51 0.5 -83t5.5 -89.5t14 -96t28 -85.5t45 -75t66.5 -47.5t92.5 -19.5q64 0 113.5 24.5t76.5 59.5t44 79.5t22.5 78.5t5.5 63h78q0 -51 -11 -102t-36.5 -101t-63 -87.5t-94.5 -61t-127 -23.5 q-81 0 -141.5 27t-99.5 75t-62.5 123.5t-33 162.5t-9.5 202zM164 610h520q0 66 -5 119t-20.5 111t-42 96.5t-73.5 64t-111 25.5q-57 0 -102 -20.5t-73.5 -57t-47.5 -78t-28.5 -91.5t-13 -89.5t-3.5 -79.5zM350 1221l160 286h98l-190 -286h-68z" />
<glyph unicode="&#xea;" horiz-adv-x="833" d="M78 565q0 252 90 391.5t268 139.5q181 0 257.5 -140.5t76.5 -414.5h-606q0 -51 0.5 -83t5.5 -89.5t14 -96t28 -85.5t45 -75t66.5 -47.5t92.5 -19.5q64 0 113.5 24.5t76.5 59.5t44 79.5t22.5 78.5t5.5 63h78q0 -51 -11 -102t-36.5 -101t-63 -87.5t-94.5 -61t-127 -23.5 q-81 0 -141.5 27t-99.5 75t-62.5 123.5t-33 162.5t-9.5 202zM164 610h520q0 66 -5 119t-20.5 111t-42 96.5t-73.5 64t-111 25.5q-57 0 -102 -20.5t-73.5 -57t-47.5 -78t-28.5 -91.5t-13 -89.5t-3.5 -79.5zM197 1221l192 286h86l193 -286h-86l-150 225l-149 -225h-86z" />
<glyph unicode="&#xeb;" horiz-adv-x="833" d="M78 565q0 252 90 391.5t268 139.5q181 0 257.5 -140.5t76.5 -414.5h-606q0 -51 0.5 -83t5.5 -89.5t14 -96t28 -85.5t45 -75t66.5 -47.5t92.5 -19.5q64 0 113.5 24.5t76.5 59.5t44 79.5t22.5 78.5t5.5 63h78q0 -51 -11 -102t-36.5 -101t-63 -87.5t-94.5 -61t-127 -23.5 q-81 0 -141.5 27t-99.5 75t-62.5 123.5t-33 162.5t-9.5 202zM164 610h520q0 66 -5 119t-20.5 111t-42 96.5t-73.5 64t-111 25.5q-57 0 -102 -20.5t-73.5 -57t-47.5 -78t-28.5 -91.5t-13 -89.5t-3.5 -79.5zM252 1266v209h86v-209h-86zM526 1266v209h86v-209h-86z" />
<glyph unicode="&#xec;" horiz-adv-x="303" d="M-20 1507h98l160 -286h-68zM113 0v1071h77v-1071h-77z" />
<glyph unicode="&#xed;" horiz-adv-x="303" d="M70 1221l159 286h99l-191 -286h-67zM113 0v1071h77v-1071h-77z" />
<glyph unicode="&#xee;" horiz-adv-x="303" d="M-84 1221l193 286h86l192 -286h-86l-149 225l-150 -225h-86zM113 0v1071h77v-1071h-77z" />
<glyph unicode="&#xef;" horiz-adv-x="303" d="M-29 1266v209h86v-209h-86zM113 0v1071h77v-1071h-77zM246 1266v209h86v-209h-86z" />
<glyph unicode="&#xf0;" d="M78 535q0 101 9.5 181t34 153t64 121.5t103.5 77t149 28.5q116 0 197 -68l4 4q-20 77 -79 173.5t-118 152.5l-161 -96l-54 53l162 96q-31 31 -78 64.5t-80 48.5l74 45q78 -38 158 -115l164 98l53 -53l-166 -98q59 -64 104.5 -136.5t88 -176t65.5 -244.5t23 -309 q0 -126 -16 -221.5t-54.5 -175t-110.5 -121.5t-176 -42q-85 0 -149 28.5t-103.5 77t-64 122t-34 153t-9.5 179.5zM164 537q0 -120 14 -208t45 -153t84 -98t129 -33t129 33t84.5 98t45.5 153t14 208q0 242 -62.5 365.5t-210.5 123.5q-76 0 -129 -32.5t-84 -97.5t-45 -152.5 t-14 -206.5z" />
<glyph unicode="&#xf1;" horiz-adv-x="833" d="M104 0v1071h78v-162h4q31 79 101.5 133t171.5 54q121 0 195.5 -72t74.5 -217v-807h-78v770q0 137 -54 196.5t-159 59.5q-119 0 -187.5 -97.5t-68.5 -242.5v-686h-78zM168 1278q0 35 11.5 72t45 69.5t82.5 32.5q56 2 121 -51q3 -2 11.5 -9t11.5 -9t10.5 -7.5t11 -7.5 t10.5 -6.5t11.5 -6l10.5 -3.5t11.5 -3t11.5 -1q24 0 40.5 12t24 31t10.5 36t3 35h62q0 -36 -12 -73.5t-45.5 -70t-82.5 -32.5q-23 -1 -46 7t-37.5 17.5t-36.5 26.5q-2 2 -12.5 10t-13.5 10t-12 8.5t-13 8.5t-11.5 6.5t-13 6t-12.5 3t-13 1.5q-31 0 -50 -21.5t-23.5 -44 t-4.5 -47.5h-61z" />
<glyph unicode="&#xf2;" d="M78 537q0 98 9.5 176.5t34 152t64.5 122.5t105 78.5t151 29.5q102 0 173.5 -43t109.5 -123t54 -175t16 -218q0 -99 -9.5 -178t-34.5 -152.5t-65 -123t-105 -79t-151 -29.5q-83 0 -145.5 29.5t-101 79t-63 123t-33.5 153t-9 177.5zM164 535q0 -243 62.5 -366.5 t209.5 -123.5q148 0 210.5 124t62.5 366q0 120 -14 208t-45.5 153t-84.5 97.5t-129 32.5t-129 -32.5t-84 -97.5t-45 -153t-14 -208zM264 1507h98l160 -286h-67z" />
<glyph unicode="&#xf3;" d="M78 537q0 98 9.5 176.5t34 152t64.5 122.5t105 78.5t151 29.5q102 0 173.5 -43t109.5 -123t54 -175t16 -218q0 -99 -9.5 -178t-34.5 -152.5t-65 -123t-105 -79t-151 -29.5q-83 0 -145.5 29.5t-101 79t-63 123t-33.5 153t-9 177.5zM164 535q0 -243 62.5 -366.5 t209.5 -123.5q148 0 210.5 124t62.5 366q0 120 -14 208t-45.5 153t-84.5 97.5t-129 32.5t-129 -32.5t-84 -97.5t-45 -153t-14 -208zM354 1221l160 286h98l-190 -286h-68z" />
<glyph unicode="&#xf4;" d="M78 537q0 98 9.5 176.5t34 152t64.5 122.5t105 78.5t151 29.5q102 0 173.5 -43t109.5 -123t54 -175t16 -218q0 -99 -9.5 -178t-34.5 -152.5t-65 -123t-105 -79t-151 -29.5q-83 0 -145.5 29.5t-101 79t-63 123t-33.5 153t-9 177.5zM164 535q0 -243 62.5 -366.5 t209.5 -123.5q148 0 210.5 124t62.5 366q0 120 -14 208t-45.5 153t-84.5 97.5t-129 32.5t-129 -32.5t-84 -97.5t-45 -153t-14 -208zM201 1221l192 286h86l193 -286h-86l-150 225l-149 -225h-86z" />
<glyph unicode="&#xf5;" d="M78 537q0 98 9.5 176.5t34 152t64.5 122.5t105 78.5t151 29.5q102 0 173.5 -43t109.5 -123t54 -175t16 -218q0 -99 -9.5 -178t-34.5 -152.5t-65 -123t-105 -79t-151 -29.5q-83 0 -145.5 29.5t-101 79t-63 123t-33.5 153t-9 177.5zM164 535q0 -243 62.5 -366.5 t209.5 -123.5q148 0 210.5 124t62.5 366q0 120 -14 208t-45.5 153t-84.5 97.5t-129 32.5t-129 -32.5t-84 -97.5t-45 -153t-14 -208zM186 1278q0 25 7.5 52.5t22.5 56t44 47t66 18.5q55 2 120 -51q55 -42 79 -50q11 -3 22 -3q24 0 40.5 12t24 31t10.5 36t3 35h61 q0 -36 -11.5 -73.5t-45 -70t-82.5 -32.5q-52 -2 -121 51q-3 2 -14.5 11t-15 12t-13 9.5t-15 9t-13.5 6t-15 5t-14 1.5q-31 0 -50 -21.5t-23.5 -44t-4.5 -47.5h-62z" />
<glyph unicode="&#xf6;" d="M78 537q0 98 9.5 176.5t34 152t64.5 122.5t105 78.5t151 29.5q102 0 173.5 -43t109.5 -123t54 -175t16 -218q0 -99 -9.5 -178t-34.5 -152.5t-65 -123t-105 -79t-151 -29.5q-83 0 -145.5 29.5t-101 79t-63 123t-33.5 153t-9 177.5zM164 535q0 -243 62.5 -366.5 t209.5 -123.5q148 0 210.5 124t62.5 366q0 120 -14 208t-45.5 153t-84.5 97.5t-129 32.5t-129 -32.5t-84 -97.5t-45 -153t-14 -208zM256 1266v209h86v-209h-86zM530 1266v209h86v-209h-86z" />
<glyph unicode="&#xf7;" horiz-adv-x="1228" d="M96 483v70h1037v-70h-1037zM510 104q0 43 30.5 74t73.5 31t74 -31t31 -74t-31 -73.5t-74 -30.5t-73.5 30.5t-30.5 73.5zM510 932q0 43 30.5 73.5t73.5 30.5t74 -30.5t31 -73.5t-31 -74t-74 -31t-73.5 31t-30.5 74z" />
<glyph unicode="&#xf8;" d="M78 537q0 98 9.5 176.5t34 152t64.5 122.5t105 78.5t151 29.5q105 0 172 -45l52 123l57 -21l-57 -141q129 -126 129 -475q0 -99 -9.5 -178t-34.5 -152.5t-65 -123t-105 -79t-151 -29.5q-99 0 -172 45l-53 -129l-58 21l60 147q-129 126 -129 478zM164 535q0 -275 78 -390 l342 832q-58 49 -148 49q-76 0 -129 -32.5t-84 -97.5t-45 -153t-14 -208zM289 94q55 -49 147 -49q148 0 210.5 124t62.5 366q0 276 -78 391z" />
<glyph unicode="&#xf9;" horiz-adv-x="833" d="M104 264v807h78v-770q0 -137 54 -196.5t159 -59.5q119 0 187.5 97.5t68.5 242.5v686h78v-1071h-78v162h-4q-31 -79 -101 -133t-171 -54q-121 0 -196 72t-75 217zM246 1507h98l160 -286h-68z" />
<glyph unicode="&#xfa;" horiz-adv-x="833" d="M104 264v807h78v-770q0 -137 54 -196.5t159 -59.5q119 0 187.5 97.5t68.5 242.5v686h78v-1071h-78v162h-4q-31 -79 -101 -133t-171 -54q-121 0 -196 72t-75 217zM336 1221l160 286h98l-191 -286h-67z" />
<glyph unicode="&#xfb;" horiz-adv-x="833" d="M104 264v807h78v-770q0 -137 54 -196.5t159 -59.5q119 0 187.5 97.5t68.5 242.5v686h78v-1071h-78v162h-4q-31 -79 -101 -133t-171 -54q-121 0 -196 72t-75 217zM182 1221l193 286h86l192 -286h-86l-149 225l-150 -225h-86z" />
<glyph unicode="&#xfc;" horiz-adv-x="833" d="M104 264v807h78v-770q0 -137 54 -196.5t159 -59.5q119 0 187.5 97.5t68.5 242.5v686h78v-1071h-78v162h-4q-31 -79 -101 -133t-171 -54q-121 0 -196 72t-75 217zM238 1266v209h86v-209h-86zM512 1266v209h86v-209h-86z" />
<glyph unicode="&#xfd;" horiz-adv-x="720" d="M18 1071h86l271 -960h4l237 960h86l-331 -1231q-30 -108 -86 -154t-152 -46q-26 0 -80 4v69q58 -4 68 -4q77 0 114 33t66 135l33 113zM279 1221l159 286h99l-191 -286h-67z" />
<glyph unicode="&#xfe;" d="M109 -360v1822h77v-579h4q34 99 97 156t178 57q330 0 330 -557q0 -564 -334 -564q-111 0 -180.5 61t-90.5 171h-4v-567h-77zM186 539q0 -243 62.5 -368.5t200.5 -125.5q62 0 108 26t74.5 69t46.5 108t24.5 134.5t6.5 156.5q0 248 -66 367.5t-180 119.5 q-146 0 -211.5 -118t-65.5 -369z" />
<glyph unicode="&#xff;" horiz-adv-x="720" d="M18 1071h86l271 -960h4l237 960h86l-331 -1231q-30 -108 -86 -154t-152 -46q-26 0 -80 4v69q58 -4 68 -4q77 0 114 33t66 135l33 113zM180 1266v209h86v-209h-86zM455 1266v209h86v-209h-86z" />
<glyph unicode="&#x152;" horiz-adv-x="1593" d="M102 731q0 179 24.5 315t77 236.5t141 152.5t210.5 52q74 0 133.5 -17t92.5 -42t49.5 -43.5t21.5 -32.5h4v110h670v-78h-584v-583h541v-78h-541v-645h610v-78h-696v123h-4q-41 -80 -114.5 -114t-182.5 -34q-122 0 -210.5 52t-141 152.5t-77 236.5t-24.5 315zM188 731 q0 -165 20 -288.5t64 -214.5t118.5 -137t178.5 -46q149 0 218 75.5t69 237.5v746q0 162 -69 237.5t-218 75.5q-104 0 -178.5 -46t-118.5 -137t-64 -214.5t-20 -288.5z" />
<glyph unicode="&#x153;" horiz-adv-x="1402" d="M78 535q0 123 19.5 222t60.5 176.5t111.5 120t166.5 42.5q86 0 149.5 -39t96 -98t41.5 -132h4q19 114 91 191.5t188 77.5q319 0 319 -555h-557v-60q0 -436 231 -436q56 0 99.5 24.5t68 59.5t40.5 79.5t21 78.5t5 63h78q0 -65 -18.5 -128.5t-54.5 -120t-98.5 -91.5 t-142.5 -35q-115 0 -185 78t-85 193h-4q-10 -116 -84 -194t-203 -77q-83 0 -146.5 28.5t-103 77.5t-64.5 121.5t-34.5 152.5t-9.5 180zM164 537q0 -120 14 -208t45 -153t84 -98t129 -33q61 0 106 22.5t73 62t45 103t23.5 135.5t6.5 169q0 96 -6.5 168t-23.5 134.5t-45 102 t-73 62t-106 22.5q-142 0 -207 -125t-65 -364zM768 610h471q0 192 -56.5 304t-176.5 112q-83 0 -137.5 -55t-77.5 -145.5t-23 -215.5z" />
<glyph unicode="&#x178;" horiz-adv-x="909" d="M12 1462h94l349 -770l356 770h86l-399 -860v-602h-86v602zM274 1583v209h86v-209h-86zM549 1583v209h86v-209h-86z" />
<glyph unicode="&#x2c6;" horiz-adv-x="303" d="M-84 1221l193 286h86l192 -286h-86l-149 225l-150 -225h-86z" />
<glyph unicode="&#x2dc;" horiz-adv-x="303" d="M-98 1278q0 35 11.5 72t45 69.5t82.5 32.5q56 2 121 -51q3 -2 11.5 -9t11.5 -9t10.5 -7.5t11 -7.5t10.5 -6.5t11.5 -6l10.5 -3.5t11.5 -3t11.5 -1q24 0 40.5 12t24 31t10.5 36t3 35h61q0 -36 -11.5 -73.5t-45 -70t-82.5 -32.5q-52 -2 -121 51q-3 2 -14.5 11t-15 12 t-13 9.5t-15 9t-13.5 6t-15 5t-14 1.5q-31 0 -50 -21.5t-23.5 -44t-4.5 -47.5h-61z" />
<glyph unicode="&#x2000;" horiz-adv-x="935" />
<glyph unicode="&#x2001;" horiz-adv-x="1870" />
<glyph unicode="&#x2002;" horiz-adv-x="935" />
<glyph unicode="&#x2003;" horiz-adv-x="1870" />
<glyph unicode="&#x2004;" horiz-adv-x="623" />
<glyph unicode="&#x2005;" horiz-adv-x="467" />
<glyph unicode="&#x2006;" horiz-adv-x="311" />
<glyph unicode="&#x2007;" horiz-adv-x="311" />
<glyph unicode="&#x2008;" horiz-adv-x="233" />
<glyph unicode="&#x2009;" horiz-adv-x="374" />
<glyph unicode="&#x200a;" horiz-adv-x="103" />
<glyph unicode="&#x2010;" horiz-adv-x="645" d="M129 522v70h387v-70h-387z" />
<glyph unicode="&#x2011;" horiz-adv-x="645" d="M129 522v70h387v-70h-387z" />
<glyph unicode="&#x2012;" horiz-adv-x="645" d="M129 522v70h387v-70h-387z" />
<glyph unicode="&#x2013;" horiz-adv-x="1024" d="M0 522v70h1024v-70h-1024z" />
<glyph unicode="&#x2014;" horiz-adv-x="2048" d="M0 522v70h2048v-70h-2048z" />
<glyph unicode="&#x2018;" horiz-adv-x="376" d="M137 991v205q0 79 12.5 130t37.5 81t69 55v-69q-35 -26 -46 -70.5t-11 -122.5h24v-209h-86z" />
<glyph unicode="&#x2019;" horiz-adv-x="376" d="M121 991v70q35 26 46 70t11 122h-24v209h86v-205q0 -79 -12.5 -130t-37.5 -81t-69 -55z" />
<glyph unicode="&#x201a;" horiz-adv-x="376" d="M121 -193q35 26 46 70.5t11 122.5h-24v209h86v-205q0 -79 -12.5 -130t-37.5 -81t-69 -55v69z" />
<glyph unicode="&#x201c;" horiz-adv-x="606" d="M137 991v205q0 79 12.5 130t37.5 81t69 55v-69q-35 -26 -46 -70.5t-11 -122.5h24v-209h-86zM367 991v205q0 117 26.5 173.5t91.5 92.5v-69q-35 -26 -46 -70.5t-11 -122.5h25v-209h-86z" />
<glyph unicode="&#x201d;" horiz-adv-x="606" d="M121 991v70q35 26 46 70t11 122h-24v209h86v-205q0 -79 -12.5 -130t-37.5 -81t-69 -55zM350 991v70q35 26 46.5 70.5t11.5 121.5h-25v209h86v-205q0 -79 -12.5 -130t-37.5 -81t-69 -55z" />
<glyph unicode="&#x201e;" horiz-adv-x="606" d="M121 -193q35 26 46 70.5t11 122.5h-24v209h86v-205q0 -79 -12.5 -130t-37.5 -81t-69 -55v69zM350 -193q35 26 46.5 71t11.5 122h-25v209h86v-205q0 -79 -12.5 -130t-37.5 -81t-69 -55v69z" />
<glyph unicode="&#x2022;" horiz-adv-x="1024" d="M147 731q0 151 107 258t258 107t258 -107t107 -258t-107 -257.5t-258 -106.5t-258 106.5t-107 257.5z" />
<glyph unicode="&#x2026;" horiz-adv-x="2048" d="M299 0v209h86v-209h-86zM981 0v209h86v-209h-86zM1663 0v209h86v-209h-86z" />
<glyph unicode="&#x202f;" horiz-adv-x="374" />
<glyph unicode="&#x2039;" horiz-adv-x="454" d="M111 514v78l233 285v-103l-172 -221l172 -213v-102z" />
<glyph unicode="&#x203a;" horiz-adv-x="454" d="M111 238v102l172 221l-172 213v103l233 -277v-78z" />
<glyph unicode="&#x205f;" horiz-adv-x="467" />
<glyph unicode="&#x2122;" horiz-adv-x="2048" d="M127 1393v69h651v-69h-291v-775h-69v775h-291zM946 618v844h119l311 -712l316 712h114v-844h-69v775h-4l-338 -775h-37l-338 775h-4v-775h-70z" />
<glyph unicode="&#x25fc;" horiz-adv-x="1075" d="M0 0v1075h1075v-1075h-1075z" />
<glyph unicode="&#xfb01;" horiz-adv-x="757" d="M16 1001v70h146v178q0 213 188 213q53 0 80 -6v-70q-31 7 -68 7q-122 0 -122 -140v-182h178v-70h-178v-1001h-78v1001h-146zM567 0v1071h78v-1071h-78zM567 1253v209h78v-209h-78z" />
<glyph unicode="&#xfb02;" horiz-adv-x="757" d="M16 1001v70h146v178q0 213 188 213q53 0 80 -6v-70q-31 7 -68 7q-122 0 -122 -140v-182h178v-70h-178v-1001h-78v1001h-146zM567 0v1462h78v-1462h-78z" />
<hkern u1="&#x20;" u2="&#x201c;" k="76" />
<hkern u1="&#x20;" u2="&#x2018;" k="76" />
<hkern u1="&#x20;" u2="Y" k="76" />
<hkern u1="&#x20;" u2="W" k="76" />
<hkern u1="&#x20;" u2="V" k="76" />
<hkern u1="&#x20;" u2="T" k="76" />
<hkern u1="&#x20;" u2="A" k="76" />
<hkern u1="&#x2c;" u2="&#x201d;" k="76" />
<hkern u1="&#x2c;" u2="&#x2019;" k="76" />
<hkern u1="&#x2c;" u2="&#x20;" k="76" />
<hkern u1="&#x2e;" u2="&#x201d;" k="76" />
<hkern u1="&#x2e;" u2="&#x2019;" k="76" />
<hkern u1="&#x2e;" u2="&#x20;" k="76" />
<hkern u1="&#x3a;" u2="&#x20;" k="76" />
<hkern u1="&#x3b;" u2="&#x20;" k="76" />
<hkern u1="A" u2="&#x201d;" k="113" />
<hkern u1="A" u2="&#x2019;" k="113" />
<hkern u1="A" u2="y" k="37" />
<hkern u1="A" u2="w" k="37" />
<hkern u1="A" u2="v" k="37" />
<hkern u1="A" u2="Y" k="113" />
<hkern u1="A" u2="W" k="76" />
<hkern u1="A" u2="V" k="76" />
<hkern u1="A" u2="T" k="113" />
<hkern u1="B" u2="&#x2e;" k="152" />
<hkern u1="B" u2="&#x2c;" k="152" />
<hkern u1="C" u2="&#x2e;" k="152" />
<hkern u1="C" u2="&#x2c;" k="152" />
<hkern u1="D" u2="&#x2e;" k="152" />
<hkern u1="D" u2="&#x2c;" k="152" />
<hkern u1="F" u2="r" k="20" />
<hkern u1="F" u2="o" k="37" />
<hkern u1="F" u2="e" k="37" />
<hkern u1="F" u2="a" k="37" />
<hkern u1="F" u2="A" k="76" />
<hkern u1="F" u2="&#x2e;" k="227" />
<hkern u1="F" u2="&#x2c;" k="227" />
<hkern u1="G" u2="&#x2e;" k="113" />
<hkern u1="G" u2="&#x2c;" k="113" />
<hkern u1="J" u2="&#x2e;" k="152" />
<hkern u1="J" u2="&#x2c;" k="152" />
<hkern u1="K" u2="O" k="20" />
<hkern u1="L" u2="&#x201d;" k="188" />
<hkern u1="L" u2="&#x2019;" k="188" />
<hkern u1="L" u2="y" k="76" />
<hkern u1="L" u2="Y" k="227" />
<hkern u1="L" u2="W" k="188" />
<hkern u1="L" u2="V" k="188" />
<hkern u1="L" u2="T" k="188" />
<hkern u1="N" u2="&#x2e;" k="113" />
<hkern u1="N" u2="&#x2c;" k="113" />
<hkern u1="O" u2="&#x2e;" k="152" />
<hkern u1="O" u2="&#x2c;" k="152" />
<hkern u1="P" u2="o" k="37" />
<hkern u1="P" u2="e" k="37" />
<hkern u1="P" u2="a" k="37" />
<hkern u1="P" u2="A" k="76" />
<hkern u1="P" u2="&#x2e;" k="264" />
<hkern u1="P" u2="&#x2c;" k="264" />
<hkern u1="Q" u2="U" k="-20" />
<hkern u1="Q" u2="&#x2e;" k="102" />
<hkern u1="Q" u2="&#x2c;" k="102" />
<hkern u1="R" u2="Y" k="37" />
<hkern u1="R" u2="T" k="37" />
<hkern u1="S" u2="&#x2e;" k="152" />
<hkern u1="S" u2="&#x2c;" k="152" />
<hkern u1="T" u2="y" k="133" />
<hkern u1="T" u2="w" k="172" />
<hkern u1="T" u2="u" k="172" />
<hkern u1="T" u2="r" k="172" />
<hkern u1="T" u2="o" k="172" />
<hkern u1="T" u2="i" k="37" />
<hkern u1="T" u2="e" k="172" />
<hkern u1="T" u2="a" k="172" />
<hkern u1="T" u2="A" k="113" />
<hkern u1="T" u2="&#x3b;" k="152" />
<hkern u1="T" u2="&#x3a;" k="152" />
<hkern u1="T" u2="&#x2e;" k="227" />
<hkern u1="T" u2="&#x2d;" k="227" />
<hkern u1="T" u2="&#x2c;" k="227" />
<hkern u1="U" u2="&#x2e;" k="152" />
<hkern u1="U" u2="&#x2c;" k="152" />
<hkern u1="V" u2="u" k="57" />
<hkern u1="V" u2="o" k="57" />
<hkern u1="V" u2="e" k="57" />
<hkern u1="V" u2="a" k="57" />
<hkern u1="V" u2="A" k="76" />
<hkern u1="V" u2="&#x3b;" k="76" />
<hkern u1="V" u2="&#x3a;" k="76" />
<hkern u1="V" u2="&#x2e;" k="227" />
<hkern u1="V" u2="&#x2d;" k="82" />
<hkern u1="V" u2="&#x2c;" k="227" />
<hkern u1="W" u2="u" k="16" />
<hkern u1="W" u2="o" k="57" />
<hkern u1="W" u2="e" k="57" />
<hkern u1="W" u2="a" k="57" />
<hkern u1="W" u2="A" k="37" />
<hkern u1="W" u2="&#x3b;" k="61" />
<hkern u1="W" u2="&#x3a;" k="61" />
<hkern u1="W" u2="&#x2e;" k="188" />
<hkern u1="W" u2="&#x2d;" k="82" />
<hkern u1="W" u2="&#x2c;" k="188" />
<hkern u1="Y" u2="u" k="96" />
<hkern u1="Y" u2="o" k="133" />
<hkern u1="Y" u2="i" k="37" />
<hkern u1="Y" u2="e" k="133" />
<hkern u1="Y" u2="a" k="133" />
<hkern u1="Y" u2="A" k="113" />
<hkern u1="Y" u2="&#x3b;" k="113" />
<hkern u1="Y" u2="&#x3a;" k="113" />
<hkern u1="Y" u2="&#x2e;" k="266" />
<hkern u1="Y" u2="&#x2d;" k="188" />
<hkern u1="Y" u2="&#x2c;" k="266" />
<hkern u1="b" u2="&#x2e;" k="113" />
<hkern u1="b" u2="&#x2c;" k="113" />
<hkern u1="c" u2="&#x2e;" k="113" />
<hkern u1="c" u2="&#x2c;" k="113" />
<hkern u1="e" u2="&#x2e;" k="113" />
<hkern u1="e" u2="&#x2c;" k="113" />
<hkern u1="f" u2="&#x201d;" k="-37" />
<hkern u1="f" u2="&#x2019;" k="-37" />
<hkern u1="f" u2="&#x2e;" k="188" />
<hkern u1="f" u2="&#x2c;" k="188" />
<hkern u1="g" u2="&#x2e;" k="82" />
<hkern u1="g" u2="&#x2c;" k="82" />
<hkern u1="o" u2="&#x2e;" k="113" />
<hkern u1="o" u2="&#x2c;" k="113" />
<hkern u1="p" u2="&#x2e;" k="113" />
<hkern u1="p" u2="&#x2c;" k="113" />
<hkern u1="r" u2="&#x2019;" k="-20" />
<hkern u1="r" u2="y" k="-37" />
<hkern u1="r" u2="v" k="-37" />
<hkern u1="r" u2="n" k="-20" />
<hkern u1="r" u2="m" k="-20" />
<hkern u1="r" u2="&#x3b;" k="76" />
<hkern u1="r" u2="&#x2e;" k="188" />
<hkern u1="r" u2="&#x2d;" k="188" />
<hkern u1="r" u2="&#x2c;" k="188" />
<hkern u1="s" u2="&#x2e;" k="113" />
<hkern u1="s" u2="&#x2c;" k="113" />
<hkern u1="v" u2="&#x2e;" k="152" />
<hkern u1="v" u2="&#x2c;" k="152" />
<hkern u1="w" u2="&#x2e;" k="113" />
<hkern u1="w" u2="&#x2c;" k="113" />
<hkern u1="y" u2="&#x2e;" k="152" />
<hkern u1="y" u2="&#x2c;" k="152" />
<hkern u1="&#x2018;" u2="&#x2018;" k="150" />
<hkern u1="&#x2018;" u2="A" k="113" />
<hkern u1="&#x2019;" u2="&#x2019;" k="150" />
<hkern u1="&#x2019;" u2="s" k="37" />
<hkern u1="&#x2019;" u2="r" k="37" />
<hkern u1="&#x2019;" u2="d" k="51" />
<hkern u1="&#x201c;" u2="&#x2018;" k="76" />
<hkern u1="&#x201c;" u2="A" k="113" />
<hkern u1="&#x201d;" u2="&#x20;" k="76" />
</font>
</defs></svg> 