<?xml version="1.0" standalone="no"?>
<!DOCTYPE svg PUBLIC "-//W3C//DTD SVG 1.1//EN" "http://www.w3.org/Graphics/SVG/1.1/DTD/svg11.dtd" >
<svg xmlns="http://www.w3.org/2000/svg">
<metadata></metadata>
<defs>
<font id="helvetica_neueregular" horiz-adv-x="1478" >
<font-face units-per-em="2048" ascent="1638" descent="-410" />
<missing-glyph horiz-adv-x="720" />
<glyph horiz-adv-x="0" />
<glyph horiz-adv-x="682" />
<glyph unicode=" "  horiz-adv-x="720" />
<glyph unicode="&#x09;" horiz-adv-x="720" />
<glyph unicode="&#xa0;" horiz-adv-x="720" />
<glyph unicode="!" horiz-adv-x="720" d="M201 0v291h319v-291h-319zM201 1071v391h319v-391l-57 -643h-205z" />
<glyph unicode="&#x22;" horiz-adv-x="720" d="M66 829v633h204v-633h-204zM451 829v633h204v-633h-204z" />
<glyph unicode="#" horiz-adv-x="1228" d="M113 424v168h206l33 237h-184v168h207l59 424h180l-59 -424h197l59 424h180l-59 -424h184v-168h-207l-32 -237h184v-168h-207l-59 -424h-181l60 424h-197l-59 -424h-180l59 424h-184zM500 592h196l33 237h-197z" />
<glyph unicode="$" horiz-adv-x="1515" d="M35 463h332q7 -124 93.5 -194t241.5 -85v422q-96 12 -151.5 21t-141 28.5t-135.5 47.5t-102 70t-76 104t-24 141q0 111 48.5 195t136 134.5t199 75.5t246.5 27v119h107v-119q79 -5 152 -18.5t156 -46t146 -79.5t110 -124.5t59 -175.5h-332q-6 75 -85 138t-206 77v-373 q243 -28 350 -58q242 -68 301 -234q21 -59 21 -132q0 -101 -41.5 -181t-107.5 -130t-156.5 -83t-180 -47t-186.5 -16v-205h-107v205q-657 32 -667 496zM391 1032q0 -42 22 -72.5t68 -50.5t95.5 -31.5t125.5 -23.5v367q-146 -5 -228.5 -52t-82.5 -137zM809 184q70 2 129 14 t107.5 35t76 62.5t27.5 91.5q0 38 -18 68t-46.5 50t-75 35.5t-92 25t-108.5 18.5v-400z" />
<glyph unicode="%" horiz-adv-x="2086" d="M106 1053q0 184 94.5 290.5t295.5 106.5t295 -106.5t94 -290.5t-94 -291t-295 -107t-295.5 107t-94.5 291zM311 1053q0 -43 9 -83t28.5 -77t57.5 -59.5t90 -22.5t89.5 22.5t57 59.5t28.5 77t9 83t-9 83t-28.5 77t-57 59t-89.5 22q-42 0 -75 -15t-53 -39t-33.5 -56.5 t-18.5 -64.5t-5 -66zM520 -33l854 1483h193l-854 -1483h-193zM1202 365q0 184 94 290.5t295 106.5t295 -106.5t94 -290.5t-94 -291t-295 -107t-295 107t-94 291zM1407 365q0 -43 9 -83t28.5 -77t57 -59.5t89.5 -22.5t90 22.5t57.5 59.5t28.5 77t9 83q0 34 -5 66t-18.5 64.5 t-33.5 56.5t-53 39t-75 15q-52 0 -89.5 -22t-57 -59t-28.5 -77t-9 -83z" />
<glyph unicode="&#x26;" horiz-adv-x="1781" d="M137 412q0 70 25 133t64 109t92 84.5t104.5 63t105.5 40.5q-29 26 -49 47.5t-47.5 59t-42 84.5t-14.5 100q0 99 60.5 175t160 115t219.5 39q94 0 169 -21t121.5 -53.5t77.5 -76t43.5 -85t12.5 -83.5q0 -58 -23 -110t-54.5 -86.5t-76.5 -65t-75.5 -45.5t-65.5 -29 l334 -309q45 54 77.5 122.5t43.5 116.5l211 -55q-10 -61 -50.5 -152t-115.5 -184l377 -348h-385l-158 152q-116 -105 -251.5 -148t-307.5 -43q-124 0 -224 26.5t-165.5 70t-110 102.5t-63.5 122.5t-19 131.5zM432 434q0 -64 23.5 -113.5t58.5 -78t83 -47t90 -25t85 -6.5 q62 0 114 10.5t95.5 33t69 39.5t61.5 46l-438 407q-38 -18 -63.5 -32t-63 -40t-59.5 -51.5t-39 -63t-17 -79.5zM645 1137q0 -26 11.5 -53.5t39.5 -60.5t41 -47t47 -48q44 21 64.5 31.5t51.5 30.5t45 37.5t25 44t11 58.5q0 70 -46 105t-122 35q-87 0 -127.5 -38t-40.5 -95z " />
<glyph unicode="'" horiz-adv-x="720" d="M258 829v633h205v-633h-205z" />
<glyph unicode="(" horiz-adv-x="872" d="M172 537q0 267 101.5 487.5t299.5 437.5h205q-158 -190 -240.5 -430.5t-82.5 -494.5t82.5 -495t240.5 -431h-205q-197 214 -299 437.5t-102 488.5z" />
<glyph unicode=")" horiz-adv-x="872" d="M94 -389q159 190 241.5 431t82.5 495q0 253 -82.5 494t-241.5 431h205q197 -215 299 -437.5t102 -487.5q0 -267 -101.5 -488t-299.5 -438h-205z" />
<glyph unicode="*" horiz-adv-x="948" d="M70 1126l63 166l252 -100v270h180v-274l250 104l64 -166l-263 -98l191 -207l-141 -108l-195 215l-190 -215l-136 108l189 207z" />
<glyph unicode="+" horiz-adv-x="1228" d="M96 416v205h416v415h205v-415h416v-205h-416v-416h-205v416h-416z" />
<glyph unicode="," horiz-adv-x="720" d="M201 0v291h319v-221q0 -172 -77 -281t-242 -131v121q88 29 115.5 74t35.5 147h-151z" />
<glyph unicode="-" horiz-adv-x="985" d="M131 457v241h723v-241h-723z" />
<glyph unicode="." horiz-adv-x="720" d="M201 0v291h319v-291h-319z" />
<glyph unicode="/" horiz-adv-x="831" d="M-12 -41l622 1544h234l-623 -1544h-233z" />
<glyph unicode="0" horiz-adv-x="1515" d="M90 711q0 162 41 295t123 233t216.5 155.5t311.5 55.5q159 0 283 -55.5t202 -155.5t118 -233.5t40 -294.5q0 -130 -25.5 -241.5t-79.5 -205t-134.5 -159t-195.5 -102t-257 -36.5q-128 0 -233.5 36.5t-181 102.5t-127 158.5t-76.5 204.5t-25 242zM385 711 q0 -108 21 -199.5t64 -166.5t116.5 -118t171.5 -43t171.5 43t116.5 118t63.5 166.5t20.5 199.5q0 106 -21 197t-63.5 165.5t-116 117t-171.5 42.5q-79 0 -142.5 -28.5t-106 -77t-71 -115.5t-41 -142t-12.5 -159z" />
<glyph unicode="1" horiz-adv-x="1024" d="M49 983v205h86q47 0 92.5 5.5t100 22t96.5 43t76.5 74t46.5 109.5h225v-1442h-295v983h-428z" />
<glyph unicode="2" horiz-adv-x="1515" d="M90 0q0 105 31.5 195t81.5 156.5t127.5 126.5t153.5 101t175 83q223 96 285 132q96 57 121 126q12 34 12 77q0 51 -19.5 92t-50.5 67t-70.5 44t-77.5 25.5t-75 7.5q-163 0 -252.5 -80.5t-101.5 -224.5h-307q0 128 48 228.5t133 164t197.5 96.5t246.5 33 q102 0 192.5 -15.5t173 -52t141.5 -90.5t94 -136.5t35 -184.5q0 -69 -23 -129t-60 -105t-93.5 -85t-112.5 -68.5t-128 -57.5q-42 -17 -129 -49t-134.5 -52t-109 -51t-100 -66.5t-60.5 -78.5h948v-229h-1292z" />
<glyph unicode="3" horiz-adv-x="1515" d="M94 455h295q19 -271 361 -271q154 0 253 62.5t99 175.5q0 26 -5 49t-17.5 50t-37 48.5t-59.5 39.5t-89.5 28t-123.5 10h-172v205h193q126 0 194 43.5t68 130.5q0 88 -77 147.5t-239 59.5q-79 0 -139 -21t-95 -57t-53.5 -78t-21.5 -90h-295q9 101 48 181t98.5 132.5 t140 86.5t167 48.5t185.5 14.5q130 0 233 -23.5t168.5 -62t108.5 -93.5t60.5 -113.5t17.5 -125.5q0 -51 -19 -99t-71 -94t-131 -69v-4q130 -31 206 -119.5t76 -206.5q0 -39 -5.5 -76.5t-23.5 -86t-47 -90.5t-81.5 -83.5t-121 -70.5t-171 -47.5t-226.5 -18.5q-99 0 -186 13 t-174.5 47t-149.5 87t-101 140.5t-40 200.5z" />
<glyph unicode="4" horiz-adv-x="1515" d="M80 311v242l778 889h320v-914h258v-217h-258v-311h-271v311h-827zM362 528h545v656h-4z" />
<glyph unicode="5" horiz-adv-x="1515" d="M90 401h307q52 -217 342 -217q71 0 132.5 14t115 44.5t84.5 86t31 130.5q0 142 -99 215.5t-247 73.5q-116 0 -189.5 -28t-136.5 -85l-287 6l136 776h1032v-229h-824l-61 -324q156 88 377 88q101 0 190.5 -17.5t166 -55t132 -91t86.5 -129.5t31 -167q0 -240 -169 -382.5 t-495 -142.5q-289 0 -462.5 113t-192.5 321z" />
<glyph unicode="6" horiz-adv-x="1515" d="M90 711q0 62 7.5 125t27.5 137.5t51 140.5t83.5 128.5t120 107.5t165 72.5t213.5 27.5q284 0 438.5 -101t179.5 -288h-301q-43 172 -282 172q-187 0 -293 -123t-115 -330q90 90 190.5 125t251.5 35q125 0 225.5 -26t167 -70.5t111 -105.5t63.5 -128t19 -141 q0 -76 -23 -147t-74.5 -136t-126.5 -113.5t-186 -77t-245 -28.5q-150 0 -265.5 37t-191 102t-123.5 160.5t-68 204t-20 240.5zM420 453q0 -55 18.5 -101.5t57.5 -85t107.5 -60.5t160.5 -22q176 0 259 76.5t83 192.5q0 55 -18.5 102t-57.5 85.5t-107 60.5t-159 22 q-178 0 -261 -76.5t-83 -193.5z" />
<glyph unicode="7" horiz-adv-x="1366" d="M33 1176v241h1274v-248q-112 -124 -212.5 -255t-198 -284.5t-165 -317.5t-90.5 -312h-356q14 139 89.5 310.5t183.5 331t221.5 296.5t219.5 238h-966z" />
<glyph unicode="8" horiz-adv-x="1515" d="M90 406q0 136 72 232t225 134v4q-112 33 -173.5 106t-61.5 183q0 82 31.5 149t100 121.5t189 84.5t285.5 30q164 0 284.5 -30t188.5 -84.5t99.5 -121.5t31.5 -149q0 -110 -62 -183t-174 -106v-4q153 -38 226 -134t73 -232q0 -44 -11.5 -88.5t-37.5 -96t-76.5 -95.5 t-120.5 -80.5t-178.5 -57.5t-242.5 -21q-116 0 -213 16t-164.5 42.5t-120 64t-84 76.5t-51.5 83t-27.5 82t-7.5 75zM410 420q0 -109 87.5 -172.5t260.5 -63.5t260.5 63.5t87.5 172.5q0 113 -87.5 177.5t-260.5 64.5t-260.5 -64.5t-87.5 -177.5zM459 1047q0 -87 76.5 -134 t222.5 -47q145 0 221 47t76 134q0 91 -75.5 138.5t-221.5 47.5q-147 0 -223 -47.5t-76 -138.5z" />
<glyph unicode="9" horiz-adv-x="1515" d="M102 948q0 96 38.5 183t114.5 159.5t206 116t297 43.5q150 0 265.5 -37t190.5 -102t123 -160t68 -203.5t20 -240.5q0 -62 -7 -125t-27 -137.5t-51.5 -140.5t-84 -129t-120 -108t-164.5 -72.5t-213 -27.5q-284 0 -439 101t-180 288h301q43 -172 283 -172q187 0 292.5 123 t114.5 330q-90 -90 -190.5 -125t-251.5 -35q-125 0 -225.5 26t-167 70.5t-111 105.5t-63.5 128t-19 141zM410 965q0 -117 83 -194t259 -77q178 0 261 77t83 194q0 55 -18.5 101t-57.5 84.5t-107.5 60.5t-160.5 22q-176 0 -259 -76t-83 -192z" />
<glyph unicode=":" horiz-adv-x="720" d="M201 0v291h319v-291h-319zM201 780v291h319v-291h-319z" />
<glyph unicode=";" horiz-adv-x="720" d="M201 0v291h319v-221q0 -172 -77 -281t-242 -131v121q88 29 115.5 74t35.5 147h-151zM201 780v291h319v-291h-319z" />
<glyph unicode="&#x3c;" horiz-adv-x="1228" d="M96 434v168l1037 451v-205l-760 -330l760 -330v-204z" />
<glyph unicode="=" horiz-adv-x="1228" d="M96 188v205h1037v-205h-1037zM96 643v205h1037v-205h-1037z" />
<glyph unicode="&#x3e;" horiz-adv-x="1228" d="M96 -16v204l760 330l-760 330v205l1037 -451v-168z" />
<glyph unicode="?" horiz-adv-x="1441" d="M92 989q9 243 164.5 371.5t445.5 128.5q133 0 239 -27t173 -71t111 -104t62 -120.5t18 -126.5q0 -73 -27 -135t-69.5 -104.5t-94.5 -79.5t-104 -69t-94.5 -64t-69.5 -73t-27 -89h-282v33q0 68 25.5 123.5t66 94t89.5 72t98 65t89.5 64.5t66 79.5t25.5 101.5 q0 60 -28 103.5t-75.5 66.5t-97 33t-104.5 10q-54 0 -104.5 -15t-96.5 -46t-74.5 -88.5t-29.5 -133.5h-295zM518 0v291h320v-291h-320z" />
<glyph unicode="@" horiz-adv-x="1638" d="M68 731q0 169 64 314.5t173 245t255 156t308 56.5q138 0 266 -46.5t224.5 -128t154.5 -201t58 -257.5q0 -117 -36.5 -218.5t-93 -169t-124.5 -116.5t-131.5 -71.5t-114.5 -22.5q-56 0 -92 31.5t-39 89.5h-4q-33 -53 -101.5 -87t-138.5 -34q-130 0 -221.5 102t-91.5 242 q0 135 55.5 256.5t163 201t242.5 79.5q162 0 237 -147l35 118h158l-123 -479q-31 -124 -31 -164q0 -26 7 -36.5t28 -10.5q63 0 123 54t98.5 148t38.5 200q0 161 -77 279t-204 175.5t-288 57.5q-124 0 -235 -47t-190.5 -128.5t-126 -196.5t-46.5 -245q0 -174 79 -315.5 t216 -221t303 -79.5q154 0 279 48t206 140h162q-102 -164 -270 -254t-367 -90q-157 0 -301 56.5t-251.5 156t-171.5 245t-64 314.5zM588 641q0 -83 44.5 -135.5t115.5 -52.5q75 0 138 55t95.5 133.5t32.5 155.5q0 73 -45.5 124.5t-112.5 51.5q-74 0 -137.5 -53.5t-97 -129.5 t-33.5 -149z" />
<glyph unicode="A" horiz-adv-x="1630" d="M-18 0l651 1462h364l652 -1462h-342l-154 362h-688l-152 -362h-331zM557 592h504l-250 616z" />
<glyph unicode="B" horiz-adv-x="1705" d="M150 0v1462h966q97 0 171.5 -20.5t121 -54t75.5 -81.5t40.5 -98.5t11.5 -109.5q0 -60 -14 -109t-32.5 -78t-50 -55t-51 -37t-51.5 -26q267 -83 267 -363q0 -54 -13.5 -108.5t-49 -113.5t-89 -104t-143.5 -74.5t-203 -29.5h-956zM457 229h551q46 0 82 4t74 17.5t63 36.5 t41 63t16 94q0 99 -63 153t-168 54h-596v-422zM457 868h573q38 0 68.5 6.5t62.5 24.5t50 57.5t18 98.5q0 92 -60 135t-192 43h-520v-365z" />
<glyph unicode="C" horiz-adv-x="1781" d="M68 731q0 126 29 238.5t93.5 211t158 169.5t231 112t305.5 41q183 0 331.5 -46t245 -126.5t152.5 -184t69 -224.5h-331q-23 165 -149.5 258.5t-321.5 93.5q-221 0 -357.5 -146.5t-136.5 -422.5q0 -229 143.5 -373t370.5 -144q77 0 142 16.5t111.5 46t82 65t58.5 79 t36.5 83t20.5 81.5h331q-14 -94 -45 -175t-94.5 -161.5t-153.5 -137t-229 -91.5t-313 -35q-154 0 -283 41t-220 112.5t-154 169t-93 211t-30 238.5z" />
<glyph unicode="D" horiz-adv-x="1744" d="M150 0v1462h788q168 0 294 -38t205.5 -103t128.5 -162t68 -203t19 -239q0 -101 -18 -196t-64.5 -191.5t-117 -168t-184 -116.5t-257.5 -45h-862zM457 229h432q73 0 133 10.5t122.5 42.5t105 85.5t69.5 145.5t27 216q0 98 -18 177t-45.5 131t-69.5 90t-81.5 57.5t-91 31.5 t-87.5 14.5t-81 2.5h-415v-1004z" />
<glyph unicode="E" horiz-adv-x="1517" d="M150 0v1462h1269v-229h-962v-369h923v-229h-923v-406h979v-229h-1286z" />
<glyph unicode="F" horiz-adv-x="1402" d="M150 0v1462h1216v-229h-909v-369h860v-229h-860v-635h-307z" />
<glyph unicode="G" horiz-adv-x="1857" d="M68 731q0 126 31 238.5t98 211t165 169.5t241 112t317 41q324 0 529.5 -145t231.5 -367h-331q-26 96 -94 161t-155 93.5t-190 28.5q-139 0 -241.5 -40.5t-163.5 -116t-90 -174t-29 -222.5q0 -113 28.5 -204.5t76 -151.5t113.5 -101t138 -58.5t152 -17.5q227 0 347.5 98 t158.5 287h-414v230h721v-803h-180l-43 190q-90 -108 -238 -169.5t-319 -61.5q-180 0 -326 41t-244.5 112t-164.5 169.5t-95.5 210.5t-29.5 239z" />
<glyph unicode="H" horiz-adv-x="1820" d="M150 0v1462h307v-569h907v569h307v-1462h-307v664h-907v-664h-307z" />
<glyph unicode="I" horiz-adv-x="606" d="M150 0v1462h307v-1462h-307z" />
<glyph unicode="J" horiz-adv-x="1290" d="M31 526h307q0 -43 0.5 -67.5t5.5 -65t14.5 -65t28 -54.5t45 -46.5t67.5 -28t93 -11.5q50 0 89 12t64 29t43 47.5t26.5 55t13.5 65.5t5.5 65t0.5 66v934h307v-1020q0 -56 -9 -107.5t-30.5 -108.5t-62 -103t-98.5 -84t-146.5 -59t-198.5 -21q-116 0 -207 21.5t-149.5 52 t-100 83t-62 95.5t-32 109.5t-13 105t-1.5 100.5z" />
<glyph unicode="K" horiz-adv-x="1669" d="M150 0v1462h307v-678l747 678h422l-682 -594l725 -868h-416l-548 674l-248 -219v-455h-307z" />
<glyph unicode="L" horiz-adv-x="1366" d="M150 0v1462h307v-1220h889v-242h-1196z" />
<glyph unicode="M" horiz-adv-x="2199" d="M150 0v1462h442l512 -1134l508 1134h438v-1462h-289l13 1208h-5l-540 -1208h-262l-537 1208h-4l12 -1208h-288z" />
<glyph unicode="N" horiz-adv-x="1820" d="M150 0v1462h352l870 -1097h4v1097h295v-1462h-346l-876 1098h-5v-1098h-294z" />
<glyph unicode="O" horiz-adv-x="1855" d="M68 731q0 127 29.5 239t95.5 210.5t164.5 169.5t244.5 112t326 41t326 -41t244.5 -112t164.5 -169.5t95.5 -210.5t29.5 -239t-29.5 -239t-95.5 -210.5t-164.5 -169.5t-244.5 -112t-326 -41t-326 41t-244.5 112t-164.5 169.5t-95.5 210.5t-29.5 239zM387 731 q0 -246 143.5 -394.5t397.5 -148.5t397 148.5t143 394.5t-143 394.5t-397 148.5t-397.5 -148.5t-143.5 -394.5z" />
<glyph unicode="P" horiz-adv-x="1593" d="M150 0v1462h901q104 0 186.5 -25t136 -67t88.5 -101t49.5 -123t14.5 -138q0 -69 -17 -133t-54 -122t-91 -101.5t-133.5 -69t-175.5 -25.5h-598v-557h-307zM457 786h493q138 0 203.5 48.5t65.5 173.5q0 65 -21 111t-58 69.5t-77.5 34t-89.5 10.5h-516v-447z" />
<glyph unicode="Q" horiz-adv-x="1855" d="M68 731q0 127 29.5 239t95.5 210.5t164.5 169.5t244.5 112t326 41t326 -41t244.5 -112t164.5 -169.5t95.5 -210.5t29.5 -239q0 -178 -60.5 -329t-185.5 -255l201 -170l-148 -170l-258 222q-176 -70 -409 -70q-180 0 -326 41t-244.5 112t-164.5 169.5t-95.5 210.5 t-29.5 239zM387 731q0 -246 143.5 -394.5t397.5 -148.5q110 0 190 29l-135 117l145 168l195 -166q145 145 145 395q0 246 -143 394.5t-397 148.5t-397.5 -148.5t-143.5 -394.5z" />
<glyph unicode="R" horiz-adv-x="1669" d="M150 0v1462h925q494 0 494 -397q0 -137 -67 -227.5t-175 -124.5v-4q63 -13 106 -47t66 -88t32 -116t9 -145q0 -229 62 -313h-332q-37 66 -37 221q0 70 -4.5 118.5t-20 96.5t-42.5 77t-74 47t-113 18h-522v-578h-307zM457 807h530q134 0 198 48.5t64 166.5q0 211 -262 211 h-530v-426z" />
<glyph unicode="S" horiz-adv-x="1517" d="M37 473h332q6 -142 116 -213.5t303 -71.5q73 0 135.5 11.5t114.5 35.5t81.5 67t29.5 101t-37 97.5t-99 61.5t-143 36.5t-170.5 26.5t-178.5 27.5t-170 44.5t-143 71.5t-99 114.5t-37 168q0 119 50 207.5t139.5 141t203.5 78t252 25.5q57 0 109 -3.5t123.5 -15t131.5 -31 t123.5 -55t109 -83t78 -118.5t40.5 -159h-332q-9 97 -100.5 166.5t-268.5 69.5q-159 0 -249.5 -50.5t-90.5 -150.5q0 -55 37.5 -91.5t100.5 -56t144.5 -32t172 -23.5t181 -25.5t172 -44t144.5 -73t100.5 -118.5t37.5 -175q0 -109 -44 -194t-113.5 -136.5t-164.5 -85.5 t-188 -46.5t-193 -12.5q-379 0 -558.5 136t-182.5 378z" />
<glyph unicode="T" horiz-adv-x="1404" d="M0 1233v229h1405v-229h-549v-1233h-307v1233h-549z" />
<glyph unicode="U" horiz-adv-x="1705" d="M137 629v833h307v-825q0 -38 0.5 -62.5t3.5 -62t9 -62.5t15.5 -58t25.5 -56t37.5 -48t52.5 -41.5t68.5 -31t87 -21t108.5 -6.5q65 0 119.5 9t94 23.5t71 39.5t51.5 48t34.5 58.5t22 63.5t11.5 69t5 68.5t1 69.5v825h307v-833q0 -70 -2 -114.5t-16.5 -122.5t-40.5 -129.5 t-78.5 -114.5t-126.5 -100t-190 -63t-263 -26q-146 0 -261.5 26t-189.5 63t-127 100t-78.5 114.5t-40 129.5t-16.5 122.5t-2 114.5z" />
<glyph unicode="V" horiz-adv-x="1554" d="M-33 1462h344l477 -1171l467 1171h332l-643 -1462h-326z" />
<glyph unicode="W" horiz-adv-x="2351" d="M-12 1462h331l330 -1134h4l365 1134h319l367 -1134h4l336 1134h319l-491 -1462h-332l-364 1122h-5l-366 -1122h-332z" />
<glyph unicode="X" horiz-adv-x="1517" d="M-25 0l596 754l-557 708h383l365 -508l379 508h370l-567 -708l598 -754h-389l-397 539l-402 -539h-379z" />
<glyph unicode="Y" horiz-adv-x="1556" d="M-14 1462h374l418 -651l418 651h375l-639 -905v-557h-307v557z" />
<glyph unicode="Z" d="M31 0v223l1007 1010h-938v229h1342v-223l-998 -997h1004v-242h-1417z" />
<glyph unicode="[" horiz-adv-x="872" d="M213 -389v1851h561v-205h-303v-1441h303v-205h-561z" />
<glyph unicode="\" horiz-adv-x="831" d="M-12 1503h233l623 -1544h-234z" />
<glyph unicode="]" horiz-adv-x="872" d="M98 -184h303v1441h-303v205h561v-1851h-561v205z" />
<glyph unicode="^" horiz-adv-x="1228" d="M123 590l407 827h168l408 -827h-205l-287 586l-286 -586h-205z" />
<glyph unicode="_" horiz-adv-x="1024" d="M0 -154h1024v-102h-1024v102z" />
<glyph unicode="`" horiz-adv-x="493" d="M-113 1526h349l182 -291h-244z" />
<glyph unicode="a" horiz-adv-x="1441" d="M68 299q0 49 11.5 90t28.5 71.5t47 56.5t56 42.5t67.5 30.5t69.5 21.5t73.5 14.5t68.5 9t65 6q109 11 175 18t121 16.5t81.5 17t44.5 21t22.5 27.5t4.5 37q0 156 -308 156q-282 0 -297 -180h-276q15 105 60.5 178t121.5 115t170.5 60.5t220.5 18.5q117 0 210.5 -13.5 t153.5 -33.5t103.5 -52.5t65.5 -61.5t34 -70t14.5 -68t2.5 -65v-514q0 -62 61 -62q53 0 93 7v-199q-9 -2 -39.5 -8t-47 -8.5t-48.5 -5.5t-66 -3q-52 0 -92 11.5t-60.5 25.5t-35 36.5t-18 35.5t-7.5 31q-156 -150 -510 -150q-211 0 -326.5 89.5t-115.5 250.5zM362 309 q0 -51 21.5 -86.5t57.5 -52.5t72 -24t77 -7q50 0 101 7.5t107.5 28.5t99.5 52.5t71 85.5t28 123v105q-57 -24 -127.5 -36t-242.5 -32q-154 -18 -209.5 -55t-55.5 -109z" />
<glyph unicode="b" d="M115 0v1487h282v-557h4q60 94 170 139t246 45q120 0 220 -33.5t168 -90t115.5 -131t69 -155.5t21.5 -165q0 -86 -21.5 -167.5t-69 -157t-115.5 -132t-168 -90t-220 -33.5q-153 0 -275.5 66t-140.5 125h-4v-150h-282zM385 539q0 -72 20.5 -135t62.5 -115t114.5 -82.5 t167.5 -30.5q96 0 169 30.5t114.5 82.5t62 115t20.5 135q0 70 -20.5 132t-62 114t-114.5 82t-169 30q-95 0 -167.5 -30t-114.5 -82t-62.5 -114t-20.5 -132z" />
<glyph unicode="c" horiz-adv-x="1402" d="M68 543q0 265 179.5 424t491.5 159q40 0 82 -4t97.5 -15.5t106 -30.5t102.5 -51.5t93 -75t72 -105.5t43 -139h-295q-15 87 -98.5 145.5t-202.5 58.5q-95 0 -169 -30.5t-118.5 -82.5t-67 -116t-22.5 -137t20.5 -137t61 -116.5t109 -83t156.5 -30.5q80 0 136 14.5 t93.5 48.5t60.5 73.5t48 103.5h294q-11 -73 -36 -134.5t-57.5 -105t-75.5 -79t-83.5 -57.5t-89 -38.5t-85 -24.5t-77 -12.5t-59.5 -5t-39 -0.5q-141 0 -255.5 32t-190.5 87t-128 130.5t-74.5 159t-22.5 175.5z" />
<glyph unicode="d" d="M68 539q0 84 21.5 165t69 155.5t115.5 131t168 90t220 33.5q136 0 245.5 -45t169.5 -139h4v557h283v-1487h-283v150h-4q-18 -59 -140 -125t-275 -66q-120 0 -220 33.5t-168 90t-115.5 132t-69 157t-21.5 167.5zM362 539q0 -72 20.5 -135t62.5 -115t115 -82.5t169 -30.5 q95 0 167.5 30.5t114.5 82.5t62.5 115t20.5 135q0 70 -20.5 132t-62.5 114t-114.5 82t-167.5 30q-96 0 -169 -30t-115 -82t-62.5 -114t-20.5 -132z" />
<glyph unicode="e" d="M80 532q0 269 181 431.5t472 162.5q140 0 253.5 -33.5t189 -91t127 -136.5t74 -167t22.5 -186v-41h-1024q2 -40 13 -79t38.5 -81t67 -74t104 -52.5t145.5 -20.5q130 0 204 40t120 115h307q-181 -360 -622 -360q-142 0 -257 32t-191 86t-127.5 128.5t-74 155.5t-22.5 171z M375 651h729q-12 77 -51.5 135t-94 88.5t-110 45t-111.5 14.5q-42 0 -83.5 -8t-86.5 -28.5t-82 -51.5t-66.5 -81t-43.5 -114z" />
<glyph unicode="f" horiz-adv-x="757" d="M-23 881v204h224v140q0 43 5 76t24.5 73t53 66.5t95.5 44.5t147 18q122 0 254 -8v-205q-62 8 -145 8q-94 0 -123 -26.5t-29 -102.5v-84h297v-204h-297v-881h-282v881h-224z" />
<glyph unicode="g" horiz-adv-x="1517" d="M59 561q0 85 22 164.5t70 150.5t117.5 123.5t170.5 83.5t223 31q163 0 279.5 -48.5t166.5 -135.5h4v160h283v-1053q0 -80 -20.5 -150t-69 -133t-121 -108t-183.5 -71t-251 -26q-106 0 -193.5 9.5t-168.5 34.5t-137.5 64.5t-93.5 102t-44 144.5h295q11 -50 39 -83.5 t75 -50t97.5 -22.5t121.5 -6q93 0 162.5 19.5t108.5 49.5t62.5 73.5t30.5 83t7 87.5v131h-6q-98 -93 -205 -133.5t-237 -40.5q-90 0 -173.5 18t-163 59.5t-138.5 103.5t-94.5 156.5t-35.5 211.5zM354 565q0 -64 20.5 -120.5t64 -106.5t123 -79.5t186.5 -29.5 q161 0 262.5 94.5t101.5 245.5q0 74 -27 133.5t-68 95t-95 58.5t-102.5 32t-96.5 9q-159 0 -264 -93.5t-105 -238.5z" />
<glyph unicode="h" horiz-adv-x="1404" d="M115 0v1487h282v-565h4q151 192 428 192q93 0 171 -18.5t145.5 -59.5t106 -117.5t38.5 -181.5v-737h-282v647q0 39 -6 71.5t-23.5 67t-46.5 58t-79.5 38.5t-117.5 15q-46 0 -91.5 -10t-90.5 -34t-79.5 -59t-55.5 -89t-21 -121v-584h-282z" />
<glyph unicode="i" horiz-adv-x="528" d="M123 0v1085h283v-1085h-283zM123 1257v230h283v-230h-283z" />
<glyph unicode="j" horiz-adv-x="528" d="M-106 -193q58 -4 98 -4q67 0 99 33t32 123v1126h283v-1134q0 -100 -17 -166.5t-59.5 -112.5t-114 -66t-180.5 -20q-43 0 -141 4v217zM123 1257v230h283v-230h-283z" />
<glyph unicode="k" horiz-adv-x="1290" d="M115 0v1487h282v-836l502 434h399l-501 -409l544 -676h-380l-386 496l-178 -146v-350h-282z" />
<glyph unicode="l" horiz-adv-x="528" d="M123 0v1487h283v-1487h-283z" />
<glyph unicode="m" horiz-adv-x="2199" d="M115 0v1085h282v-163h4q151 192 428 192q297 0 383 -201q60 85 172 143t269 58q59 0 112.5 -8.5t114 -34.5t104 -67.5t72.5 -114.5t29 -168v-721h-283v647q0 34 -2.5 58.5t-10.5 56t-26 53.5t-46 42t-74 30t-107 10q-33 0 -68.5 -7t-77 -27.5t-74 -52t-54 -85 t-21.5 -121.5v-604h-283v647q0 34 -2.5 58.5t-10.5 56t-26 53.5t-46 42t-74 30t-107 10q-33 0 -68.5 -7t-77 -27.5t-74 -52t-54 -85t-21.5 -121.5v-604h-282z" />
<glyph unicode="n" horiz-adv-x="1404" d="M115 0v1085h282v-163h4q151 192 428 192q93 0 171 -18.5t145.5 -59.5t106 -117.5t38.5 -181.5v-737h-282v647q0 39 -6 71.5t-23.5 67t-46.5 58t-79.5 38.5t-117.5 15q-46 0 -91.5 -10t-90.5 -34t-79.5 -59t-55.5 -89t-21 -121v-584h-282z" />
<glyph unicode="o" d="M68 543q0 117 37.5 218t115 184.5t210.5 132t308 48.5q141 0 255.5 -32t191 -87t128 -130t74.5 -158.5t23 -175.5t-23 -175.5t-74.5 -159t-128 -130.5t-191 -87t-255.5 -32t-255.5 32t-190.5 87t-128 130.5t-74.5 159t-22.5 175.5zM362 543q0 -73 21 -137t64 -116.5 t118 -83t174 -30.5t174 30.5t118 83t64 116.5t21 137t-21 137t-64 116t-118 82.5t-174 30.5t-174 -30.5t-118 -82.5t-64 -116t-21 -137z" />
<glyph unicode="p" d="M115 -414v1499h282v-155h4q60 94 170 139t246 45q120 0 220 -33.5t168 -90t115.5 -131t69 -155.5t21.5 -165q0 -86 -21.5 -167.5t-69 -157t-115.5 -132t-168 -90t-220 -33.5q-153 0 -275.5 66t-140.5 125h-4v-564h-282zM385 539q0 -72 20.5 -135t62.5 -115t114.5 -82.5 t167.5 -30.5q96 0 169 30.5t114.5 82.5t62 115t20.5 135q0 70 -20.5 132t-62 114t-114.5 82t-169 30q-95 0 -167.5 -30t-114.5 -82t-62.5 -114t-20.5 -132z" />
<glyph unicode="q" d="M68 539q0 84 21.5 165t69 155.5t115.5 131t168 90t220 33.5q136 0 245.5 -45t169.5 -139h4v155h283v-1499h-283v564h-4q-18 -59 -140 -125t-275 -66q-120 0 -220 33.5t-168 90t-115.5 132t-69 157t-21.5 167.5zM362 539q0 -72 20.5 -135t62.5 -115t115 -82.5t169 -30.5 q95 0 167.5 30.5t114.5 82.5t62.5 115t20.5 135q0 70 -20.5 132t-62.5 114t-114.5 82t-167.5 30q-96 0 -169 -30t-115 -82t-62.5 -114t-20.5 -132z" />
<glyph unicode="r" horiz-adv-x="948" d="M115 0v1085h282v-211h4q31 51 66.5 90.5t84.5 75t115 55t144 19.5q51 0 113 -10v-279q-84 27 -181 27q-46 0 -91 -9.5t-92 -33.5t-82.5 -60t-58 -94.5t-22.5 -130.5v-524h-282z" />
<glyph unicode="s" horiz-adv-x="1327" d="M59 340h308q3 -58 34.5 -98t81 -58t93.5 -25t90 -7q56 0 106 7.5t93.5 23.5t69.5 43.5t26 64.5q0 45 -25.5 69t-99 43.5t-228.5 40.5q-82 11 -135 19.5t-113 22.5t-95.5 29.5t-71.5 39.5t-55 54.5t-30.5 72t-11.5 94.5q0 74 27 133t74 95.5t101.5 62t119.5 37.5t116.5 17 t104.5 5q44 0 85 -2t101.5 -11t111 -23.5t104.5 -43t92 -66.5t64.5 -96t29.5 -130h-295q-6 39 -24 69.5t-45 49.5t-56.5 32t-64.5 18.5t-62 8t-55 2.5q-112 0 -179 -39t-67 -86q0 -29 6 -45.5t20 -30.5t51 -24t85.5 -19t136.5 -22q97 -14 146.5 -22t124.5 -23t112.5 -30 t85 -40t68.5 -55t37 -72.5t16 -95.5q0 -100 -45.5 -173.5t-129 -116t-189 -62t-236.5 -19.5q-55 0 -106.5 3.5t-113.5 14t-114 27.5t-103.5 46.5t-87.5 68.5t-59 95.5t-25 125.5z" />
<glyph unicode="t" horiz-adv-x="833" d="M-23 881v204h226v336h282v-336h295v-204h-295v-496q0 -43 1.5 -68.5t7 -52.5t16.5 -40.5t30.5 -22t47.5 -8.5q67 0 203 4v-205q-129 -17 -218 -17q-73 0 -129 8t-95 21t-66 36t-42.5 47t-24 61.5t-11 71t-2.5 83.5v578h-226z" />
<glyph unicode="u" horiz-adv-x="1404" d="M115 360v725h282v-618q0 -54 6 -94.5t23.5 -79.5t48 -63t81.5 -39t122 -15q51 0 105 17t106 52t85.5 98.5t33.5 145.5v596h282v-1085h-282v152h-4q-152 -193 -429 -193q-74 0 -137.5 11t-124.5 39t-103.5 72.5t-68.5 115.5t-26 163z" />
<glyph unicode="v" horiz-adv-x="1290" d="M-2 1085h319l324 -806l336 806h319l-495 -1085h-307z" />
<glyph unicode="w" horiz-adv-x="2011" d="M8 1085h307l279 -794h4l260 794h295l260 -794h4l279 794h307l-412 -1085h-319l-264 754h-4l-265 -754h-319z" />
<glyph unicode="x" horiz-adv-x="1327" d="M-16 0l487 559l-453 526h365l279 -352l284 352h365l-457 -526l489 -559h-376l-305 385l-314 -385h-364z" />
<glyph unicode="y" horiz-adv-x="1251" d="M-20 1085h307l348 -776l340 776h301l-592 -1278q-44 -96 -89.5 -141.5t-112 -62.5t-189.5 -17q-66 0 -176 4v217q46 -4 141 -4q62 0 101.5 18t62.5 66l63 131z" />
<glyph unicode="z" horiz-adv-x="1251" d="M45 0v205l731 663h-692v217h1096v-192l-746 -676h772v-217h-1161z" />
<glyph unicode="{" horiz-adv-x="872" d="M121 434v205q66 2 120 60t54 153v350q0 81 38 142.5t89.5 89.5t103.5 28h238v-205h-109q-102 0 -102 -157v-305q0 -56 -15 -101.5t-35.5 -72t-48.5 -45.5t-48 -26t-39 -11v-4q19 -4 39 -11t48 -26t48.5 -45.5t35.5 -72t15 -101.5v-306q0 -157 102 -157h109v-205h-238 q-52 0 -103.5 28t-89.5 89.5t-38 142.5v348q0 96 -54 154.5t-120 60.5z" />
<glyph unicode="|" horiz-adv-x="454" d="M119 -41v1544h217v-1544h-217z" />
<glyph unicode="}" horiz-adv-x="872" d="M109 -184h108q102 0 102 157v306q0 56 15 101.5t36 72t49 45.5t47.5 26t39.5 11v4q-20 4 -39.5 11t-47.5 26t-49 45.5t-36 72t-15 101.5v305q0 157 -102 157h-108v205h237q38 0 78 -17t74.5 -48t57 -82.5t22.5 -112.5v-348q0 -96 54 -154.5t120 -60.5v-205 q-66 -2 -120 -60t-54 -153v-350q0 -61 -22.5 -112.5t-57 -82.5t-74.5 -48t-78 -17h-237v205z" />
<glyph unicode="~" horiz-adv-x="1228" d="M135 510q93 176 256 176q82 0 238 -70q5 -2 22.5 -10.5t23 -11.5t20.5 -10t21.5 -10t20 -8.5t20.5 -7.5t18 -6t18.5 -5.5t16.5 -2.5t17 -1q25 0 49 11t39.5 22.5t36.5 38.5t29 38t27 41l86 -168q-30 -42 -51.5 -67.5t-53.5 -53.5t-69.5 -41.5t-81.5 -13.5q-37 0 -79.5 13 t-63.5 23t-72 36q-46 24 -72 36t-71 24t-87 12q-61 0 -101.5 -42t-70.5 -110z" />
<glyph unicode="&#xa1;" horiz-adv-x="720" d="M201 14l57 643h205l57 -643v-391h-319v391zM201 795v290h319v-290h-319z" />
<glyph unicode="&#xa2;" horiz-adv-x="1515" d="M123 557q0 83 20.5 159t66.5 146t114 123.5t170 89.5t227 45v172h106v-166q61 -3 121 -13.5t136 -39.5t135.5 -73t107.5 -120.5t64 -174.5h-295q-14 80 -88 137.5t-181 66.5v-725q38 3 71 13.5t56.5 22.5t45.5 34.5t34.5 37.5t28.5 44.5t21.5 42.5t19.5 45h289 q-12 -86 -44.5 -156.5t-73.5 -116.5t-96 -81t-102.5 -53.5t-101.5 -30t-85.5 -15t-62.5 -4.5v-213h-106v213q-156 11 -274 64t-187 135t-103 180.5t-34 210.5zM418 549q0 -149 73 -244.5t230 -120.5v719q-153 -22 -228 -122t-75 -232z" />
<glyph unicode="&#xa3;" horiz-adv-x="1515" d="M94 174q211 123 211 303q0 68 -37 152h-170v155h113q-51 105 -51 203q0 88 34.5 164t93 130t136 93t164.5 57.5t176 18.5q105 0 194 -13.5t173 -48.5t142 -89.5t93 -142t35 -200.5h-307q-7 132 -89.5 198.5t-222.5 66.5q-141 0 -228 -69t-87 -179q0 -85 51 -189h412v-155 h-355q13 -63 13 -131q0 -76 -47 -147.5t-115 -110.5v-4q101 43 201 43q66 0 196.5 -29t198.5 -29q151 0 315 96l84 -233q-69 -52 -176.5 -84.5t-222.5 -32.5q-64 0 -246 41t-260 41q-177 0 -301 -82z" />
<glyph unicode="&#xa4;" horiz-adv-x="1228" d="M74 313l116 117q-84 124 -84 279q0 154 84 278l-116 117l145 145l117 -116q130 84 278 84q155 0 279 -84l117 116l145 -145l-117 -117q84 -124 84 -278q0 -149 -84 -279l117 -117l-145 -145l-117 117q-124 -84 -279 -84q-148 0 -278 84l-117 -117zM311 709 q0 -126 88.5 -214.5t214.5 -88.5t215 88.5t89 214.5t-89 214.5t-215 88.5t-214.5 -88.5t-88.5 -214.5z" />
<glyph unicode="&#xa5;" horiz-adv-x="1515" d="M8 1417h365l385 -606l385 606h364l-454 -647h209v-156h-318l-39 -57v-115h357v-155h-357v-287h-295v287h-356v155h356v115l-39 57h-317v156h209z" />
<glyph unicode="&#xa6;" horiz-adv-x="454" d="M119 -41v563h217v-563h-217zM119 940v563h217v-563h-217z" />
<glyph unicode="&#xa7;" horiz-adv-x="1517" d="M80 643q0 105 58.5 185.5t158.5 107.5q-45 38 -69.5 93t-24.5 114q0 78 31.5 140.5t83.5 103t123 67.5t145.5 38t154.5 11q110 0 204 -21.5t173 -66.5t127 -123.5t55 -183.5h-294q-3 49 -22 85t-46 55.5t-67 31t-75 15t-81 3.5q-43 0 -81.5 -7.5t-73 -23.5t-55 -46.5 t-20.5 -71.5q0 -16 4.5 -30.5t16.5 -27.5t20 -22t29.5 -19.5t29 -15t34 -13.5t30 -10.5t29.5 -9.5l471 -153q127 -40 208 -126.5t81 -215.5q0 -107 -53 -178.5t-156 -124.5q56 -43 78 -87t22 -114q0 -69 -20.5 -126t-54 -96.5t-81 -70.5t-97 -49t-106 -29.5t-103.5 -15.5 t-95 -4q-90 0 -165.5 10.5t-150.5 39t-130.5 74t-97 118.5t-58.5 170h295q13 -58 43.5 -100t73.5 -64.5t88.5 -32.5t97.5 -10q266 0 266 147q0 32 -14.5 57.5t-42.5 43.5t-51 28.5t-58 22.5l-477 164q-150 52 -230.5 136t-80.5 228zM338 659q0 -29 15.5 -54.5t35.5 -42.5 t55 -34t57.5 -25.5t61.5 -21t49 -16.5l453 -162q50 37 76 72.5t26 87.5q0 38 -17.5 68.5t-50 52.5t-59.5 34.5t-65 26.5l-522 180q-57 -32 -86 -70t-29 -96z" />
<glyph unicode="&#xa8;" horiz-adv-x="493" d="M-162 1235v229h283v-229h-283zM373 1235v229h282v-229h-282z" />
<glyph unicode="&#xa9;" horiz-adv-x="1638" d="M68 731q0 168 61.5 314t165 245.5t240 156t284.5 56.5t285 -56.5t240 -156t165 -245.5t62 -314t-62 -314t-165 -245.5t-240 -156t-285 -56.5t-284.5 56.5t-240 156t-165 245.5t-61.5 314zM248 731q0 -173 76.5 -312t207 -215.5t287.5 -76.5q116 0 221 45t182.5 123.5 t123 192t45.5 243.5t-45.5 243.5t-123 192t-182.5 123.5t-221 45q-157 0 -287.5 -76.5t-207 -215.5t-76.5 -312zM408 735q0 204 113.5 334.5t307.5 130.5q142 0 242 -84t121 -235h-160q-12 75 -67.5 119t-143.5 44q-122 0 -190 -86t-68 -223q0 -131 72 -220t192 -89 q86 0 140.5 45t64.5 127h166q-26 -152 -126 -240t-236 -88q-192 0 -310 132.5t-118 332.5z" />
<glyph unicode="&#xaa;" horiz-adv-x="937" d="M25 958q0 37 12 67t29.5 50t47.5 35.5t53.5 23.5t61.5 15t58 9t55 5q217 19 253 30q31 10 35 34q1 6 1 14q0 94 -197 94q-183 0 -192 -112h-181q11 66 42 111t81.5 70t110.5 35.5t139 10.5q76 0 136.5 -8t99.5 -20t67 -31.5t42 -36.5t21.5 -42.5t9 -41t1.5 -39.5v-309 q0 -37 43 -37q45 0 59 2v-119q-86 -14 -131 -14q-42 0 -70.5 8.5t-42 25t-18 26t-8.5 24.5q-38 -32 -120.5 -58t-209.5 -26q-138 0 -213 53.5t-75 150.5zM217 965q0 -40 25.5 -64.5t56 -31.5t66.5 -7q42 0 84 8t85 26.5t70 55.5t27 88v62q-44 -18 -89 -25.5t-141 -13.5 q-103 -9 -143.5 -32t-40.5 -66z" />
<glyph unicode="&#xab;" horiz-adv-x="1214" d="M156 446v263l385 288v-241l-242 -178l242 -175v-241zM645 446v263l385 288v-241l-242 -178l242 -175v-241z" />
<glyph unicode="&#xac;" horiz-adv-x="1228" d="M96 643v205h1037v-629h-205v424h-832z" />
<glyph unicode="&#xad;" horiz-adv-x="985" d="M131 457v241h723v-241h-723z" />
<glyph unicode="&#xae;" horiz-adv-x="1638" d="M68 731q0 168 61.5 314t165 245.5t240 156t284.5 56.5t285 -56.5t240 -156t165 -245.5t62 -314t-62 -314t-165 -245.5t-240 -156t-285 -56.5t-284.5 56.5t-240 156t-165 245.5t-61.5 314zM248 731q0 -173 76.5 -312t207 -215.5t287.5 -76.5q116 0 221 45t182.5 123.5 t123 192t45.5 243.5t-45.5 243.5t-123 192t-182.5 123.5t-221 45q-157 0 -287.5 -76.5t-207 -215.5t-76.5 -312zM526 299v838h320q158 0 236.5 -58.5t78.5 -187.5q0 -107 -57.5 -161t-153.5 -64l226 -367h-168l-211 360h-115v-360h-156zM682 778h145q33 0 56.5 2t48.5 9.5 t40 20.5t24.5 36.5t9.5 56.5q0 115 -177 115h-147v-240z" />
<glyph unicode="&#xaf;" horiz-adv-x="493" d="M-201 1292v181h895v-181h-895z" />
<glyph unicode="&#xb0;" horiz-adv-x="819" d="M117 1157q0 123 85 208t208 85t207.5 -85t84.5 -208t-84.5 -208t-207.5 -85t-208 85t-85 208zM244 1157q0 -69 48.5 -117.5t117.5 -48.5t117 48.5t48 117.5t-48 117.5t-117 48.5t-117.5 -48.5t-48.5 -117.5z" />
<glyph unicode="&#xb1;" horiz-adv-x="1228" d="M96 0v180h1037v-180h-1037zM96 557v180h428v299h181v-299h428v-180h-428v-299h-181v299h-428z" />
<glyph unicode="&#xb2;" horiz-adv-x="987" d="M66 586q0 87 34.5 155.5t89.5 111.5t122 77t134 59.5t122 49.5t89.5 56t34.5 72q0 63 -56 95t-122 32q-97 0 -154 -46.5t-65 -125.5h-229q0 109 54.5 184t146 109.5t214.5 34.5q207 0 324 -70.5t117 -199.5q0 -63 -25.5 -113t-68 -82.5t-94.5 -57.5t-109 -44 t-107.5 -36.5t-93.5 -41t-64 -51.5h543v-168h-837z" />
<glyph unicode="&#xb3;" horiz-adv-x="987" d="M55 866h205q6 -77 66.5 -113t146.5 -36q90 0 153.5 34.5t63.5 90.5q0 20 -8 38t-28 37.5t-63 31.5t-104 12h-104v143h119q78 0 119 22.5t41 61.5q0 40 -49 73t-146 33q-85 0 -131 -41t-49 -94h-205q7 80 43 138.5t94.5 90.5t127 47t149.5 15q106 0 183 -20.5t119 -57 t61.5 -79t19.5 -93.5q0 -48 -34.5 -92t-109.5 -64v-4q85 -19 135 -71.5t50 -124.5q0 -33 -7.5 -65t-35.5 -73.5t-73.5 -72t-129.5 -51.5t-195 -21q-64 0 -120.5 8t-113.5 29t-97.5 54t-66 88t-26.5 126z" />
<glyph unicode="&#xb4;" horiz-adv-x="493" d="M76 1235l182 291h348l-287 -291h-243z" />
<glyph unicode="&#xb5;" horiz-adv-x="1404" d="M115 -414v1499h282v-618q0 -54 6 -94.5t23.5 -79.5t48 -63t81.5 -39t122 -15q51 0 105 17t106 52t85.5 98.5t33.5 145.5v596h282v-1085h-282v152h-4q-69 -87 -176 -140t-212 -53q-68 0 -130 24t-89 54v-451h-282z" />
<glyph unicode="&#xb6;" horiz-adv-x="1228" d="M43 1075q0 387 483 387h580v-1851h-205v1671h-211v-1671h-205v1077q-203 1 -322.5 106.5t-119.5 280.5z" />
<glyph unicode="&#xb7;" horiz-adv-x="720" d="M178 596q0 73 54 127.5t128 54.5q72 0 127.5 -54.5t55.5 -127.5q0 -72 -55.5 -127t-127.5 -55q-74 0 -128 55t-54 127z" />
<glyph unicode="&#xb8;" horiz-adv-x="493" d="M-6 -383l31 90q106 -26 147 -26q42 0 76.5 14t34.5 49q0 28 -22 45.5t-54 17.5q-42 0 -92 -16l-37 41l104 168h117l-66 -104q7 1 28.5 3.5t31.5 2.5q28 0 53.5 -3t54.5 -12.5t50 -25t35 -43.5t14 -64q0 -83 -77 -125.5t-190 -42.5q-122 0 -239 31z" />
<glyph unicode="&#xb9;" horiz-adv-x="665" d="M12 1139v155h56q39 0 76.5 6t79 21.5t72 48.5t40.5 80h158v-864h-218v553h-264z" />
<glyph unicode="&#xba;" horiz-adv-x="960" d="M43 1104q0 69 25 129t75.5 109.5t137 78.5t200.5 29t200.5 -29t137 -78.5t75 -109.5t24.5 -129q0 -70 -24.5 -131t-75 -111t-137 -79t-200.5 -29t-200.5 29t-137 79t-75.5 111t-25 131zM248 1104q0 -84 58.5 -145.5t174.5 -61.5t174 61.5t58 145.5q0 82 -58.5 142.5 t-173.5 60.5t-174 -61t-59 -142z" />
<glyph unicode="&#xbb;" horiz-adv-x="1214" d="M184 160v241l242 177l-242 172v241l385 -282v-263zM674 160v241l241 177l-241 172v241l385 -282v-263z" />
<glyph unicode="&#xbc;" horiz-adv-x="2275" d="M12 1139v155h56q39 0 76.5 6t79 21.5t72 48.5t40.5 80h158v-864h-218v553h-264zM506 -33l854 1483h192l-854 -1483h-192zM1300 182v162l506 520h248v-514h148v-168h-148v-182h-217v182h-537zM1503 350h334v334z" />
<glyph unicode="&#xbd;" horiz-adv-x="2275" d="M12 1139v155h56q39 0 76.5 6t79 21.5t72 48.5t40.5 80h158v-864h-218v553h-264zM424 -33l854 1483h192l-854 -1483h-192zM1294 0q0 87 34.5 155.5t90 112t122.5 77.5t133.5 59t122 49.5t90 56.5t34.5 72q0 63 -56 95t-122 32q-97 0 -154 -46.5t-65 -125.5h-230 q0 162 113.5 244.5t302.5 82.5q207 0 323.5 -70.5t116.5 -199.5q0 -63 -25.5 -113t-68 -82.5t-94.5 -57.5t-109 -44t-107 -36.5t-93 -41t-64 -51.5h543v-168h-838z" />
<glyph unicode="&#xbe;" horiz-adv-x="2275" d="M55 866h205q6 -77 66.5 -113t146.5 -36q90 0 153.5 34.5t63.5 90.5q0 20 -8 38t-28 37.5t-63 31.5t-104 12h-104v143h119q78 0 119 22.5t41 61.5q0 40 -49 73t-146 33q-85 0 -131 -41t-49 -94h-205q7 80 43 138.5t94.5 90.5t127 47t149.5 15q106 0 183 -20.5t119 -57 t61.5 -79t19.5 -93.5q0 -48 -34.5 -92t-109.5 -64v-4q85 -19 135 -71.5t50 -124.5q0 -33 -7.5 -65t-35.5 -73.5t-73.5 -72t-129.5 -51.5t-195 -21q-64 0 -120.5 8t-113.5 29t-97.5 54t-66 88t-26.5 126zM629 -33l854 1487h192l-854 -1487h-192zM1300 182v162l506 520h248 v-514h148v-168h-148v-182h-217v182h-537zM1503 350h334v334z" />
<glyph unicode="&#xbf;" horiz-adv-x="1441" d="M137 45q0 73 27 135t69.5 104.5t94.5 79.5t104 69t94.5 64t69.5 73t27 89h282v-32q0 -68 -25.5 -123.5t-66 -94t-90 -72t-98.5 -65t-89.5 -64.5t-66 -79.5t-25.5 -101.5q0 -59 28.5 -102.5t75.5 -66t97 -32.5t105 -10q54 0 104.5 14.5t96.5 45t74.5 87.5t29.5 133h295 q-9 -242 -164.5 -369.5t-446.5 -127.5q-133 0 -239 27t-172.5 70.5t-110.5 103t-62 120t-18 125.5zM604 795v290h320v-290h-320z" />
<glyph unicode="&#xc0;" horiz-adv-x="1630" d="M-18 0l651 1462h364l652 -1462h-342l-154 362h-688l-152 -362h-331zM457 1845h348l182 -291h-244zM557 592h504l-250 616z" />
<glyph unicode="&#xc1;" horiz-adv-x="1630" d="M-18 0l651 1462h364l652 -1462h-342l-154 362h-688l-152 -362h-331zM557 592h504l-250 616zM645 1554l182 291h349l-287 -291h-244z" />
<glyph unicode="&#xc2;" horiz-adv-x="1630" d="M-18 0l651 1462h364l652 -1462h-342l-154 362h-688l-152 -362h-331zM362 1554l283 291h342l283 -291h-283l-172 170l-170 -170h-283zM557 592h504l-250 616z" />
<glyph unicode="&#xc3;" horiz-adv-x="1630" d="M-18 0l651 1462h364l652 -1462h-342l-154 362h-688l-152 -362h-331zM360 1556q50 267 285 267q58 0 195 -45t186 -45q46 0 65 21t33 69h148q-24 -128 -62 -185q-59 -86 -186 -86q-71 0 -224 45t-192 45q-73 0 -98 -86h-150zM557 592h504l-250 616z" />
<glyph unicode="&#xc4;" horiz-adv-x="1630" d="M-18 0l651 1462h364l652 -1462h-342l-154 362h-688l-152 -362h-331zM408 1554v230h282v-230h-282zM557 592h504l-250 616zM942 1554v230h283v-230h-283z" />
<glyph unicode="&#xc5;" horiz-adv-x="1630" d="M-18 0l651 1462h364l652 -1462h-342l-154 362h-688l-152 -362h-331zM557 592h504l-250 616zM569 1755q0 103 72.5 175.5t175.5 72.5t175.5 -72.5t72.5 -175.5t-72.5 -175.5t-175.5 -72.5t-175.5 72.5t-72.5 175.5zM688 1755q0 -54 37.5 -91.5t91.5 -37.5t91.5 37.5 t37.5 91.5t-37.5 91.5t-91.5 37.5t-91.5 -37.5t-37.5 -91.5z" />
<glyph unicode="&#xc6;" horiz-adv-x="2314" d="M-47 0l858 1462h1407v-229h-848v-369h823v-229h-823v-406h862v-229h-1145v381h-575l-227 -381h-332zM631 598h456v635h-98z" />
<glyph unicode="&#xc7;" horiz-adv-x="1781" d="M68 731q0 126 29 238.5t93.5 211t158 169.5t231 112t305.5 41q183 0 331.5 -46t245 -126.5t152.5 -184t69 -224.5h-331q-23 165 -149.5 258.5t-321.5 93.5q-221 0 -357.5 -146.5t-136.5 -422.5q0 -229 143.5 -373t370.5 -144q77 0 142 16.5t111.5 46t82 65t58.5 79 t36.5 83t20.5 81.5h331q-13 -90 -42 -168t-87.5 -156t-140.5 -134.5t-208.5 -94.5t-284.5 -45l-41 -65q8 1 28.5 3.5t30.5 2.5q28 0 53.5 -3t54.5 -12.5t50 -25t35 -43.5t14 -64q0 -83 -76.5 -125.5t-189.5 -42.5q-123 0 -240 31l31 90q106 -26 147 -26q42 0 76.5 14 t34.5 49q0 28 -22 45.5t-54 17.5q-42 0 -92 -16l-37 41l80 129q-146 6 -267.5 49.5t-207 115t-145 167.5t-87.5 206.5t-28 231.5z" />
<glyph unicode="&#xc8;" horiz-adv-x="1517" d="M150 0v1462h1269v-229h-962v-369h923v-229h-923v-406h979v-229h-1286zM399 1845h349l182 -291h-244z" />
<glyph unicode="&#xc9;" horiz-adv-x="1517" d="M150 0v1462h1269v-229h-962v-369h923v-229h-923v-406h979v-229h-1286zM588 1554l182 291h348l-287 -291h-243z" />
<glyph unicode="&#xca;" horiz-adv-x="1517" d="M150 0v1462h1269v-229h-962v-369h923v-229h-923v-406h979v-229h-1286zM305 1554l283 291h342l282 -291h-282l-172 170l-170 -170h-283z" />
<glyph unicode="&#xcb;" horiz-adv-x="1517" d="M150 0v1462h1269v-229h-962v-369h923v-229h-923v-406h979v-229h-1286zM350 1554v230h283v-230h-283zM885 1554v230h282v-230h-282z" />
<glyph unicode="&#xcc;" horiz-adv-x="606" d="M-55 1845h348l182 -291h-244zM150 0v1462h307v-1462h-307z" />
<glyph unicode="&#xcd;" horiz-adv-x="606" d="M133 1554l182 291h349l-287 -291h-244zM150 0v1462h307v-1462h-307z" />
<glyph unicode="&#xce;" horiz-adv-x="606" d="M-150 1554l283 291h342l283 -291h-283l-172 170l-170 -170h-283zM150 0v1462h307v-1462h-307z" />
<glyph unicode="&#xcf;" horiz-adv-x="606" d="M-104 1554v230h282v-230h-282zM150 0v1462h307v-1462h-307zM430 1554v230h283v-230h-283z" />
<glyph unicode="&#xd0;" horiz-adv-x="1744" d="M0 647v217h150v598h825q678 0 678 -745q0 -101 -18 -196t-64.5 -191.5t-117 -168t-184 -116.5t-257.5 -45h-862v647h-150zM457 229h499q39 0 77 7.5t84.5 26.5t85.5 56t72 89.5t52 135t19 185.5q0 101 -19 182.5t-47.5 133t-72 89t-81.5 56t-89.5 29t-81.5 12.5t-70 2 h-428v-369h403v-217h-403v-418z" />
<glyph unicode="&#xd1;" horiz-adv-x="1820" d="M150 0v1462h352l870 -1097h4v1097h295v-1462h-346l-876 1098h-5v-1098h-294zM455 1556q50 267 284 267q58 0 195 -45t186 -45q46 0 66 21t33 69h147q-25 -130 -61 -185q-59 -86 -187 -86q-71 0 -224 45t-192 45q-73 0 -98 -86h-149z" />
<glyph unicode="&#xd2;" horiz-adv-x="1855" d="M68 731q0 127 29.5 239t95.5 210.5t164.5 169.5t244.5 112t326 41t326 -41t244.5 -112t164.5 -169.5t95.5 -210.5t29.5 -239t-29.5 -239t-95.5 -210.5t-164.5 -169.5t-244.5 -112t-326 -41t-326 41t-244.5 112t-164.5 169.5t-95.5 210.5t-29.5 239zM387 731 q0 -246 143.5 -394.5t397.5 -148.5t397 148.5t143 394.5t-143 394.5t-397 148.5t-397.5 -148.5t-143.5 -394.5zM569 1845h349l182 -291h-244z" />
<glyph unicode="&#xd3;" horiz-adv-x="1855" d="M68 731q0 127 29.5 239t95.5 210.5t164.5 169.5t244.5 112t326 41t326 -41t244.5 -112t164.5 -169.5t95.5 -210.5t29.5 -239t-29.5 -239t-95.5 -210.5t-164.5 -169.5t-244.5 -112t-326 -41t-326 41t-244.5 112t-164.5 169.5t-95.5 210.5t-29.5 239zM387 731 q0 -246 143.5 -394.5t397.5 -148.5t397 148.5t143 394.5t-143 394.5t-397 148.5t-397.5 -148.5t-143.5 -394.5zM758 1554l182 291h348l-287 -291h-243z" />
<glyph unicode="&#xd4;" horiz-adv-x="1855" d="M68 731q0 127 29.5 239t95.5 210.5t164.5 169.5t244.5 112t326 41t326 -41t244.5 -112t164.5 -169.5t95.5 -210.5t29.5 -239t-29.5 -239t-95.5 -210.5t-164.5 -169.5t-244.5 -112t-326 -41t-326 41t-244.5 112t-164.5 169.5t-95.5 210.5t-29.5 239zM387 731 q0 -246 143.5 -394.5t397.5 -148.5t397 148.5t143 394.5t-143 394.5t-397 148.5t-397.5 -148.5t-143.5 -394.5zM475 1554l283 291h342l282 -291h-282l-172 170l-170 -170h-283z" />
<glyph unicode="&#xd5;" horiz-adv-x="1855" d="M68 731q0 127 29.5 239t95.5 210.5t164.5 169.5t244.5 112t326 41t326 -41t244.5 -112t164.5 -169.5t95.5 -210.5t29.5 -239t-29.5 -239t-95.5 -210.5t-164.5 -169.5t-244.5 -112t-326 -41t-326 41t-244.5 112t-164.5 169.5t-95.5 210.5t-29.5 239zM387 731 q0 -246 143.5 -394.5t397.5 -148.5t397 148.5t143 394.5t-143 394.5t-397 148.5t-397.5 -148.5t-143.5 -394.5zM473 1556q50 267 285 267q57 0 194 -45t187 -45q46 0 65 21t33 69h147q-25 -130 -61 -185q-59 -86 -186 -86q-71 0 -224 45t-192 45q-73 0 -98 -86h-150z" />
<glyph unicode="&#xd6;" horiz-adv-x="1855" d="M68 731q0 127 29.5 239t95.5 210.5t164.5 169.5t244.5 112t326 41t326 -41t244.5 -112t164.5 -169.5t95.5 -210.5t29.5 -239t-29.5 -239t-95.5 -210.5t-164.5 -169.5t-244.5 -112t-326 -41t-326 41t-244.5 112t-164.5 169.5t-95.5 210.5t-29.5 239zM387 731 q0 -246 143.5 -394.5t397.5 -148.5t397 148.5t143 394.5t-143 394.5t-397 148.5t-397.5 -148.5t-143.5 -394.5zM520 1554v230h283v-230h-283zM1055 1554v230h282v-230h-282z" />
<glyph unicode="&#xd7;" horiz-adv-x="1228" d="M129 188l338 338l-338 340l143 146l342 -340l342 340l144 -146l-338 -340l338 -338l-146 -145l-340 338l-340 -338z" />
<glyph unicode="&#xd8;" horiz-adv-x="1855" d="M63 39l189 168q-184 201 -184 524q0 127 29.5 239t95.5 210.5t164.5 169.5t244.5 112t326 41q368 0 583 -166l199 179l82 -95l-186 -168q182 -199 182 -522q0 -127 -29.5 -239t-95.5 -210.5t-164.5 -169.5t-244.5 -112t-326 -41q-364 0 -584 164l-201 -180zM387 731 q0 -189 88 -323l825 741q-141 125 -372 125q-254 0 -397.5 -148.5t-143.5 -394.5zM557 313q137 -125 371 -125q254 0 397 148.5t143 394.5q0 189 -86 322z" />
<glyph unicode="&#xd9;" horiz-adv-x="1705" d="M137 629v833h307v-825q0 -38 0.5 -62.5t3.5 -62t9 -62.5t15.5 -58t25.5 -56t37.5 -48t52.5 -41.5t68.5 -31t87 -21t108.5 -6.5q65 0 119.5 9t94 23.5t71 39.5t51.5 48t34.5 58.5t22 63.5t11.5 69t5 68.5t1 69.5v825h307v-833q0 -70 -2 -114.5t-16.5 -122.5t-40.5 -129.5 t-78.5 -114.5t-126.5 -100t-190 -63t-263 -26q-146 0 -261.5 26t-189.5 63t-127 100t-78.5 114.5t-40 129.5t-16.5 122.5t-2 114.5zM494 1845h348l182 -291h-244z" />
<glyph unicode="&#xda;" horiz-adv-x="1705" d="M137 629v833h307v-825q0 -38 0.5 -62.5t3.5 -62t9 -62.5t15.5 -58t25.5 -56t37.5 -48t52.5 -41.5t68.5 -31t87 -21t108.5 -6.5q65 0 119.5 9t94 23.5t71 39.5t51.5 48t34.5 58.5t22 63.5t11.5 69t5 68.5t1 69.5v825h307v-833q0 -70 -2 -114.5t-16.5 -122.5t-40.5 -129.5 t-78.5 -114.5t-126.5 -100t-190 -63t-263 -26q-146 0 -261.5 26t-189.5 63t-127 100t-78.5 114.5t-40 129.5t-16.5 122.5t-2 114.5zM682 1554l182 291h348l-286 -291h-244z" />
<glyph unicode="&#xdb;" horiz-adv-x="1705" d="M137 629v833h307v-825q0 -38 0.5 -62.5t3.5 -62t9 -62.5t15.5 -58t25.5 -56t37.5 -48t52.5 -41.5t68.5 -31t87 -21t108.5 -6.5q65 0 119.5 9t94 23.5t71 39.5t51.5 48t34.5 58.5t22 63.5t11.5 69t5 68.5t1 69.5v825h307v-833q0 -70 -2 -114.5t-16.5 -122.5t-40.5 -129.5 t-78.5 -114.5t-126.5 -100t-190 -63t-263 -26q-146 0 -261.5 26t-189.5 63t-127 100t-78.5 114.5t-40 129.5t-16.5 122.5t-2 114.5zM399 1554l283 291h342l283 -291h-283l-172 170l-170 -170h-283z" />
<glyph unicode="&#xdc;" horiz-adv-x="1705" d="M137 629v833h307v-825q0 -38 0.5 -62.5t3.5 -62t9 -62.5t15.5 -58t25.5 -56t37.5 -48t52.5 -41.5t68.5 -31t87 -21t108.5 -6.5q65 0 119.5 9t94 23.5t71 39.5t51.5 48t34.5 58.5t22 63.5t11.5 69t5 68.5t1 69.5v825h307v-833q0 -70 -2 -114.5t-16.5 -122.5t-40.5 -129.5 t-78.5 -114.5t-126.5 -100t-190 -63t-263 -26q-146 0 -261.5 26t-189.5 63t-127 100t-78.5 114.5t-40 129.5t-16.5 122.5t-2 114.5zM444 1554v230h283v-230h-283zM979 1554v230h283v-230h-283z" />
<glyph unicode="&#xdd;" horiz-adv-x="1556" d="M-14 1462h374l418 -651l418 651h375l-639 -905v-557h-307v557zM608 1554l183 291h348l-287 -291h-244z" />
<glyph unicode="&#xde;" horiz-adv-x="1593" d="M150 0v1462h307v-264h594q104 0 186.5 -25t136 -67t88.5 -101t49.5 -123.5t14.5 -138.5q0 -87 -28 -165t-83 -143t-148 -103.5t-212 -38.5h-598v-293h-307zM457 522h493q138 0 203.5 48t65.5 173q0 65 -21 111t-58 70t-78 34.5t-89 10.5h-516v-447z" />
<glyph unicode="&#xdf;" horiz-adv-x="1441" d="M115 0v1077q0 92 31.5 165t85.5 121t129.5 80t159.5 46t179 14q79 0 152.5 -9.5t152.5 -36t136.5 -68.5t95 -114t37.5 -165q0 -40 -9.5 -77.5t-31 -77.5t-63.5 -72.5t-101 -51.5v-4q118 -21 199.5 -115t81.5 -255q0 -232 -154.5 -357t-429.5 -125q-26 0 -93 7.5t-95 17.5 v205q66 -12 147 -12q330 0 330 264q0 60 -20 105.5t-52 72.5t-77 43.5t-89 22.5t-94 6h-125v192h123q71 0 126 16.5t93.5 61t38.5 113.5q0 99 -74.5 147.5t-197.5 48.5q-82 0 -140 -16.5t-90.5 -42t-51 -68.5t-23.5 -83t-5 -97v-979h-282z" />
<glyph unicode="&#xe0;" horiz-adv-x="1441" d="M68 299q0 49 11.5 90t28.5 71.5t47 56.5t56 42.5t67.5 30.5t69.5 21.5t73.5 14.5t68.5 9t65 6q109 11 175 18t121 16.5t81.5 17t44.5 21t22.5 27.5t4.5 37q0 156 -308 156q-282 0 -297 -180h-276q15 105 60.5 178t121.5 115t170.5 60.5t220.5 18.5q117 0 210.5 -13.5 t153.5 -33.5t103.5 -52.5t65.5 -61.5t34 -70t14.5 -68t2.5 -65v-514q0 -62 61 -62q53 0 93 7v-199q-9 -2 -39.5 -8t-47 -8.5t-48.5 -5.5t-66 -3q-52 0 -92 11.5t-60.5 25.5t-35 36.5t-18 35.5t-7.5 31q-156 -150 -510 -150q-211 0 -326.5 89.5t-115.5 250.5zM362 309 q0 -51 21.5 -86.5t57.5 -52.5t72 -24t77 -7q50 0 101 7.5t107.5 28.5t99.5 52.5t71 85.5t28 123v105q-57 -24 -127.5 -36t-242.5 -32q-154 -18 -209.5 -55t-55.5 -109zM362 1526h349l182 -291h-244z" />
<glyph unicode="&#xe1;" horiz-adv-x="1441" d="M68 299q0 49 11.5 90t28.5 71.5t47 56.5t56 42.5t67.5 30.5t69.5 21.5t73.5 14.5t68.5 9t65 6q109 11 175 18t121 16.5t81.5 17t44.5 21t22.5 27.5t4.5 37q0 156 -308 156q-282 0 -297 -180h-276q15 105 60.5 178t121.5 115t170.5 60.5t220.5 18.5q117 0 210.5 -13.5 t153.5 -33.5t103.5 -52.5t65.5 -61.5t34 -70t14.5 -68t2.5 -65v-514q0 -62 61 -62q53 0 93 7v-199q-9 -2 -39.5 -8t-47 -8.5t-48.5 -5.5t-66 -3q-52 0 -92 11.5t-60.5 25.5t-35 36.5t-18 35.5t-7.5 31q-156 -150 -510 -150q-211 0 -326.5 89.5t-115.5 250.5zM362 309 q0 -51 21.5 -86.5t57.5 -52.5t72 -24t77 -7q50 0 101 7.5t107.5 28.5t99.5 52.5t71 85.5t28 123v105q-57 -24 -127.5 -36t-242.5 -32q-154 -18 -209.5 -55t-55.5 -109zM551 1235l182 291h348l-286 -291h-244z" />
<glyph unicode="&#xe2;" horiz-adv-x="1441" d="M68 299q0 49 11.5 90t28.5 71.5t47 56.5t56 42.5t67.5 30.5t69.5 21.5t73.5 14.5t68.5 9t65 6q109 11 175 18t121 16.5t81.5 17t44.5 21t22.5 27.5t4.5 37q0 156 -308 156q-282 0 -297 -180h-276q15 105 60.5 178t121.5 115t170.5 60.5t220.5 18.5q117 0 210.5 -13.5 t153.5 -33.5t103.5 -52.5t65.5 -61.5t34 -70t14.5 -68t2.5 -65v-514q0 -62 61 -62q53 0 93 7v-199q-9 -2 -39.5 -8t-47 -8.5t-48.5 -5.5t-66 -3q-52 0 -92 11.5t-60.5 25.5t-35 36.5t-18 35.5t-7.5 31q-156 -150 -510 -150q-211 0 -326.5 89.5t-115.5 250.5zM268 1235 l283 291h342l283 -291h-283l-172 170l-170 -170h-283zM362 309q0 -51 21.5 -86.5t57.5 -52.5t72 -24t77 -7q50 0 101 7.5t107.5 28.5t99.5 52.5t71 85.5t28 123v105q-57 -24 -127.5 -36t-242.5 -32q-154 -18 -209.5 -55t-55.5 -109z" />
<glyph unicode="&#xe3;" horiz-adv-x="1441" d="M68 299q0 49 11.5 90t28.5 71.5t47 56.5t56 42.5t67.5 30.5t69.5 21.5t73.5 14.5t68.5 9t65 6q109 11 175 18t121 16.5t81.5 17t44.5 21t22.5 27.5t4.5 37q0 156 -308 156q-282 0 -297 -180h-276q15 105 60.5 178t121.5 115t170.5 60.5t220.5 18.5q117 0 210.5 -13.5 t153.5 -33.5t103.5 -52.5t65.5 -61.5t34 -70t14.5 -68t2.5 -65v-514q0 -62 61 -62q53 0 93 7v-199q-9 -2 -39.5 -8t-47 -8.5t-48.5 -5.5t-66 -3q-52 0 -92 11.5t-60.5 25.5t-35 36.5t-18 35.5t-7.5 31q-156 -150 -510 -150q-211 0 -326.5 89.5t-115.5 250.5zM266 1237 q50 266 285 266q57 0 194 -45t187 -45q46 0 65 21t33 69h148q-24 -127 -62 -184q-59 -86 -186 -86q-71 0 -224 45t-192 45q-73 0 -98 -86h-150zM362 309q0 -51 21.5 -86.5t57.5 -52.5t72 -24t77 -7q50 0 101 7.5t107.5 28.5t99.5 52.5t71 85.5t28 123v105 q-57 -24 -127.5 -36t-242.5 -32q-154 -18 -209.5 -55t-55.5 -109z" />
<glyph unicode="&#xe4;" horiz-adv-x="1441" d="M68 299q0 49 11.5 90t28.5 71.5t47 56.5t56 42.5t67.5 30.5t69.5 21.5t73.5 14.5t68.5 9t65 6q109 11 175 18t121 16.5t81.5 17t44.5 21t22.5 27.5t4.5 37q0 156 -308 156q-282 0 -297 -180h-276q15 105 60.5 178t121.5 115t170.5 60.5t220.5 18.5q117 0 210.5 -13.5 t153.5 -33.5t103.5 -52.5t65.5 -61.5t34 -70t14.5 -68t2.5 -65v-514q0 -62 61 -62q53 0 93 7v-199q-9 -2 -39.5 -8t-47 -8.5t-48.5 -5.5t-66 -3q-52 0 -92 11.5t-60.5 25.5t-35 36.5t-18 35.5t-7.5 31q-156 -150 -510 -150q-211 0 -326.5 89.5t-115.5 250.5zM313 1235v229 h283v-229h-283zM362 309q0 -51 21.5 -86.5t57.5 -52.5t72 -24t77 -7q50 0 101 7.5t107.5 28.5t99.5 52.5t71 85.5t28 123v105q-57 -24 -127.5 -36t-242.5 -32q-154 -18 -209.5 -55t-55.5 -109zM848 1235v229h282v-229h-282z" />
<glyph unicode="&#xe5;" horiz-adv-x="1441" d="M68 299q0 49 11.5 90t28.5 71.5t47 56.5t56 42.5t67.5 30.5t69.5 21.5t73.5 14.5t68.5 9t65 6q109 11 175 18t121 16.5t81.5 17t44.5 21t22.5 27.5t4.5 37q0 156 -308 156q-282 0 -297 -180h-276q15 105 60.5 178t121.5 115t170.5 60.5t220.5 18.5q117 0 210.5 -13.5 t153.5 -33.5t103.5 -52.5t65.5 -61.5t34 -70t14.5 -68t2.5 -65v-514q0 -62 61 -62q53 0 93 7v-199q-9 -2 -39.5 -8t-47 -8.5t-48.5 -5.5t-66 -3q-52 0 -92 11.5t-60.5 25.5t-35 36.5t-18 35.5t-7.5 31q-156 -150 -510 -150q-211 0 -326.5 89.5t-115.5 250.5zM362 309 q0 -51 21.5 -86.5t57.5 -52.5t72 -24t77 -7q50 0 101 7.5t107.5 28.5t99.5 52.5t71 85.5t28 123v105q-57 -24 -127.5 -36t-242.5 -32q-154 -18 -209.5 -55t-55.5 -109zM475 1436q0 103 72.5 175t175.5 72t175.5 -72t72.5 -175t-72.5 -175.5t-175.5 -72.5t-175.5 72.5 t-72.5 175.5zM594 1436q0 -54 37.5 -91.5t91.5 -37.5t91.5 37.5t37.5 91.5t-37.5 91.5t-91.5 37.5t-91.5 -37.5t-37.5 -91.5z" />
<glyph unicode="&#xe6;" horiz-adv-x="2275" d="M68 309q0 65 19 116t58.5 85.5t86.5 58.5t116.5 38.5t133.5 22t151 13.5q228 14 279 28q54 14 65 50q6 18 6 53q0 160 -274 160q-60 0 -104.5 -5.5t-96 -22t-82.5 -55t-37 -97.5h-270q5 83 39.5 148.5t87.5 107t125 68t146.5 37.5t158.5 11q69 0 122.5 -4t126.5 -17.5 t133 -46t101 -83.5q148 151 430 151q278 0 442 -162.5t164 -453.5v-39h-966q0 -84 25.5 -147t72.5 -100t108 -54.5t136 -17.5q64 0 116.5 13t83 28t60 44t38.5 41.5t27 40.5h283q-10 -24 -13 -31t-21 -41t-32.5 -52t-45 -53t-61 -56t-78 -48t-99 -42t-120.5 -26t-146 -11 q-312 0 -469 213q-29 -31 -53.5 -53t-76 -55t-107 -53.5t-142.5 -36t-187 -15.5q-45 0 -89.5 5t-99.5 17.5t-101 38.5t-85.5 62.5t-62 95t-22.5 131.5zM350 301q0 -45 24 -76.5t63 -46t75.5 -20.5t75.5 -6q84 0 153.5 17t126 52.5t88 97.5t31.5 146v51q-33 -10 -86.5 -19.5 t-94 -14t-139.5 -15t-147 -16.5q-91 -10 -130.5 -47.5t-39.5 -102.5zM1229 651h684q-11 121 -101.5 202t-234.5 81q-142 0 -238 -69.5t-110 -213.5z" />
<glyph unicode="&#xe7;" horiz-adv-x="1402" d="M68 543q0 265 179.5 424t491.5 159q40 0 82 -4t97.5 -15.5t106 -30.5t102.5 -51.5t93 -75t72 -105.5t43 -139h-295q-15 87 -98.5 145.5t-202.5 58.5q-95 0 -169 -30.5t-118.5 -82.5t-67 -116t-22.5 -137t20.5 -137t61 -116.5t109 -83t156.5 -30.5q80 0 136 14.5 t93.5 48.5t60.5 73.5t48 103.5h294q-11 -73 -36 -134.5t-57.5 -105t-75.5 -79t-83.5 -57.5t-89 -38.5t-85 -24.5t-77 -12.5t-59.5 -5t-39 -0.5h-10l-41 -63q7 1 28.5 3.5t31.5 2.5q36 0 67.5 -5.5t65 -20t53.5 -46t20 -76.5q0 -83 -76.5 -125.5t-189.5 -42.5q-122 0 -239 31 l30 90q106 -26 148 -26t76 14t34 49q0 28 -21.5 45.5t-53.5 17.5q-43 0 -93 -16l-37 41l84 135q-143 16 -251.5 69.5t-171.5 133.5t-94 173.5t-31 199.5z" />
<glyph unicode="&#xe8;" d="M80 532q0 269 181 431.5t472 162.5q140 0 253.5 -33.5t189 -91t127 -136.5t74 -167t22.5 -186v-41h-1024q2 -40 13 -79t38.5 -81t67 -74t104 -52.5t145.5 -20.5q130 0 204 40t120 115h307q-181 -360 -622 -360q-142 0 -257 32t-191 86t-127.5 128.5t-74 155.5t-22.5 171z M375 651h729q-12 77 -51.5 135t-94 88.5t-110 45t-111.5 14.5q-42 0 -83.5 -8t-86.5 -28.5t-82 -51.5t-66.5 -81t-43.5 -114zM381 1526h348l182 -291h-243z" />
<glyph unicode="&#xe9;" d="M80 532q0 269 181 431.5t472 162.5q140 0 253.5 -33.5t189 -91t127 -136.5t74 -167t22.5 -186v-41h-1024q2 -40 13 -79t38.5 -81t67 -74t104 -52.5t145.5 -20.5q130 0 204 40t120 115h307q-181 -360 -622 -360q-142 0 -257 32t-191 86t-127.5 128.5t-74 155.5t-22.5 171z M375 651h729q-12 77 -51.5 135t-94 88.5t-110 45t-111.5 14.5q-42 0 -83.5 -8t-86.5 -28.5t-82 -51.5t-66.5 -81t-43.5 -114zM569 1235l183 291h348l-287 -291h-244z" />
<glyph unicode="&#xea;" d="M80 532q0 269 181 431.5t472 162.5q140 0 253.5 -33.5t189 -91t127 -136.5t74 -167t22.5 -186v-41h-1024q2 -40 13 -79t38.5 -81t67 -74t104 -52.5t145.5 -20.5q130 0 204 40t120 115h307q-181 -360 -622 -360q-142 0 -257 32t-191 86t-127.5 128.5t-74 155.5t-22.5 171z M287 1235l282 291h342l283 -291h-283l-172 170l-170 -170h-282zM375 651h729q-12 77 -51.5 135t-94 88.5t-110 45t-111.5 14.5q-42 0 -83.5 -8t-86.5 -28.5t-82 -51.5t-66.5 -81t-43.5 -114z" />
<glyph unicode="&#xeb;" d="M80 532q0 269 181 431.5t472 162.5q140 0 253.5 -33.5t189 -91t127 -136.5t74 -167t22.5 -186v-41h-1024q2 -40 13 -79t38.5 -81t67 -74t104 -52.5t145.5 -20.5q130 0 204 40t120 115h307q-181 -360 -622 -360q-142 0 -257 32t-191 86t-127.5 128.5t-74 155.5t-22.5 171z M332 1235v229h282v-229h-282zM375 651h729q-12 77 -51.5 135t-94 88.5t-110 45t-111.5 14.5q-42 0 -83.5 -8t-86.5 -28.5t-82 -51.5t-66.5 -81t-43.5 -114zM866 1235v229h283v-229h-283z" />
<glyph unicode="&#xec;" horiz-adv-x="528" d="M-94 1526h348l182 -291h-243zM123 0v1085h283v-1085h-283z" />
<glyph unicode="&#xed;" horiz-adv-x="528" d="M94 1235l182 291h349l-287 -291h-244zM123 0v1085h283v-1085h-283z" />
<glyph unicode="&#xee;" horiz-adv-x="528" d="M-188 1235l282 291h342l283 -291h-283l-172 170l-170 -170h-282zM123 0v1085h283v-1085h-283z" />
<glyph unicode="&#xef;" horiz-adv-x="528" d="M-143 1235v229h282v-229h-282zM123 0v1085h283v-1085h-283zM391 1235v229h283v-229h-283z" />
<glyph unicode="&#xf0;" d="M68 522q0 86 22 166t70.5 152.5t118 126.5t171.5 86t224 32q103 0 174.5 -16.5t128.5 -60.5l4 4q-104 135 -319 258l-271 -125l-96 88l229 104q-90 46 -205 84l152 144q154 -37 305 -111l242 111l96 -88l-211 -97q83 -48 151 -99.5t137 -125.5t115.5 -157.5t75.5 -196.5 t29 -240q0 -94 -23 -180t-74.5 -163.5t-128 -134.5t-191 -90.5t-255.5 -33.5t-255.5 32t-190.5 85.5t-128 127t-74.5 153t-22.5 165.5zM362 535q0 -70 21 -132.5t64 -114t118 -82t174 -30.5t174 30.5t118 82t64 114t21 132.5t-21 132t-64 114t-118 82t-174 30t-174 -30 t-118 -82t-64 -114t-21 -132z" />
<glyph unicode="&#xf1;" horiz-adv-x="1404" d="M115 0v1085h282v-163h4q151 192 428 192q93 0 171 -18.5t145.5 -59.5t106 -117.5t38.5 -181.5v-737h-282v647q0 39 -6 71.5t-23.5 67t-46.5 58t-79.5 38.5t-117.5 15q-46 0 -91.5 -10t-90.5 -34t-79.5 -59t-55.5 -89t-21 -121v-584h-282zM248 1237q50 266 284 266 q58 0 195 -45t186 -45q46 0 66 21t33 69h147q-25 -129 -61 -184q-59 -86 -187 -86q-71 0 -223.5 45t-191.5 45q-74 0 -99 -86h-149z" />
<glyph unicode="&#xf2;" d="M68 543q0 117 37.5 218t115 184.5t210.5 132t308 48.5q141 0 255.5 -32t191 -87t128 -130t74.5 -158.5t23 -175.5t-23 -175.5t-74.5 -159t-128 -130.5t-191 -87t-255.5 -32t-255.5 32t-190.5 87t-128 130.5t-74.5 159t-22.5 175.5zM362 543q0 -73 21 -137t64 -116.5 t118 -83t174 -30.5t174 30.5t118 83t64 116.5t21 137t-21 137t-64 116t-118 82.5t-174 30.5t-174 -30.5t-118 -82.5t-64 -116t-21 -137zM381 1526h348l182 -291h-243z" />
<glyph unicode="&#xf3;" d="M68 543q0 117 37.5 218t115 184.5t210.5 132t308 48.5q141 0 255.5 -32t191 -87t128 -130t74.5 -158.5t23 -175.5t-23 -175.5t-74.5 -159t-128 -130.5t-191 -87t-255.5 -32t-255.5 32t-190.5 87t-128 130.5t-74.5 159t-22.5 175.5zM362 543q0 -73 21 -137t64 -116.5 t118 -83t174 -30.5t174 30.5t118 83t64 116.5t21 137t-21 137t-64 116t-118 82.5t-174 30.5t-174 -30.5t-118 -82.5t-64 -116t-21 -137zM569 1235l183 291h348l-287 -291h-244z" />
<glyph unicode="&#xf4;" d="M68 543q0 117 37.5 218t115 184.5t210.5 132t308 48.5q141 0 255.5 -32t191 -87t128 -130t74.5 -158.5t23 -175.5t-23 -175.5t-74.5 -159t-128 -130.5t-191 -87t-255.5 -32t-255.5 32t-190.5 87t-128 130.5t-74.5 159t-22.5 175.5zM287 1235l282 291h342l283 -291h-283 l-172 170l-170 -170h-282zM362 543q0 -73 21 -137t64 -116.5t118 -83t174 -30.5t174 30.5t118 83t64 116.5t21 137t-21 137t-64 116t-118 82.5t-174 30.5t-174 -30.5t-118 -82.5t-64 -116t-21 -137z" />
<glyph unicode="&#xf5;" d="M68 543q0 117 37.5 218t115 184.5t210.5 132t308 48.5q141 0 255.5 -32t191 -87t128 -130t74.5 -158.5t23 -175.5t-23 -175.5t-74.5 -159t-128 -130.5t-191 -87t-255.5 -32t-255.5 32t-190.5 87t-128 130.5t-74.5 159t-22.5 175.5zM285 1237q50 266 284 266q58 0 195 -45 t186 -45q46 0 66 21t33 69h147q-25 -129 -61 -184q-59 -86 -187 -86q-71 0 -224 45t-192 45q-73 0 -98 -86h-149zM362 543q0 -73 21 -137t64 -116.5t118 -83t174 -30.5t174 30.5t118 83t64 116.5t21 137t-21 137t-64 116t-118 82.5t-174 30.5t-174 -30.5t-118 -82.5 t-64 -116t-21 -137z" />
<glyph unicode="&#xf6;" d="M68 543q0 117 37.5 218t115 184.5t210.5 132t308 48.5q141 0 255.5 -32t191 -87t128 -130t74.5 -158.5t23 -175.5t-23 -175.5t-74.5 -159t-128 -130.5t-191 -87t-255.5 -32t-255.5 32t-190.5 87t-128 130.5t-74.5 159t-22.5 175.5zM332 1235v229h282v-229h-282zM362 543 q0 -73 21 -137t64 -116.5t118 -83t174 -30.5t174 30.5t118 83t64 116.5t21 137t-21 137t-64 116t-118 82.5t-174 30.5t-174 -30.5t-118 -82.5t-64 -116t-21 -137zM866 1235v229h283v-229h-283z" />
<glyph unicode="&#xf7;" horiz-adv-x="1228" d="M96 416v205h1037v-205h-1037zM442 96q0 70 51 121t121 51t121 -51t51 -121t-51 -121t-121 -51t-121 51t-51 121zM442 940q0 70 51 121t121 51t121 -51t51 -121t-51 -121t-121 -51t-121 51t-51 121z" />
<glyph unicode="&#xf8;" d="M61 16l152 134q-145 155 -145 393q0 117 37.5 218t115 184.5t210.5 132t308 48.5q286 0 453 -125l158 140l67 -78l-149 -129q143 -152 143 -391q0 -92 -23 -175.5t-74.5 -159t-128 -130.5t-191 -87t-255.5 -32q-280 0 -448 123l-164 -143zM362 543q0 -124 58 -213 l573 499q-93 80 -254 80q-99 0 -174 -30.5t-118 -82.5t-64 -116t-21 -137zM487 254q94 -78 252 -78q99 0 174 30.5t118 83t64 116.5t21 137q0 125 -55 211z" />
<glyph unicode="&#xf9;" horiz-adv-x="1404" d="M115 360v725h282v-618q0 -54 6 -94.5t23.5 -79.5t48 -63t81.5 -39t122 -15q51 0 105 17t106 52t85.5 98.5t33.5 145.5v596h282v-1085h-282v152h-4q-152 -193 -429 -193q-74 0 -137.5 11t-124.5 39t-103.5 72.5t-68.5 115.5t-26 163zM344 1526h348l182 -291h-243z" />
<glyph unicode="&#xfa;" horiz-adv-x="1404" d="M115 360v725h282v-618q0 -54 6 -94.5t23.5 -79.5t48 -63t81.5 -39t122 -15q51 0 105 17t106 52t85.5 98.5t33.5 145.5v596h282v-1085h-282v152h-4q-152 -193 -429 -193q-74 0 -137.5 11t-124.5 39t-103.5 72.5t-68.5 115.5t-26 163zM532 1235l183 291h348l-287 -291h-244 z" />
<glyph unicode="&#xfb;" horiz-adv-x="1404" d="M115 360v725h282v-618q0 -54 6 -94.5t23.5 -79.5t48 -63t81.5 -39t122 -15q51 0 105 17t106 52t85.5 98.5t33.5 145.5v596h282v-1085h-282v152h-4q-152 -193 -429 -193q-74 0 -137.5 11t-124.5 39t-103.5 72.5t-68.5 115.5t-26 163zM250 1235l282 291h342l283 -291h-283 l-172 170l-170 -170h-282z" />
<glyph unicode="&#xfc;" horiz-adv-x="1404" d="M115 360v725h282v-618q0 -54 6 -94.5t23.5 -79.5t48 -63t81.5 -39t122 -15q51 0 105 17t106 52t85.5 98.5t33.5 145.5v596h282v-1085h-282v152h-4q-152 -193 -429 -193q-74 0 -137.5 11t-124.5 39t-103.5 72.5t-68.5 115.5t-26 163zM295 1235v229h283v-229h-283z M829 1235v229h283v-229h-283z" />
<glyph unicode="&#xfd;" horiz-adv-x="1251" d="M-20 1085h307l348 -776l340 776h301l-592 -1278q-44 -96 -89.5 -141.5t-112 -62.5t-189.5 -17q-66 0 -176 4v217q46 -4 141 -4q62 0 101.5 18t62.5 66l63 131zM455 1235l182 291h348l-287 -291h-243z" />
<glyph unicode="&#xfe;" d="M115 -414v1901h282v-557h4q57 89 183 136.5t233 47.5q120 0 220 -33.5t168 -90t115.5 -131t69 -155.5t21.5 -165q0 -86 -21.5 -167.5t-69 -157t-115.5 -132t-168 -90t-220 -33.5q-153 0 -275.5 66t-140.5 125h-4v-564h-282zM385 539q0 -72 20.5 -135t62.5 -115 t114.5 -82.5t167.5 -30.5q96 0 169 30.5t114.5 82.5t62 115t20.5 135q0 70 -20.5 132t-62 114t-114.5 82t-169 30q-95 0 -167.5 -30t-114.5 -82t-62.5 -114t-20.5 -132z" />
<glyph unicode="&#xff;" horiz-adv-x="1251" d="M-20 1085h307l348 -776l340 776h301l-592 -1278q-44 -96 -89.5 -141.5t-112 -62.5t-189.5 -17q-66 0 -176 4v217q46 -4 141 -4q62 0 101.5 18t62.5 66l63 131zM217 1235v229h283v-229h-283zM752 1235v229h282v-229h-282z" />
<glyph unicode="&#x152;" horiz-adv-x="2390" d="M68 735q0 120 26.5 231t82.5 209t136 171t193.5 115t247.5 42q166 0 276 -52.5t156 -121.5h4v133h1083v-229h-809v-369h783v-229h-783v-406h824v-229h-1098v141h-4q-56 -76 -176.5 -129t-266.5 -53q-102 0 -197.5 27t-183 87.5t-152.5 149t-103.5 220t-38.5 292.5z M387 723q0 -81 13.5 -155t45.5 -144.5t80 -122t122.5 -82.5t166.5 -31q84 0 157.5 32t117 77.5t68 90.5t24.5 77v577q0 12 -13 37.5t-43 59t-70.5 63.5t-102.5 51t-132 21q-198 0 -316 -146t-118 -405z" />
<glyph unicode="&#x153;" horiz-adv-x="2314" d="M68 547q0 89 21 171t69 157.5t118.5 130.5t176 87.5t235.5 32.5q336 0 481 -196q162 196 459 196q278 0 442 -162.5t164 -453.5v-39h-948q2 -65 23.5 -121t61.5 -101t104.5 -71t146.5 -26q221 0 307 167h283q-10 -35 -29.5 -73t-66 -92t-108 -95t-163.5 -70.5t-225 -29.5 q-162 0 -278 55t-181 144q-164 -199 -479 -199q-182 0 -318.5 65t-216 199t-79.5 324zM350 555q0 -87 20.5 -156t54 -112t79.5 -71.5t93.5 -40t98.5 -11.5q83 0 148 25t104 64t64.5 91t35 99.5t9.5 95.5q0 56 -11 108.5t-38 103t-67 88t-102.5 60.5t-140.5 23 q-47 0 -93.5 -11.5t-93.5 -39t-82 -68t-57 -104.5t-22 -144zM1286 651h666q-11 121 -101.5 202t-234.5 81q-277 0 -330 -283z" />
<glyph unicode="&#x178;" horiz-adv-x="1556" d="M-14 1462h374l418 -651l418 651h375l-639 -905v-557h-307v557zM371 1554v230h282v-230h-282zM905 1554v230h283v-230h-283z" />
<glyph unicode="&#x2c6;" horiz-adv-x="493" d="M-207 1235l283 291h342l282 -291h-282l-172 170l-170 -170h-283z" />
<glyph unicode="&#x2dc;" horiz-adv-x="493" d="M-209 1237q50 266 285 266q57 0 194 -45t187 -45q46 0 65 21t33 69h147q-25 -129 -61 -184q-59 -86 -186 -86q-71 0 -224 45t-192 45q-73 0 -98 -86h-150z" />
<glyph unicode="&#x2000;" horiz-adv-x="1001" />
<glyph unicode="&#x2001;" horiz-adv-x="2003" />
<glyph unicode="&#x2002;" horiz-adv-x="1001" />
<glyph unicode="&#x2003;" horiz-adv-x="2003" />
<glyph unicode="&#x2004;" horiz-adv-x="667" />
<glyph unicode="&#x2005;" horiz-adv-x="500" />
<glyph unicode="&#x2006;" horiz-adv-x="333" />
<glyph unicode="&#x2007;" horiz-adv-x="333" />
<glyph unicode="&#x2008;" horiz-adv-x="250" />
<glyph unicode="&#x2009;" horiz-adv-x="400" />
<glyph unicode="&#x200a;" horiz-adv-x="111" />
<glyph unicode="&#x2010;" horiz-adv-x="985" d="M131 457v241h723v-241h-723z" />
<glyph unicode="&#x2011;" horiz-adv-x="985" d="M131 457v241h723v-241h-723z" />
<glyph unicode="&#x2012;" horiz-adv-x="985" d="M131 457v241h723v-241h-723z" />
<glyph unicode="&#x2013;" horiz-adv-x="1024" d="M0 457v241h1024v-241h-1024z" />
<glyph unicode="&#x2014;" horiz-adv-x="2048" d="M0 457v241h2048v-241h-2048z" />
<glyph unicode="&#x2018;" horiz-adv-x="720" d="M201 829v222q0 171 77 280t242 131v-121q-89 -29 -117 -74.5t-34 -146.5h151v-291h-319z" />
<glyph unicode="&#x2019;" horiz-adv-x="720" d="M201 829v121q89 29 117 74.5t34 146.5h-151v291h319v-221q0 -172 -77 -281t-242 -131z" />
<glyph unicode="&#x201a;" horiz-adv-x="720" d="M201 0v291h319v-221q0 -172 -77 -281t-242 -131v121q89 29 117 74.5t34 146.5h-151z" />
<glyph unicode="&#x201c;" horiz-adv-x="1097" d="M139 829v222q0 171 77.5 280t242.5 131v-121q-89 -29 -117.5 -74.5t-34.5 -146.5h152v-291h-320zM639 829v222q0 171 77 280t242 131v-121q-89 -29 -117 -74.5t-34 -146.5h151v-291h-319z" />
<glyph unicode="&#x201d;" horiz-adv-x="1097" d="M139 829v121q89 29 117.5 74.5t34.5 146.5h-152v291h320v-221q0 -171 -77.5 -280.5t-242.5 -131.5zM639 829v121q89 29 117.5 74.5t34.5 146.5h-152v291h319v-221q0 -172 -77 -281t-242 -131z" />
<glyph unicode="&#x201e;" horiz-adv-x="1097" d="M139 0v291h320v-221q0 -171 -77.5 -280.5t-242.5 -131.5v121q89 29 117.5 74.5t34.5 146.5h-152zM639 0v291h319v-221q0 -172 -77 -281t-242 -131v121q89 29 117.5 74.5t34.5 146.5h-152z" />
<glyph unicode="&#x2022;" horiz-adv-x="1024" d="M147 731q0 152 106.5 258.5t258.5 106.5t259.5 -106.5t107.5 -258.5t-107.5 -259t-259.5 -107t-258.5 107t-106.5 259z" />
<glyph unicode="&#x2026;" horiz-adv-x="2048" d="M182 0v291h320v-291h-320zM864 0v291h320v-291h-320zM1546 0v291h320v-291h-320z" />
<glyph unicode="&#x202f;" horiz-adv-x="400" />
<glyph unicode="&#x2039;" horiz-adv-x="720" d="M156 446v263l385 286v-241l-242 -176l242 -172v-242z" />
<glyph unicode="&#x203a;" horiz-adv-x="720" d="M180 160v241l242 177l-242 172v241l385 -282v-263z" />
<glyph unicode="&#x205f;" horiz-adv-x="500" />
<glyph unicode="&#x2122;" horiz-adv-x="2027" d="M55 1319v143h680v-143h-250v-701h-180v701h-250zM924 618v844h254l223 -579l219 579h254v-844h-168v639h-4l-240 -639h-127l-239 639h-4v-639h-168z" />
<glyph unicode="&#x25fc;" horiz-adv-x="1085" d="M0 0v1085h1085v-1085h-1085z" />
<glyph unicode="&#xfb01;" horiz-adv-x="1290" d="M-23 881v204h224v140q0 43 5 76t24.5 73t53 66.5t95.5 44.5t147 18q122 0 254 -8v-205q-62 8 -145 8q-94 0 -123 -26.5t-29 -102.5v-84h297v-204h-297v-881h-282v881h-224zM885 0v1085h282v-1085h-282zM885 1257v230h282v-230h-282z" />
<glyph unicode="&#xfb02;" horiz-adv-x="1290" d="M-23 881v204h224v140q0 43 5 76t24.5 73t53 66.5t95.5 44.5t147 18q122 0 254 -8v-205q-62 8 -145 8q-94 0 -123 -26.5t-29 -102.5v-84h297v-204h-297v-881h-282v881h-224zM885 0v1487h282v-1487h-282z" />
<hkern u1="A" u2="&#x2019;" k="188" />
<hkern u1="A" u2="y" k="37" />
<hkern u1="A" u2="w" k="37" />
<hkern u1="A" u2="v" k="37" />
<hkern u1="A" u2="Y" k="143" />
<hkern u1="A" u2="W" k="76" />
<hkern u1="A" u2="V" k="76" />
<hkern u1="A" u2="T" k="113" />
<hkern u1="F" u2="A" k="76" />
<hkern u1="F" u2="&#x2e;" k="227" />
<hkern u1="F" u2="&#x2c;" k="227" />
<hkern u1="L" u2="&#x2019;" k="188" />
<hkern u1="L" u2="y" k="76" />
<hkern u1="L" u2="Y" k="266" />
<hkern u1="L" u2="W" k="152" />
<hkern u1="L" u2="V" k="188" />
<hkern u1="L" u2="T" k="227" />
<hkern u1="P" u2="A" k="76" />
<hkern u1="P" u2="&#x2e;" k="264" />
<hkern u1="P" u2="&#x2c;" k="264" />
<hkern u1="T" u2="y" k="152" />
<hkern u1="T" u2="w" k="188" />
<hkern u1="T" u2="u" k="152" />
<hkern u1="T" u2="s" k="152" />
<hkern u1="T" u2="r" k="152" />
<hkern u1="T" u2="o" k="152" />
<hkern u1="T" u2="i" k="152" />
<hkern u1="T" u2="e" k="152" />
<hkern u1="T" u2="c" k="152" />
<hkern u1="T" u2="a" k="152" />
<hkern u1="T" u2="A" k="76" />
<hkern u1="T" u2="&#x3b;" k="188" />
<hkern u1="T" u2="&#x3a;" k="188" />
<hkern u1="T" u2="&#x2e;" k="188" />
<hkern u1="T" u2="&#x2d;" k="188" />
<hkern u1="T" u2="&#x2c;" k="188" />
<hkern u1="V" u2="y" k="37" />
<hkern u1="V" u2="u" k="37" />
<hkern u1="V" u2="r" k="37" />
<hkern u1="V" u2="o" k="76" />
<hkern u1="V" u2="e" k="76" />
<hkern u1="V" u2="a" k="76" />
<hkern u1="V" u2="A" k="76" />
<hkern u1="V" u2="&#x3b;" k="76" />
<hkern u1="V" u2="&#x3a;" k="76" />
<hkern u1="V" u2="&#x2e;" k="227" />
<hkern u1="V" u2="&#x2d;" k="76" />
<hkern u1="V" u2="&#x2c;" k="227" />
<hkern u1="W" u2="o" k="37" />
<hkern u1="W" u2="e" k="37" />
<hkern u1="W" u2="a" k="37" />
<hkern u1="W" u2="A" k="76" />
<hkern u1="W" u2="&#x3b;" k="37" />
<hkern u1="W" u2="&#x3a;" k="37" />
<hkern u1="W" u2="&#x2e;" k="113" />
<hkern u1="W" u2="&#x2d;" k="76" />
<hkern u1="W" u2="&#x2c;" k="113" />
<hkern u1="Y" u2="v" k="37" />
<hkern u1="Y" u2="u" k="76" />
<hkern u1="Y" u2="q" k="143" />
<hkern u1="Y" u2="p" k="76" />
<hkern u1="Y" u2="o" k="152" />
<hkern u1="Y" u2="i" k="37" />
<hkern u1="Y" u2="e" k="152" />
<hkern u1="Y" u2="a" k="152" />
<hkern u1="Y" u2="A" k="143" />
<hkern u1="Y" u2="&#x3b;" k="113" />
<hkern u1="Y" u2="&#x3a;" k="113" />
<hkern u1="Y" u2="&#x2e;" k="264" />
<hkern u1="Y" u2="&#x2d;" k="188" />
<hkern u1="Y" u2="&#x2c;" k="264" />
<hkern u1="r" u2="&#x2e;" k="152" />
<hkern u1="r" u2="&#x2d;" k="113" />
<hkern u1="r" u2="&#x2c;" k="152" />
<hkern u1="v" u2="&#x2e;" k="113" />
<hkern u1="v" u2="&#x2c;" k="113" />
<hkern u1="w" u2="&#x2e;" k="113" />
<hkern u1="w" u2="&#x2c;" k="113" />
<hkern u1="y" u2="&#x2e;" k="152" />
<hkern u1="y" u2="&#x2c;" k="152" />
<hkern u1="&#x2018;" u2="&#x2018;" k="221" />
<hkern u1="&#x2019;" u2="&#x2019;" k="221" />
<hkern u1="&#x2019;" u2="t" k="37" />
<hkern u1="&#x2019;" u2="s" k="76" />
</font>
</defs></svg> 